<?xml version="1.0" encoding="utf-8"?>
<!DOCTYPE eagle SYSTEM "eagle.dtd">
<eagle version="9.6.2">
<drawing>
<settings>
<setting alwaysvectorfont="no"/>
<setting verticaltext="up"/>
</settings>
<grid distance="0.1" unitdist="inch" unit="inch" style="lines" multiple="1" display="no" altdistance="0.01" altunitdist="inch" altunit="inch"/>
<layers>
<layer number="1" name="Top" color="4" fill="1" visible="no" active="no"/>
<layer number="2" name="Route2" color="1" fill="3" visible="no" active="no"/>
<layer number="3" name="Route3" color="4" fill="3" visible="no" active="no"/>
<layer number="4" name="Route4" color="1" fill="4" visible="no" active="no"/>
<layer number="5" name="Route5" color="4" fill="4" visible="no" active="no"/>
<layer number="6" name="Route6" color="1" fill="8" visible="no" active="no"/>
<layer number="7" name="Route7" color="4" fill="8" visible="no" active="no"/>
<layer number="8" name="Route8" color="1" fill="2" visible="no" active="no"/>
<layer number="9" name="Route9" color="4" fill="2" visible="no" active="no"/>
<layer number="10" name="Route10" color="1" fill="7" visible="no" active="no"/>
<layer number="11" name="Route11" color="4" fill="7" visible="no" active="no"/>
<layer number="12" name="Route12" color="1" fill="5" visible="no" active="no"/>
<layer number="13" name="Route13" color="4" fill="5" visible="no" active="no"/>
<layer number="14" name="Route14" color="1" fill="6" visible="no" active="no"/>
<layer number="15" name="Route15" color="4" fill="6" visible="no" active="no"/>
<layer number="16" name="Bottom" color="1" fill="1" visible="no" active="no"/>
<layer number="17" name="Pads" color="2" fill="1" visible="no" active="no"/>
<layer number="18" name="Vias" color="2" fill="1" visible="no" active="no"/>
<layer number="19" name="Unrouted" color="6" fill="1" visible="no" active="no"/>
<layer number="20" name="Dimension" color="15" fill="1" visible="no" active="no"/>
<layer number="21" name="tPlace" color="7" fill="1" visible="no" active="no"/>
<layer number="22" name="bPlace" color="7" fill="1" visible="no" active="no"/>
<layer number="23" name="tOrigins" color="15" fill="1" visible="no" active="no"/>
<layer number="24" name="bOrigins" color="15" fill="1" visible="no" active="no"/>
<layer number="25" name="tNames" color="7" fill="1" visible="no" active="no"/>
<layer number="26" name="bNames" color="7" fill="1" visible="no" active="no"/>
<layer number="27" name="tValues" color="7" fill="1" visible="no" active="no"/>
<layer number="28" name="bValues" color="7" fill="1" visible="no" active="no"/>
<layer number="29" name="tStop" color="7" fill="3" visible="no" active="no"/>
<layer number="30" name="bStop" color="7" fill="6" visible="no" active="no"/>
<layer number="31" name="tCream" color="7" fill="4" visible="no" active="no"/>
<layer number="32" name="bCream" color="7" fill="5" visible="no" active="no"/>
<layer number="33" name="tFinish" color="6" fill="3" visible="no" active="no"/>
<layer number="34" name="bFinish" color="6" fill="6" visible="no" active="no"/>
<layer number="35" name="tGlue" color="7" fill="4" visible="no" active="no"/>
<layer number="36" name="bGlue" color="7" fill="5" visible="no" active="no"/>
<layer number="37" name="tTest" color="7" fill="1" visible="no" active="no"/>
<layer number="38" name="bTest" color="7" fill="1" visible="no" active="no"/>
<layer number="39" name="tKeepout" color="4" fill="11" visible="no" active="no"/>
<layer number="40" name="bKeepout" color="1" fill="11" visible="no" active="no"/>
<layer number="41" name="tRestrict" color="4" fill="10" visible="no" active="no"/>
<layer number="42" name="bRestrict" color="1" fill="10" visible="no" active="no"/>
<layer number="43" name="vRestrict" color="2" fill="10" visible="no" active="no"/>
<layer number="44" name="Drills" color="7" fill="1" visible="no" active="no"/>
<layer number="45" name="Holes" color="7" fill="1" visible="no" active="no"/>
<layer number="46" name="Milling" color="3" fill="1" visible="no" active="no"/>
<layer number="47" name="Measures" color="7" fill="1" visible="no" active="no"/>
<layer number="48" name="Document" color="7" fill="1" visible="no" active="no"/>
<layer number="49" name="Reference" color="7" fill="1" visible="no" active="no"/>
<layer number="50" name="dxf" color="7" fill="1" visible="no" active="no"/>
<layer number="51" name="tDocu" color="7" fill="1" visible="no" active="no"/>
<layer number="52" name="bDocu" color="7" fill="1" visible="no" active="no"/>
<layer number="53" name="tGND_GNDA" color="7" fill="9" visible="no" active="no"/>
<layer number="54" name="bGND_GNDA" color="1" fill="9" visible="no" active="no"/>
<layer number="56" name="wert" color="7" fill="1" visible="no" active="no"/>
<layer number="57" name="tCAD" color="7" fill="1" visible="no" active="no"/>
<layer number="59" name="tCarbon" color="7" fill="1" visible="no" active="no"/>
<layer number="60" name="bCarbon" color="7" fill="1" visible="no" active="no"/>
<layer number="88" name="SimResults" color="9" fill="1" visible="yes" active="yes"/>
<layer number="89" name="SimProbes" color="9" fill="1" visible="yes" active="yes"/>
<layer number="90" name="Modules" color="5" fill="1" visible="yes" active="yes"/>
<layer number="91" name="Nets" color="2" fill="1" visible="yes" active="yes"/>
<layer number="92" name="Busses" color="1" fill="1" visible="yes" active="yes"/>
<layer number="93" name="Pins" color="2" fill="1" visible="no" active="yes"/>
<layer number="94" name="Symbols" color="4" fill="1" visible="yes" active="yes"/>
<layer number="95" name="Names" color="7" fill="1" visible="yes" active="yes"/>
<layer number="96" name="Values" color="7" fill="1" visible="yes" active="yes"/>
<layer number="97" name="Info" color="7" fill="1" visible="yes" active="yes"/>
<layer number="98" name="Guide" color="6" fill="1" visible="yes" active="yes"/>
<layer number="99" name="SpiceOrder" color="7" fill="1" visible="yes" active="yes"/>
<layer number="100" name="Muster" color="7" fill="1" visible="no" active="no"/>
<layer number="101" name="Patch_Top" color="12" fill="4" visible="no" active="yes"/>
<layer number="102" name="Vscore" color="7" fill="1" visible="no" active="yes"/>
<layer number="103" name="tMap" color="7" fill="1" visible="no" active="yes"/>
<layer number="104" name="Name" color="7" fill="1" visible="no" active="yes"/>
<layer number="105" name="tPlate" color="7" fill="1" visible="no" active="yes"/>
<layer number="106" name="bPlate" color="7" fill="1" visible="no" active="yes"/>
<layer number="107" name="Crop" color="7" fill="1" visible="no" active="yes"/>
<layer number="108" name="tplace-old" color="10" fill="1" visible="no" active="yes"/>
<layer number="109" name="ref-old" color="11" fill="1" visible="no" active="yes"/>
<layer number="110" name="fp0" color="7" fill="1" visible="no" active="yes"/>
<layer number="111" name="LPC17xx" color="7" fill="1" visible="no" active="yes"/>
<layer number="112" name="tSilk" color="7" fill="1" visible="no" active="yes"/>
<layer number="113" name="IDFDebug" color="7" fill="1" visible="no" active="yes"/>
<layer number="114" name="Badge_Outline" color="7" fill="1" visible="no" active="yes"/>
<layer number="115" name="ReferenceISLANDS" color="7" fill="1" visible="no" active="yes"/>
<layer number="116" name="Patch_BOT" color="9" fill="4" visible="no" active="yes"/>
<layer number="117" name="BACKMAAT1" color="7" fill="1" visible="yes" active="yes"/>
<layer number="118" name="Rect_Pads" color="7" fill="1" visible="no" active="yes"/>
<layer number="119" name="KAP_TEKEN" color="7" fill="1" visible="yes" active="yes"/>
<layer number="120" name="KAP_MAAT1" color="7" fill="1" visible="yes" active="yes"/>
<layer number="121" name="_tsilk" color="7" fill="1" visible="no" active="yes"/>
<layer number="122" name="_bsilk" color="7" fill="1" visible="no" active="yes"/>
<layer number="123" name="tTestmark" color="7" fill="1" visible="no" active="yes"/>
<layer number="124" name="bTestmark" color="7" fill="1" visible="no" active="yes"/>
<layer number="125" name="_tNames" color="7" fill="1" visible="no" active="yes"/>
<layer number="126" name="_bNames" color="7" fill="1" visible="no" active="yes"/>
<layer number="127" name="_tValues" color="7" fill="1" visible="no" active="yes"/>
<layer number="128" name="_bValues" color="7" fill="1" visible="no" active="yes"/>
<layer number="129" name="Mask" color="7" fill="1" visible="no" active="yes"/>
<layer number="130" name="SMDSTROOK" color="7" fill="1" visible="yes" active="yes"/>
<layer number="131" name="tAdjust" color="7" fill="1" visible="no" active="yes"/>
<layer number="132" name="bAdjust" color="7" fill="1" visible="no" active="yes"/>
<layer number="133" name="bottom_silk" color="7" fill="1" visible="yes" active="yes"/>
<layer number="144" name="Drill_legend" color="7" fill="1" visible="no" active="yes"/>
<layer number="150" name="Notes" color="7" fill="1" visible="no" active="yes"/>
<layer number="151" name="HeatSink" color="7" fill="1" visible="no" active="yes"/>
<layer number="152" name="_bDocu" color="7" fill="1" visible="no" active="yes"/>
<layer number="153" name="FabDoc1" color="7" fill="1" visible="no" active="yes"/>
<layer number="154" name="FabDoc2" color="7" fill="1" visible="no" active="yes"/>
<layer number="155" name="FabDoc3" color="7" fill="1" visible="no" active="yes"/>
<layer number="199" name="Contour" color="7" fill="1" visible="no" active="yes"/>
<layer number="200" name="200bmp" color="1" fill="10" visible="no" active="yes"/>
<layer number="201" name="201bmp" color="2" fill="10" visible="no" active="yes"/>
<layer number="202" name="202bmp" color="3" fill="10" visible="no" active="yes"/>
<layer number="203" name="203bmp" color="4" fill="10" visible="no" active="yes"/>
<layer number="204" name="204bmp" color="5" fill="10" visible="no" active="yes"/>
<layer number="205" name="205bmp" color="6" fill="10" visible="no" active="yes"/>
<layer number="206" name="206bmp" color="7" fill="10" visible="no" active="yes"/>
<layer number="207" name="207bmp" color="8" fill="10" visible="no" active="yes"/>
<layer number="208" name="208bmp" color="9" fill="10" visible="no" active="yes"/>
<layer number="209" name="209bmp" color="7" fill="1" visible="no" active="yes"/>
<layer number="210" name="210bmp" color="7" fill="1" visible="no" active="yes"/>
<layer number="211" name="211bmp" color="7" fill="1" visible="no" active="yes"/>
<layer number="212" name="212bmp" color="7" fill="1" visible="no" active="yes"/>
<layer number="213" name="213bmp" color="7" fill="1" visible="no" active="yes"/>
<layer number="214" name="214bmp" color="7" fill="1" visible="no" active="yes"/>
<layer number="215" name="215bmp" color="7" fill="1" visible="no" active="yes"/>
<layer number="216" name="216bmp" color="7" fill="1" visible="no" active="yes"/>
<layer number="217" name="217bmp" color="18" fill="1" visible="no" active="no"/>
<layer number="218" name="218bmp" color="19" fill="1" visible="no" active="no"/>
<layer number="219" name="219bmp" color="20" fill="1" visible="no" active="no"/>
<layer number="220" name="220bmp" color="21" fill="1" visible="no" active="no"/>
<layer number="221" name="221bmp" color="22" fill="1" visible="no" active="no"/>
<layer number="222" name="222bmp" color="23" fill="1" visible="no" active="no"/>
<layer number="223" name="223bmp" color="24" fill="1" visible="no" active="no"/>
<layer number="224" name="224bmp" color="25" fill="1" visible="no" active="no"/>
<layer number="225" name="225bmp" color="7" fill="1" visible="no" active="yes"/>
<layer number="226" name="226bmp" color="7" fill="1" visible="no" active="yes"/>
<layer number="227" name="227bmp" color="7" fill="1" visible="no" active="yes"/>
<layer number="228" name="228bmp" color="7" fill="1" visible="no" active="yes"/>
<layer number="229" name="229bmp" color="7" fill="1" visible="no" active="yes"/>
<layer number="230" name="230bmp" color="7" fill="1" visible="no" active="yes"/>
<layer number="231" name="231bmp" color="7" fill="1" visible="no" active="yes"/>
<layer number="232" name="Eagle3D_PG2" color="7" fill="1" visible="no" active="yes"/>
<layer number="233" name="Eagle3D_PG3" color="7" fill="1" visible="no" active="yes"/>
<layer number="248" name="Housing" color="7" fill="1" visible="no" active="yes"/>
<layer number="249" name="Edge" color="7" fill="1" visible="no" active="yes"/>
<layer number="250" name="Descript" color="3" fill="1" visible="no" active="no"/>
<layer number="251" name="SMDround" color="12" fill="11" visible="no" active="no"/>
<layer number="254" name="cooling" color="7" fill="1" visible="no" active="yes"/>
<layer number="255" name="routoute" color="7" fill="1" visible="no" active="yes"/>
</layers>
<schematic xreflabel="%F%N/%S.%C%R" xrefpart="/%S.%C%R">
<libraries>
<library name="ATSAMD11C14A-SSUT">
<packages>
<package name="SOIC127P600X160-14N">
<wire x1="-1.2" y1="4.35" x2="-1.2" y2="-4.35" width="0.127" layer="21"/>
<wire x1="-1.2" y1="-4.35" x2="1.2" y2="-4.35" width="0.127" layer="21"/>
<wire x1="1.2" y1="-4.35" x2="1.2" y2="4.35" width="0.127" layer="21"/>
<wire x1="1.2" y1="4.35" x2="-1.2" y2="4.35" width="0.127" layer="21"/>
<wire x1="-3.7" y1="4.65" x2="3.7" y2="4.65" width="0.127" layer="39"/>
<wire x1="3.7" y1="4.65" x2="3.7" y2="-4.65" width="0.127" layer="39"/>
<wire x1="3.7" y1="-4.65" x2="-3.7" y2="-4.65" width="0.127" layer="39"/>
<wire x1="-3.7" y1="-4.65" x2="-3.7" y2="4.65" width="0.127" layer="39"/>
<circle x="-2.7" y="4.6" radius="0.08" width="0.6096" layer="21"/>
<text x="-1.800509375" y="4.601290625" size="1.270359375" layer="25">&gt;NAME</text>
<text x="-3.100290625" y="-5.800540625" size="1.27011875" layer="27">&gt;VALUE</text>
<smd name="1" x="-2.45" y="3.81" dx="2" dy="0.6" layer="1" roundness="100"/>
<smd name="2" x="-2.45" y="2.54" dx="2" dy="0.6" layer="1" roundness="100"/>
<smd name="3" x="-2.45" y="1.27" dx="2" dy="0.6" layer="1" roundness="100"/>
<smd name="4" x="-2.45" y="0" dx="2" dy="0.6" layer="1" roundness="100"/>
<smd name="5" x="-2.45" y="-1.27" dx="2" dy="0.6" layer="1" roundness="100"/>
<smd name="6" x="-2.45" y="-2.54" dx="2" dy="0.6" layer="1" roundness="100"/>
<smd name="7" x="-2.45" y="-3.81" dx="2" dy="0.6" layer="1" roundness="100"/>
<smd name="8" x="2.45" y="-3.81" dx="2" dy="0.6" layer="1" roundness="100" rot="R180"/>
<smd name="9" x="2.45" y="-2.54" dx="2" dy="0.6" layer="1" roundness="100" rot="R180"/>
<smd name="10" x="2.45" y="-1.27" dx="2" dy="0.6" layer="1" roundness="100" rot="R180"/>
<smd name="11" x="2.45" y="0" dx="2" dy="0.6" layer="1" roundness="100" rot="R180"/>
<smd name="12" x="2.45" y="1.27" dx="2" dy="0.6" layer="1" roundness="100" rot="R180"/>
<smd name="13" x="2.45" y="2.54" dx="2" dy="0.6" layer="1" roundness="100" rot="R180"/>
<smd name="14" x="2.45" y="3.81" dx="2" dy="0.6" layer="1" roundness="100" rot="R180"/>
</package>
</packages>
<symbols>
<symbol name="ATSAMD11C14A-SSUT">
<wire x1="-10.16" y1="15.24" x2="7.62" y2="15.24" width="0.254" layer="94"/>
<wire x1="7.62" y1="15.24" x2="7.62" y2="-17.78" width="0.254" layer="94"/>
<wire x1="7.62" y1="-17.78" x2="-10.16" y2="-17.78" width="0.254" layer="94"/>
<wire x1="-10.16" y1="-17.78" x2="-10.16" y2="15.24" width="0.254" layer="94"/>
<text x="-10.1799" y="15.7789" size="1.272490625" layer="95">&gt;NAME</text>
<text x="-9.65225" y="-19.5585" size="1.27003125" layer="96">&gt;VALUE</text>
<pin name="PA05" x="-15.24" y="7.62" length="middle"/>
<pin name="PA08" x="-15.24" y="5.08" length="middle"/>
<pin name="PA09" x="-15.24" y="2.54" length="middle"/>
<pin name="PA14" x="-15.24" y="0" length="middle"/>
<pin name="PA15" x="-15.24" y="-2.54" length="middle"/>
<pin name="PA28/!RST" x="-15.24" y="-10.16" length="middle"/>
<pin name="PA30" x="-15.24" y="-12.7" length="middle"/>
<pin name="PA04" x="-15.24" y="10.16" length="middle"/>
<pin name="PA02" x="-15.24" y="12.7" length="middle"/>
<pin name="VDD" x="12.7" y="12.7" length="middle" direction="pwr" rot="R180"/>
<pin name="GND" x="12.7" y="-15.24" length="middle" direction="pwr" rot="R180"/>
<pin name="PA25" x="-15.24" y="-7.62" length="middle"/>
<pin name="PA24" x="-15.24" y="-5.08" length="middle"/>
<pin name="PA31" x="-15.24" y="-15.24" length="middle"/>
</symbol>
</symbols>
<devicesets>
<deviceset name="ATSAMD11C14A-SSUT" prefix="U">
<description>MCU 32-Bit SAM D11 ARM Cortex M0+ RISC 16KB Flash 1.8V/2.5V/3.3V 14-Pin SOIC T/R</description>
<gates>
<gate name="G$1" symbol="ATSAMD11C14A-SSUT" x="0" y="0"/>
</gates>
<devices>
<device name="" package="SOIC127P600X160-14N">
<connects>
<connect gate="G$1" pin="GND" pad="11"/>
<connect gate="G$1" pin="PA02" pad="13"/>
<connect gate="G$1" pin="PA04" pad="14"/>
<connect gate="G$1" pin="PA05" pad="1"/>
<connect gate="G$1" pin="PA08" pad="2"/>
<connect gate="G$1" pin="PA09" pad="3"/>
<connect gate="G$1" pin="PA14" pad="4"/>
<connect gate="G$1" pin="PA15" pad="5"/>
<connect gate="G$1" pin="PA24" pad="9"/>
<connect gate="G$1" pin="PA25" pad="10"/>
<connect gate="G$1" pin="PA28/!RST" pad="6"/>
<connect gate="G$1" pin="PA30" pad="7"/>
<connect gate="G$1" pin="PA31" pad="8"/>
<connect gate="G$1" pin="VDD" pad="12"/>
</connects>
<technologies>
<technology name="">
<attribute name="AVAILABILITY" value="Unavailable"/>
<attribute name="DESCRIPTION" value=" ARM® Cortex®-M0+ SAM D11C Microcontroller IC 32-Bit 48MHz 16KB (16K x 8) FLASH 14-SOIC "/>
<attribute name="MF" value="Microchip"/>
<attribute name="MP" value="ATSAMD11C14A-SSUT"/>
<attribute name="PACKAGE" value="SOIC-14 Microchip"/>
<attribute name="PRICE" value="None"/>
</technology>
</technologies>
</device>
</devices>
</deviceset>
</devicesets>
</library>
<library name="eagle_fab">
<packages>
<package name="SOIC8_PAD">
<description>&lt;B&gt;Wide Plastic Gull Wing Small Outline Package&lt;/B&gt;</description>
<wire x1="-2.6" y1="2.25" x2="-2.35" y2="2.5" width="0.1524" layer="21" curve="-90" cap="flat"/>
<wire x1="2.35" y1="2.5" x2="2.6" y2="2.25" width="0.1524" layer="21" curve="-90"/>
<wire x1="2.35" y1="-2.5" x2="2.6" y2="-2.25" width="0.1524" layer="21" curve="90" cap="flat"/>
<wire x1="-2.6" y1="-2.25" x2="-2.35" y2="-2.5" width="0.1524" layer="21" curve="90" cap="flat"/>
<wire x1="2.36" y1="-2.5" x2="-2.34" y2="-2.5" width="0.1524" layer="51"/>
<wire x1="-2.34" y1="2.5" x2="2.36" y2="2.5" width="0.1524" layer="51"/>
<wire x1="-2.21" y1="2.5" x2="-2.34" y2="2.5" width="0.1524" layer="21"/>
<wire x1="-1.59" y1="2.5" x2="-0.95" y2="2.5" width="0.1524" layer="21"/>
<wire x1="-0.32" y1="2.5" x2="0.32" y2="2.5" width="0.1524" layer="21"/>
<wire x1="0.95" y1="2.5" x2="1.59" y2="2.5" width="0.1524" layer="21"/>
<wire x1="2.21" y1="2.5" x2="2.36" y2="2.5" width="0.1524" layer="21"/>
<wire x1="2.2" y1="-2.5" x2="2.33" y2="-2.5" width="0.1524" layer="21"/>
<wire x1="1.59" y1="-2.5" x2="0.94" y2="-2.5" width="0.1524" layer="21"/>
<wire x1="0.32" y1="-2.5" x2="-0.33" y2="-2.5" width="0.1524" layer="21"/>
<wire x1="-0.95" y1="-2.5" x2="-1.59" y2="-2.5" width="0.1524" layer="21"/>
<wire x1="-2.21" y1="-2.5" x2="-2.34" y2="-2.5" width="0.1524" layer="21"/>
<wire x1="-2.6" y1="2.25" x2="-2.6" y2="-2.24" width="0.1524" layer="21"/>
<wire x1="2.6" y1="-2.25" x2="2.6" y2="2.25" width="0.1524" layer="21"/>
<circle x="-1.42" y="-1.115" radius="0.5" width="0.0508" layer="21"/>
<smd name="1" x="-1.905" y="-3.154" dx="0.5" dy="2.2" layer="1"/>
<smd name="2" x="-0.645" y="-3.154" dx="0.5" dy="2.2" layer="1"/>
<smd name="3" x="0.625" y="-3.154" dx="0.5" dy="2.2" layer="1"/>
<smd name="4" x="1.895" y="-3.154" dx="0.5" dy="2.2" layer="1"/>
<smd name="8" x="-1.905" y="3.154" dx="0.5" dy="2.2" layer="1"/>
<smd name="7" x="-0.635" y="3.154" dx="0.5" dy="2.2" layer="1"/>
<smd name="6" x="0.635" y="3.154" dx="0.5" dy="2.2" layer="1"/>
<smd name="5" x="1.905" y="3.154" dx="0.5" dy="2.2" layer="1"/>
<text x="-2.8575" y="-2.159" size="1.27" layer="25" ratio="10" rot="R90">&gt;NAME</text>
<text x="4.064" y="-2.159" size="1.27" layer="27" ratio="10" rot="R90">&gt;VALUE</text>
<rectangle x1="-2.08" y1="2.5" x2="-1.73" y2="3.4" layer="51"/>
<rectangle x1="-0.81" y1="2.5" x2="-0.46" y2="3.4" layer="51"/>
<rectangle x1="0.46" y1="2.5" x2="0.81" y2="3.4" layer="51"/>
<rectangle x1="1.73" y1="2.5" x2="2.08" y2="3.4" layer="51"/>
<rectangle x1="1.72" y1="-3.4" x2="2.07" y2="-2.5" layer="51"/>
<rectangle x1="0.45" y1="-3.4" x2="0.8" y2="-2.5" layer="51"/>
<rectangle x1="-0.82" y1="-3.4" x2="-0.47" y2="-2.5" layer="51"/>
<rectangle x1="-2.08" y1="-3.4" x2="-1.73" y2="-2.5" layer="51"/>
<smd name="GND" x="0" y="0" dx="3.8862" dy="2.9972" layer="1" thermals="no"/>
</package>
<package name="R1206">
<description>&lt;b&gt;RESISTOR&lt;/b&gt;</description>
<wire x1="0.9525" y1="-0.8128" x2="-0.9652" y2="-0.8128" width="0.1524" layer="51"/>
<wire x1="0.9525" y1="0.8128" x2="-0.9652" y2="0.8128" width="0.1524" layer="51"/>
<wire x1="-2.473" y1="0.983" x2="2.473" y2="0.983" width="0.0508" layer="39"/>
<wire x1="2.473" y1="0.983" x2="2.473" y2="-0.983" width="0.0508" layer="39"/>
<wire x1="2.473" y1="-0.983" x2="-2.473" y2="-0.983" width="0.0508" layer="39"/>
<wire x1="-2.473" y1="-0.983" x2="-2.473" y2="0.983" width="0.0508" layer="39"/>
<smd name="2" x="1.422" y="0" dx="1.6" dy="1.803" layer="1"/>
<smd name="1" x="-1.422" y="0" dx="1.6" dy="1.803" layer="1"/>
<text x="-1.27" y="1.27" size="1.27" layer="25">&gt;NAME</text>
<text x="-1.27" y="-2.54" size="1.27" layer="27">&gt;VALUE</text>
<rectangle x1="-1.6891" y1="-0.8763" x2="-0.9525" y2="0.8763" layer="51"/>
<rectangle x1="0.9525" y1="-0.8763" x2="1.6891" y2="0.8763" layer="51"/>
<rectangle x1="-0.3" y1="-0.7" x2="0.3" y2="0.7" layer="35"/>
</package>
<package name="R1206W">
<description>&lt;b&gt;RESISTOR&lt;/b&gt;&lt;p&gt;
wave soldering</description>
<wire x1="-0.913" y1="0.8" x2="0.888" y2="0.8" width="0.1524" layer="51"/>
<wire x1="-0.913" y1="-0.8" x2="0.888" y2="-0.8" width="0.1524" layer="51"/>
<wire x1="-2.473" y1="0.983" x2="2.473" y2="0.983" width="0.0508" layer="39"/>
<wire x1="2.473" y1="0.983" x2="2.473" y2="-0.983" width="0.0508" layer="39"/>
<wire x1="2.473" y1="-0.983" x2="-2.473" y2="-0.983" width="0.0508" layer="39"/>
<wire x1="-2.473" y1="-0.983" x2="-2.473" y2="0.983" width="0.0508" layer="39"/>
<smd name="1" x="-1.499" y="0" dx="1.8" dy="1.2" layer="1"/>
<smd name="2" x="1.499" y="0" dx="1.8" dy="1.2" layer="1"/>
<text x="-1.905" y="1.27" size="1.27" layer="25">&gt;NAME</text>
<text x="-1.905" y="-2.54" size="1.27" layer="27">&gt;VALUE</text>
<rectangle x1="-1.651" y1="-0.8763" x2="-0.9009" y2="0.8738" layer="51"/>
<rectangle x1="0.889" y1="-0.8763" x2="1.6391" y2="0.8738" layer="51"/>
<rectangle x1="-0.3" y1="-0.7" x2="0.3" y2="0.7" layer="35"/>
</package>
<package name="R1206FAB">
<wire x1="-2.032" y1="1.016" x2="2.032" y2="1.016" width="0.127" layer="21"/>
<wire x1="2.032" y1="1.016" x2="2.032" y2="-1.016" width="0.127" layer="21"/>
<wire x1="2.032" y1="-1.016" x2="-2.032" y2="-1.016" width="0.127" layer="21"/>
<wire x1="-2.032" y1="-1.016" x2="-2.032" y2="1.016" width="0.127" layer="21"/>
<smd name="1" x="-1.651" y="0" dx="1.27" dy="1.905" layer="1"/>
<smd name="2" x="1.651" y="0" dx="1.27" dy="1.905" layer="1"/>
<text x="-1.778" y="1.27" size="1.016" layer="25" ratio="15">&gt;NAME</text>
<text x="-1.778" y="-2.286" size="1.016" layer="27" ratio="15">&gt;VALUE</text>
</package>
<package name="2X02SMD">
<smd name="1" x="-2.54" y="1.27" dx="2.54" dy="1.27" layer="1"/>
<smd name="3" x="-2.54" y="-1.27" dx="2.54" dy="1.27" layer="1"/>
<smd name="2" x="2.92" y="1.27" dx="2.54" dy="1.27" layer="1"/>
<smd name="4" x="2.92" y="-1.27" dx="2.54" dy="1.27" layer="1"/>
<text x="-5.08" y="1.27" size="1.27" layer="27">1</text>
<text x="-3.81" y="2.54" size="1.27" layer="21">&gt;NAME</text>
<text x="-3.81" y="-3.81" size="1.27" layer="21">&gt;VALUE</text>
</package>
<package name="6MM_SWITCH">
<description>&lt;b&gt;OMRON SWITCH&lt;/b&gt;</description>
<wire x1="3.302" y1="-0.762" x2="3.048" y2="-0.762" width="0.1524" layer="21"/>
<wire x1="3.302" y1="-0.762" x2="3.302" y2="0.762" width="0.1524" layer="21"/>
<wire x1="3.048" y1="0.762" x2="3.302" y2="0.762" width="0.1524" layer="21"/>
<wire x1="3.048" y1="1.016" x2="3.048" y2="2.54" width="0.1524" layer="51"/>
<wire x1="-3.302" y1="0.762" x2="-3.048" y2="0.762" width="0.1524" layer="21"/>
<wire x1="-3.302" y1="0.762" x2="-3.302" y2="-0.762" width="0.1524" layer="21"/>
<wire x1="-3.048" y1="-0.762" x2="-3.302" y2="-0.762" width="0.1524" layer="21"/>
<wire x1="3.048" y1="2.54" x2="2.54" y2="3.048" width="0.1524" layer="51"/>
<wire x1="2.54" y1="-3.048" x2="3.048" y2="-2.54" width="0.1524" layer="51"/>
<wire x1="3.048" y1="-2.54" x2="3.048" y2="-1.016" width="0.1524" layer="51"/>
<wire x1="-2.54" y1="3.048" x2="-3.048" y2="2.54" width="0.1524" layer="51"/>
<wire x1="-3.048" y1="2.54" x2="-3.048" y2="1.016" width="0.1524" layer="51"/>
<wire x1="-2.54" y1="-3.048" x2="-3.048" y2="-2.54" width="0.1524" layer="51"/>
<wire x1="-3.048" y1="-2.54" x2="-3.048" y2="-1.016" width="0.1524" layer="51"/>
<wire x1="-1.27" y1="1.27" x2="-1.27" y2="-1.27" width="0.0508" layer="51"/>
<wire x1="1.27" y1="-1.27" x2="-1.27" y2="-1.27" width="0.0508" layer="51"/>
<wire x1="1.27" y1="-1.27" x2="1.27" y2="1.27" width="0.0508" layer="51"/>
<wire x1="-1.27" y1="1.27" x2="1.27" y2="1.27" width="0.0508" layer="51"/>
<wire x1="-1.27" y1="3.048" x2="-1.27" y2="2.794" width="0.0508" layer="21"/>
<wire x1="1.27" y1="2.794" x2="-1.27" y2="2.794" width="0.0508" layer="21"/>
<wire x1="1.27" y1="2.794" x2="1.27" y2="3.048" width="0.0508" layer="21"/>
<wire x1="1.143" y1="-2.794" x2="-1.27" y2="-2.794" width="0.0508" layer="21"/>
<wire x1="1.143" y1="-2.794" x2="1.143" y2="-3.048" width="0.0508" layer="21"/>
<wire x1="-1.27" y1="-2.794" x2="-1.27" y2="-3.048" width="0.0508" layer="21"/>
<wire x1="2.54" y1="-3.048" x2="2.159" y2="-3.048" width="0.1524" layer="51"/>
<wire x1="-2.54" y1="-3.048" x2="-2.159" y2="-3.048" width="0.1524" layer="51"/>
<wire x1="-2.159" y1="-3.048" x2="-1.27" y2="-3.048" width="0.1524" layer="21"/>
<wire x1="-2.54" y1="3.048" x2="-2.159" y2="3.048" width="0.1524" layer="51"/>
<wire x1="2.54" y1="3.048" x2="2.159" y2="3.048" width="0.1524" layer="51"/>
<wire x1="2.159" y1="3.048" x2="1.27" y2="3.048" width="0.1524" layer="21"/>
<wire x1="1.27" y1="3.048" x2="-1.27" y2="3.048" width="0.1524" layer="21"/>
<wire x1="-1.27" y1="3.048" x2="-2.159" y2="3.048" width="0.1524" layer="21"/>
<wire x1="-1.27" y1="-3.048" x2="1.143" y2="-3.048" width="0.1524" layer="21"/>
<wire x1="1.143" y1="-3.048" x2="2.159" y2="-3.048" width="0.1524" layer="21"/>
<wire x1="3.048" y1="-0.762" x2="3.048" y2="-1.016" width="0.1524" layer="21"/>
<wire x1="3.048" y1="0.762" x2="3.048" y2="1.016" width="0.1524" layer="21"/>
<wire x1="-3.048" y1="-0.762" x2="-3.048" y2="-1.016" width="0.1524" layer="21"/>
<wire x1="-3.048" y1="0.762" x2="-3.048" y2="1.016" width="0.1524" layer="21"/>
<wire x1="-1.27" y1="-2.159" x2="1.27" y2="-2.159" width="0.1524" layer="51"/>
<wire x1="1.27" y1="2.286" x2="-1.27" y2="2.286" width="0.1524" layer="51"/>
<wire x1="-2.413" y1="1.27" x2="-2.413" y2="0.508" width="0.1524" layer="51"/>
<wire x1="-2.413" y1="-0.508" x2="-2.413" y2="-1.27" width="0.1524" layer="51"/>
<wire x1="-2.413" y1="0.508" x2="-2.159" y2="-0.381" width="0.1524" layer="51"/>
<circle x="0" y="0" radius="1.778" width="0.1524" layer="21"/>
<circle x="-2.159" y="-2.159" radius="0.508" width="0.1524" layer="51"/>
<circle x="2.159" y="-2.032" radius="0.508" width="0.1524" layer="51"/>
<circle x="2.159" y="2.159" radius="0.508" width="0.1524" layer="51"/>
<circle x="-2.159" y="2.159" radius="0.508" width="0.1524" layer="51"/>
<circle x="0" y="0" radius="0.635" width="0.0508" layer="51"/>
<circle x="0" y="0" radius="0.254" width="0.1524" layer="21"/>
<smd name="1" x="-3.302" y="2.286" dx="2.286" dy="1.524" layer="1"/>
<smd name="2" x="3.302" y="2.286" dx="2.286" dy="1.524" layer="1"/>
<smd name="3" x="-3.302" y="-2.286" dx="2.286" dy="1.524" layer="1"/>
<smd name="4" x="3.302" y="-2.286" dx="2.286" dy="1.524" layer="1"/>
<text x="-3.048" y="3.683" size="1.27" layer="25" ratio="10">&gt;NAME</text>
<text x="-3.048" y="-5.08" size="1.27" layer="27" ratio="10">&gt;VALUE</text>
<text x="-4.318" y="1.651" size="1.27" layer="51" ratio="10">1</text>
<text x="3.556" y="1.524" size="1.27" layer="51" ratio="10">2</text>
<text x="-4.572" y="-2.794" size="1.27" layer="51" ratio="10">3</text>
<text x="3.556" y="-2.794" size="1.27" layer="51" ratio="10">4</text>
</package>
<package name="SOT223">
<description>&lt;b&gt;SOT-223&lt;/b&gt;</description>
<wire x1="3.2766" y1="1.651" x2="3.2766" y2="-1.651" width="0.2032" layer="21"/>
<wire x1="3.2766" y1="-1.651" x2="-3.2766" y2="-1.651" width="0.2032" layer="21"/>
<wire x1="-3.2766" y1="-1.651" x2="-3.2766" y2="1.651" width="0.2032" layer="21"/>
<wire x1="-3.2766" y1="1.651" x2="3.2766" y2="1.651" width="0.2032" layer="21"/>
<smd name="1" x="-2.3114" y="-3.0988" dx="1.2192" dy="2.2352" layer="1"/>
<smd name="2" x="0" y="-3.0988" dx="1.2192" dy="2.2352" layer="1"/>
<smd name="3" x="2.3114" y="-3.0988" dx="1.2192" dy="2.2352" layer="1"/>
<smd name="4" x="0" y="3.099" dx="3.6" dy="2.2" layer="1" thermals="no"/>
<text x="-0.8255" y="4.5085" size="0.4064" layer="25">&gt;NAME</text>
<text x="-1.0795" y="-0.1905" size="0.4064" layer="27">&gt;VALUE</text>
<rectangle x1="-1.6002" y1="1.8034" x2="1.6002" y2="3.6576" layer="51"/>
<rectangle x1="-0.4318" y1="-3.6576" x2="0.4318" y2="-1.8034" layer="51"/>
<rectangle x1="-2.7432" y1="-3.6576" x2="-1.8796" y2="-1.8034" layer="51"/>
<rectangle x1="1.8796" y1="-3.6576" x2="2.7432" y2="-1.8034" layer="51"/>
<rectangle x1="-1.6002" y1="1.8034" x2="1.6002" y2="3.6576" layer="51"/>
<rectangle x1="-0.4318" y1="-3.6576" x2="0.4318" y2="-1.8034" layer="51"/>
<rectangle x1="-2.7432" y1="-3.6576" x2="-1.8796" y2="-1.8034" layer="51"/>
<rectangle x1="1.8796" y1="-3.6576" x2="2.7432" y2="-1.8034" layer="51"/>
</package>
<package name="LED1206">
<description>LED 1206 pads (standard pattern)</description>
<wire x1="0.9525" y1="-0.8128" x2="-0.9652" y2="-0.8128" width="0.1524" layer="51"/>
<wire x1="0.9525" y1="0.8128" x2="-0.9652" y2="0.8128" width="0.1524" layer="51"/>
<wire x1="-2.473" y1="0.983" x2="2.473" y2="0.983" width="0.0508" layer="39"/>
<wire x1="2.473" y1="0.983" x2="2.473" y2="-0.983" width="0.0508" layer="39"/>
<wire x1="2.473" y1="-0.983" x2="-2.473" y2="-0.983" width="0.0508" layer="39"/>
<wire x1="-2.473" y1="-0.983" x2="-2.473" y2="0.983" width="0.0508" layer="39"/>
<smd name="2" x="1.422" y="0" dx="1.6" dy="1.803" layer="1"/>
<smd name="1" x="-1.422" y="0" dx="1.6" dy="1.803" layer="1"/>
<text x="-1.27" y="1.27" size="1.27" layer="25">&gt;NAME</text>
<text x="-1.27" y="-2.54" size="1.27" layer="27">&gt;VALUE</text>
<rectangle x1="-1.6891" y1="-0.8763" x2="-0.9525" y2="0.8763" layer="51"/>
<rectangle x1="0.9525" y1="-0.8763" x2="1.6891" y2="0.8763" layer="51"/>
</package>
<package name="LED1206FAB">
<description>LED1206 FAB style (smaller pads to allow trace between)</description>
<wire x1="-2.032" y1="1.016" x2="2.032" y2="1.016" width="0.127" layer="21"/>
<wire x1="2.032" y1="1.016" x2="2.032" y2="-1.016" width="0.127" layer="21"/>
<wire x1="2.032" y1="-1.016" x2="-2.032" y2="-1.016" width="0.127" layer="21"/>
<wire x1="-2.032" y1="-1.016" x2="-2.032" y2="1.016" width="0.127" layer="21"/>
<smd name="1" x="-1.651" y="0" dx="1.27" dy="1.905" layer="1"/>
<smd name="2" x="1.651" y="0" dx="1.27" dy="1.905" layer="1"/>
<text x="-1.778" y="1.27" size="1.016" layer="25" ratio="15">&gt;NAME</text>
<text x="-1.778" y="-2.286" size="1.016" layer="27" ratio="15">&gt;VALUE</text>
</package>
<package name="5MM">
<description>5mm round through hole part.</description>
<wire x1="2.54" y1="-1.905" x2="2.54" y2="1.905" width="0.2032" layer="21"/>
<wire x1="2.54" y1="-1.905" x2="2.54" y2="1.905" width="0.254" layer="21" curve="-286.260205" cap="flat"/>
<wire x1="-1.143" y1="0" x2="0" y2="1.143" width="0.1524" layer="51" curve="-90" cap="flat"/>
<wire x1="0" y1="-1.143" x2="1.143" y2="0" width="0.1524" layer="51" curve="90" cap="flat"/>
<wire x1="-1.651" y1="0" x2="0" y2="1.651" width="0.1524" layer="51" curve="-90" cap="flat"/>
<wire x1="0" y1="-1.651" x2="1.651" y2="0" width="0.1524" layer="51" curve="90" cap="flat"/>
<wire x1="-2.159" y1="0" x2="0" y2="2.159" width="0.1524" layer="51" curve="-90" cap="flat"/>
<wire x1="0" y1="-2.159" x2="2.159" y2="0" width="0.1524" layer="51" curve="90" cap="flat"/>
<circle x="0" y="0" radius="2.54" width="0.1524" layer="21"/>
<pad name="IN" x="-1.27" y="0" drill="0.8128" diameter="1.4224"/>
<pad name="OUT" x="1.27" y="0" drill="0.8128" diameter="1.4224"/>
<text x="3.175" y="0.5334" size="1.27" layer="25" ratio="10">&gt;NAME</text>
<text x="3.2004" y="-1.8034" size="1.27" layer="27" ratio="10">&gt;VALUE</text>
</package>
<package name="SOD123">
<description>&lt;b&gt;SMALL OUTLINE DIODE&lt;/b&gt;</description>
<wire x1="-2.973" y1="0.983" x2="2.973" y2="0.983" width="0.0508" layer="39"/>
<wire x1="2.973" y1="-0.983" x2="-2.973" y2="-0.983" width="0.0508" layer="39"/>
<wire x1="-2.973" y1="-0.983" x2="-2.973" y2="0.983" width="0.0508" layer="39"/>
<wire x1="2.973" y1="0.983" x2="2.973" y2="-0.983" width="0.0508" layer="39"/>
<wire x1="-1.321" y1="0.787" x2="1.321" y2="0.787" width="0.1016" layer="51"/>
<wire x1="-1.321" y1="-0.787" x2="1.321" y2="-0.787" width="0.1016" layer="51"/>
<wire x1="-1.321" y1="-0.787" x2="-1.321" y2="0.787" width="0.1016" layer="51"/>
<wire x1="1.321" y1="-0.787" x2="1.321" y2="0.787" width="0.1016" layer="51"/>
<wire x1="-1" y1="0" x2="0" y2="0.5" width="0.2032" layer="51"/>
<wire x1="0" y1="0.5" x2="0" y2="-0.5" width="0.2032" layer="51"/>
<wire x1="0" y1="-0.5" x2="-1" y2="0" width="0.2032" layer="51"/>
<wire x1="-1" y1="0.5" x2="-1" y2="0" width="0.2032" layer="51"/>
<wire x1="-1" y1="0" x2="-1" y2="-0.5" width="0.2032" layer="51"/>
<smd name="CATHODE" x="-1.7" y="0" dx="1.6" dy="0.8" layer="1"/>
<smd name="ANODE" x="1.7" y="0" dx="1.6" dy="0.8" layer="1"/>
<text x="-1.905" y="1.905" size="1.27" layer="25">&gt;NAME</text>
<text x="-1.905" y="-3.175" size="1.27" layer="27">&gt;VALUE</text>
<rectangle x1="-1.9558" y1="-0.3048" x2="-1.3716" y2="0.3048" layer="51" rot="R180"/>
<rectangle x1="1.3716" y1="-0.3048" x2="1.9558" y2="0.3048" layer="51" rot="R180"/>
<rectangle x1="-0.4001" y1="-0.7" x2="0.4001" y2="0.7" layer="35"/>
<wire x1="-2.667" y1="0.889" x2="-2.667" y2="-0.889" width="0.127" layer="21"/>
<wire x1="-2.921" y1="0.889" x2="-2.921" y2="-0.889" width="0.127" layer="21"/>
<wire x1="-2.921" y1="-0.889" x2="2.794" y2="-0.889" width="0.127" layer="21"/>
<wire x1="2.794" y1="-0.889" x2="2.794" y2="0.889" width="0.127" layer="21"/>
<wire x1="2.794" y1="0.889" x2="-2.921" y2="0.889" width="0.127" layer="21"/>
</package>
<package name="DX4R005HJ5_100">
<wire x1="3.25" y1="-2.6" x2="-3.25" y2="-2.6" width="0.127" layer="21"/>
<wire x1="-3.25" y1="2.6" x2="-3.25" y2="0" width="0.127" layer="51"/>
<wire x1="3.25" y1="2.6" x2="3.25" y2="0" width="0.127" layer="51"/>
<wire x1="-1.75" y1="2.6" x2="1.75" y2="2.6" width="0.127" layer="51"/>
<wire x1="-3.25" y1="-2.2" x2="-3.25" y2="-2.6" width="0.127" layer="51"/>
<wire x1="3.25" y1="-2.6" x2="3.25" y2="-2.2" width="0.127" layer="51"/>
<smd name="GND@3" x="-2.175" y="-1.1" dx="2.15" dy="1.9" layer="1"/>
<smd name="GND@4" x="2.175" y="-1.1" dx="2.15" dy="1.9" layer="1"/>
<smd name="GND@1" x="-2.5" y="1.95" dx="1.2" dy="1.3" layer="1"/>
<smd name="GND@2" x="2.5" y="1.95" dx="1.2" dy="1.3" layer="1"/>
<smd name="D+" x="0" y="1.6" dx="0.35" dy="1.35" layer="1"/>
<smd name="D-" x="-0.65" y="1.6" dx="0.35" dy="1.35" layer="1"/>
<smd name="VBUS" x="-1.3" y="1.6" dx="0.35" dy="1.35" layer="1"/>
<smd name="ID" x="0.65" y="1.6" dx="0.35" dy="1.35" layer="1"/>
<smd name="GND" x="1.3" y="1.6" dx="0.35" dy="1.35" layer="1"/>
<text x="4.1275" y="-1.5875" size="0.6096" layer="27" font="vector" rot="R90">&gt;Value</text>
<text x="-3.4925" y="-1.27" size="0.6096" layer="25" font="vector" rot="R90">&gt;Name</text>
</package>
<package name="DX4R005HJ5">
<wire x1="3.25" y1="-2.6" x2="-3.25" y2="-2.6" width="0.127" layer="21"/>
<wire x1="-3.25" y1="2.6" x2="-3.25" y2="0" width="0.127" layer="51"/>
<wire x1="3.25" y1="2.6" x2="3.25" y2="0" width="0.127" layer="51"/>
<wire x1="-1.75" y1="2.6" x2="1.75" y2="2.6" width="0.127" layer="51"/>
<wire x1="-3.25" y1="-2.2" x2="-3.25" y2="-2.6" width="0.127" layer="51"/>
<wire x1="3.25" y1="-2.6" x2="3.25" y2="-2.2" width="0.127" layer="51"/>
<smd name="GND@3" x="-2.175" y="-1.1" dx="2.15" dy="1.9" layer="1"/>
<smd name="GND@4" x="2.175" y="-1.1" dx="2.15" dy="1.9" layer="1"/>
<smd name="GND@1" x="-2.5" y="1.95" dx="1.2" dy="1.3" layer="1"/>
<smd name="GND@2" x="2.5" y="1.95" dx="1.2" dy="1.3" layer="1"/>
<smd name="D+" x="0" y="1.6" dx="0.4" dy="1.35" layer="1"/>
<smd name="D-" x="-0.65" y="1.6" dx="0.4" dy="1.35" layer="1"/>
<smd name="VBUS" x="-1.3" y="1.6" dx="0.4" dy="1.35" layer="1"/>
<smd name="ID" x="0.65" y="1.6" dx="0.4" dy="1.35" layer="1"/>
<smd name="GND" x="1.3" y="1.6" dx="0.4" dy="1.35" layer="1"/>
<text x="-3.4925" y="-1.27" size="0.6096" layer="25" font="vector" rot="R90">&gt;Name</text>
<text x="4.1275" y="-1.5875" size="0.6096" layer="25" font="vector" rot="R90">&gt;Value</text>
</package>
<package name="DX4R005HJ5_64">
<wire x1="3.25" y1="-2.6" x2="-3.25" y2="-2.6" width="0.127" layer="21"/>
<wire x1="-3.25" y1="2.6" x2="-3.25" y2="0" width="0.127" layer="51"/>
<wire x1="3.25" y1="2.6" x2="3.25" y2="0" width="0.127" layer="51"/>
<wire x1="-1.75" y1="2.6" x2="1.75" y2="2.6" width="0.127" layer="51"/>
<wire x1="-3.25" y1="-2.2" x2="-3.25" y2="-2.6" width="0.127" layer="51"/>
<wire x1="3.25" y1="-2.6" x2="3.25" y2="-2.2" width="0.127" layer="51"/>
<smd name="GND@3" x="-2.175" y="-1.1" dx="2.15" dy="1.9" layer="1"/>
<smd name="GND@4" x="2.175" y="-1.1" dx="2.15" dy="1.9" layer="1"/>
<smd name="GND@1" x="-2.5" y="1.95" dx="1.2" dy="1.3" layer="1"/>
<smd name="GND@2" x="2.5" y="1.95" dx="1.2" dy="1.3" layer="1"/>
<smd name="D+" x="0" y="1.6" dx="0.254" dy="1.35" layer="1"/>
<smd name="D-" x="-0.65" y="1.6" dx="0.254" dy="1.35" layer="1"/>
<smd name="VBUS" x="-1.3" y="1.6" dx="0.254" dy="1.35" layer="1"/>
<smd name="ID" x="0.65" y="1.6" dx="0.254" dy="1.35" layer="1"/>
<smd name="GND" x="1.3" y="1.6" dx="0.254" dy="1.35" layer="1"/>
<text x="-3.4925" y="-1.27" size="0.6096" layer="25" font="vector" rot="R90">&gt;Name</text>
<text x="4.1275" y="-1.5875" size="0.6096" layer="27" font="vector" rot="R90">&gt;Value</text>
</package>
<package name="2X5_1.27MM_SMD">
<smd name="1" x="-1.6" y="2.54" dx="2.286" dy="0.254" layer="1"/>
<smd name="3" x="-1.6" y="1.27" dx="2.286" dy="0.254" layer="1"/>
<smd name="5" x="-1.6" y="0" dx="2.286" dy="0.254" layer="1"/>
<smd name="7" x="-1.6" y="-1.27" dx="2.286" dy="0.254" layer="1"/>
<smd name="9" x="-1.6" y="-2.54" dx="2.286" dy="0.254" layer="1"/>
<smd name="10" x="1.6" y="-2.54" dx="2.286" dy="0.254" layer="1" rot="R180"/>
<smd name="8" x="1.6" y="-1.27" dx="2.286" dy="0.254" layer="1" rot="R180"/>
<smd name="6" x="1.6" y="0" dx="2.286" dy="0.254" layer="1" rot="R180"/>
<smd name="4" x="1.6" y="1.27" dx="2.286" dy="0.254" layer="1" rot="R180"/>
<smd name="2" x="1.6" y="2.54" dx="2.286" dy="0.254" layer="1" rot="R180"/>
<wire x1="-1.715" y1="3.175" x2="-1.715" y2="-3.175" width="0.127" layer="51"/>
<wire x1="-1.715" y1="-3.175" x2="1.715" y2="-3.175" width="0.127" layer="21"/>
<wire x1="1.715" y1="-3.175" x2="1.715" y2="3.175" width="0.127" layer="51"/>
<wire x1="1.715" y1="3.175" x2="-1.715" y2="3.175" width="0.127" layer="21"/>
<circle x="-2.105" y="3.71" radius="0.3238" width="0.1016" layer="21"/>
<text x="-1.27" y="3.81" size="1.016" layer="25">&gt;NAME</text>
<text x="-1.27" y="-5.08" size="1.016" layer="27">&gt;VALUE</text>
<rectangle x1="-2.2" y1="2.3" x2="-1.3" y2="2.8" layer="51"/>
<rectangle x1="-2.2" y1="1.02" x2="-1.3" y2="1.52" layer="51"/>
<rectangle x1="-2.2" y1="-0.25" x2="-1.3" y2="0.25" layer="51"/>
<rectangle x1="-2.2" y1="-1.52" x2="-1.3" y2="-1.02" layer="51"/>
<rectangle x1="-2.2" y1="-2.79" x2="-1.3" y2="-2.29" layer="51"/>
<rectangle x1="1.3" y1="2.3" x2="2.2" y2="2.8" layer="51"/>
<rectangle x1="1.3" y1="1.02" x2="2.2" y2="1.52" layer="51"/>
<rectangle x1="1.3" y1="-0.24" x2="2.2" y2="0.26" layer="51"/>
<rectangle x1="1.3" y1="-1.49" x2="2.2" y2="-0.99" layer="51"/>
<rectangle x1="1.3" y1="-2.78" x2="2.2" y2="-2.28" layer="51"/>
</package>
<package name="2X5_1.27MM_PTH">
<pad name="6" x="0.635" y="0" drill="0.8382" diameter="1.016"/>
<pad name="5" x="-0.635" y="0" drill="0.8382" diameter="1.016"/>
<pad name="4" x="0.635" y="1.27" drill="0.8382" diameter="1.016"/>
<pad name="3" x="-0.635" y="1.27" drill="0.8382" diameter="1.016"/>
<pad name="10" x="0.635" y="-2.54" drill="0.8382" diameter="1.016"/>
<pad name="9" x="-0.635" y="-2.54" drill="0.8382" diameter="1.016"/>
<pad name="8" x="0.635" y="-1.27" drill="0.8382" diameter="1.016"/>
<pad name="7" x="-0.635" y="-1.27" drill="0.8382" diameter="1.016"/>
<pad name="2" x="0.635" y="2.54" drill="0.8382" diameter="1.016"/>
<pad name="1" x="-0.635" y="2.54" drill="0.8382" diameter="1.016" stop="no" thermals="no"/>
<wire x1="-1.7018" y1="3.175" x2="-1.7018" y2="-3.175" width="0.127" layer="21"/>
<wire x1="-1.7018" y1="-3.175" x2="1.7018" y2="-3.175" width="0.127" layer="21"/>
<wire x1="1.7018" y1="-3.175" x2="1.7018" y2="3.175" width="0.127" layer="21"/>
<wire x1="1.7018" y1="3.175" x2="-1.7018" y2="3.175" width="0.127" layer="21"/>
<text x="-2.54" y="3.81" size="1.27" layer="25">&gt;NAME</text>
<text x="-2.54" y="-5.08" size="1.27" layer="27">&gt;VALUE</text>
</package>
<package name="TC2050-IDC">
<smd name="1" x="1.27" y="-0.635" dx="0.7874" dy="0.7874" layer="1" roundness="100" cream="no"/>
<smd name="2" x="2.54" y="-0.635" dx="0.7874" dy="0.7874" layer="1" roundness="100" cream="no"/>
<smd name="3" x="3.81" y="-0.635" dx="0.7874" dy="0.7874" layer="1" roundness="100" cream="no"/>
<smd name="4" x="5.08" y="-0.635" dx="0.7874" dy="0.7874" layer="1" roundness="100" cream="no"/>
<smd name="5" x="6.35" y="-0.635" dx="0.7874" dy="0.7874" layer="1" roundness="100" cream="no"/>
<smd name="6" x="6.35" y="0.635" dx="0.7874" dy="0.7874" layer="1" roundness="100" cream="no"/>
<smd name="7" x="5.08" y="0.635" dx="0.7874" dy="0.7874" layer="1" roundness="100" cream="no"/>
<smd name="8" x="3.81" y="0.635" dx="0.7874" dy="0.7874" layer="1" roundness="100" cream="no"/>
<smd name="9" x="2.54" y="0.635" dx="0.7874" dy="0.7874" layer="1" roundness="100" cream="no"/>
<smd name="10" x="1.27" y="0.635" dx="0.7874" dy="0.7874" layer="1" roundness="100" cream="no"/>
<hole x="0" y="0" drill="0.9906"/>
<hole x="7.62" y="1.016" drill="0.9906"/>
<hole x="7.62" y="-1.016" drill="0.9906"/>
<rectangle x1="1.27" y1="-0.635" x2="6.35" y2="0.635" layer="39"/>
<hole x="0" y="2.54" drill="2.3749"/>
<hole x="5.715" y="2.54" drill="2.3749"/>
<hole x="0" y="-2.54" drill="2.3749"/>
<hole x="5.715" y="-2.54" drill="2.3749"/>
</package>
</packages>
<symbols>
<symbol name="A4953-H-BRIDGE-MOTOR-DRIVER">
<wire x1="-7.62" y1="7.62" x2="-7.62" y2="-5.08" width="0.254" layer="94"/>
<wire x1="10.16" y1="-5.08" x2="10.16" y2="7.62" width="0.254" layer="94"/>
<wire x1="10.16" y1="7.62" x2="-7.62" y2="7.62" width="0.254" layer="94"/>
<wire x1="-7.62" y1="-5.08" x2="10.16" y2="-5.08" width="0.254" layer="94"/>
<pin name="GND" x="-12.7" y="5.08" length="middle"/>
<pin name="IN2" x="-12.7" y="2.54" length="middle"/>
<pin name="IN1" x="-12.7" y="0" length="middle"/>
<pin name="VREF" x="-12.7" y="-2.54" length="middle"/>
<pin name="VBB" x="15.24" y="-2.54" length="middle" rot="R180"/>
<pin name="OUT1" x="15.24" y="0" length="middle" rot="R180"/>
<pin name="LSS" x="15.24" y="2.54" length="middle" rot="R180"/>
<pin name="OUT2" x="15.24" y="5.08" length="middle" rot="R180"/>
</symbol>
<symbol name="R-US">
<wire x1="-2.54" y1="0" x2="-2.159" y2="1.016" width="0.2032" layer="94"/>
<wire x1="-2.159" y1="1.016" x2="-1.524" y2="-1.016" width="0.2032" layer="94"/>
<wire x1="-1.524" y1="-1.016" x2="-0.889" y2="1.016" width="0.2032" layer="94"/>
<wire x1="-0.889" y1="1.016" x2="-0.254" y2="-1.016" width="0.2032" layer="94"/>
<wire x1="-0.254" y1="-1.016" x2="0.381" y2="1.016" width="0.2032" layer="94"/>
<wire x1="0.381" y1="1.016" x2="1.016" y2="-1.016" width="0.2032" layer="94"/>
<wire x1="1.016" y1="-1.016" x2="1.651" y2="1.016" width="0.2032" layer="94"/>
<wire x1="1.651" y1="1.016" x2="2.286" y2="-1.016" width="0.2032" layer="94"/>
<wire x1="2.286" y1="-1.016" x2="2.54" y2="0" width="0.2032" layer="94"/>
<text x="-3.81" y="1.4986" size="1.778" layer="95">&gt;NAME</text>
<text x="-3.81" y="-3.302" size="1.778" layer="96">&gt;VALUE</text>
<pin name="2" x="5.08" y="0" visible="off" length="short" direction="pas" swaplevel="1" rot="R180"/>
<pin name="1" x="-5.08" y="0" visible="off" length="short" direction="pas" swaplevel="1"/>
</symbol>
<symbol name="PINH2X2">
<wire x1="-8.89" y1="-2.54" x2="6.35" y2="-2.54" width="0.4064" layer="94"/>
<wire x1="6.35" y1="-2.54" x2="6.35" y2="5.08" width="0.4064" layer="94"/>
<wire x1="6.35" y1="5.08" x2="-8.89" y2="5.08" width="0.4064" layer="94"/>
<wire x1="-8.89" y1="5.08" x2="-8.89" y2="-2.54" width="0.4064" layer="94"/>
<text x="-8.89" y="5.715" size="1.778" layer="95">&gt;NAME</text>
<text x="-8.89" y="-5.08" size="1.778" layer="96">&gt;VALUE</text>
<pin name="1" x="-5.08" y="2.54" visible="pad" length="short" direction="pas" function="dot"/>
<pin name="2" x="2.54" y="2.54" visible="pad" length="short" direction="pas" function="dot" rot="R180"/>
<pin name="3" x="-5.08" y="0" visible="pad" length="short" direction="pas" function="dot"/>
<pin name="4" x="2.54" y="0" visible="pad" length="short" direction="pas" function="dot" rot="R180"/>
</symbol>
<symbol name="TS2">
<wire x1="0" y1="1.905" x2="0" y2="2.54" width="0.254" layer="94"/>
<wire x1="-4.445" y1="1.905" x2="-3.175" y2="1.905" width="0.254" layer="94"/>
<wire x1="-4.445" y1="-1.905" x2="-3.175" y2="-1.905" width="0.254" layer="94"/>
<wire x1="-4.445" y1="1.905" x2="-4.445" y2="0" width="0.254" layer="94"/>
<wire x1="-4.445" y1="0" x2="-4.445" y2="-1.905" width="0.254" layer="94"/>
<wire x1="-2.54" y1="0" x2="-1.905" y2="0" width="0.1524" layer="94"/>
<wire x1="-1.27" y1="0" x2="-0.635" y2="0" width="0.1524" layer="94"/>
<wire x1="-4.445" y1="0" x2="-3.175" y2="0" width="0.1524" layer="94"/>
<wire x1="2.54" y1="2.54" x2="0" y2="2.54" width="0.1524" layer="94"/>
<wire x1="2.54" y1="-2.54" x2="0" y2="-2.54" width="0.1524" layer="94"/>
<wire x1="0" y1="-2.54" x2="-1.27" y2="1.905" width="0.254" layer="94"/>
<circle x="0" y="-2.54" radius="0.127" width="0.4064" layer="94"/>
<circle x="0" y="2.54" radius="0.127" width="0.4064" layer="94"/>
<text x="-6.35" y="-2.54" size="1.778" layer="95" rot="R90">&gt;NAME</text>
<text x="-3.81" y="3.175" size="1.778" layer="96" rot="R90">&gt;VALUE</text>
<pin name="P" x="0" y="-5.08" visible="pad" length="short" direction="pas" swaplevel="2" rot="R90"/>
<pin name="S" x="0" y="5.08" visible="pad" length="short" direction="pas" swaplevel="1" rot="R270"/>
<pin name="S1" x="2.54" y="5.08" visible="pad" length="short" direction="pas" swaplevel="1" rot="R270"/>
<pin name="P1" x="2.54" y="-5.08" visible="pad" length="short" direction="pas" swaplevel="2" rot="R90"/>
</symbol>
<symbol name="REGULATOR_SOT223">
<wire x1="-6.35" y1="5.08" x2="-6.35" y2="2.54" width="0.4064" layer="94"/>
<wire x1="-6.35" y1="2.54" x2="-6.35" y2="-3.81" width="0.4064" layer="94"/>
<wire x1="-6.35" y1="-3.81" x2="0" y2="-3.81" width="0.4064" layer="94"/>
<wire x1="0" y1="-3.81" x2="6.35" y2="-3.81" width="0.4064" layer="94"/>
<wire x1="6.35" y1="-3.81" x2="6.35" y2="2.54" width="0.4064" layer="94"/>
<wire x1="6.35" y1="2.54" x2="6.35" y2="5.08" width="0.4064" layer="94"/>
<wire x1="6.35" y1="5.08" x2="-6.35" y2="5.08" width="0.4064" layer="94"/>
<wire x1="-7.62" y1="2.54" x2="-6.35" y2="2.54" width="0.254" layer="94"/>
<wire x1="0" y1="-3.81" x2="0" y2="-5.08" width="0.254" layer="94"/>
<wire x1="6.35" y1="2.54" x2="7.62" y2="2.54" width="0.254" layer="94"/>
<text x="-6.35" y="-6.35" size="1.27" layer="95">&gt;NAME</text>
<text x="1.27" y="-6.35" size="1.27" layer="96">&gt;VALUE</text>
<pin name="IN" x="-7.62" y="2.54" length="point"/>
<pin name="GND" x="0" y="-5.08" length="point" rot="R90"/>
<pin name="OUT" x="7.62" y="2.54" length="point" rot="R180"/>
</symbol>
<symbol name="LED">
<description>LED</description>
<wire x1="1.27" y1="2.54" x2="0" y2="0" width="0.254" layer="94"/>
<wire x1="0" y1="0" x2="-1.27" y2="2.54" width="0.254" layer="94"/>
<wire x1="1.27" y1="0" x2="0" y2="0" width="0.254" layer="94"/>
<wire x1="0" y1="0" x2="-1.27" y2="0" width="0.254" layer="94"/>
<wire x1="1.27" y1="2.54" x2="0" y2="2.54" width="0.254" layer="94"/>
<wire x1="0" y1="2.54" x2="-1.27" y2="2.54" width="0.254" layer="94"/>
<wire x1="0" y1="2.54" x2="0" y2="0" width="0.1524" layer="94"/>
<wire x1="-2.032" y1="1.778" x2="-3.429" y2="0.381" width="0.1524" layer="94"/>
<wire x1="-1.905" y1="0.635" x2="-3.302" y2="-0.762" width="0.1524" layer="94"/>
<text x="3.556" y="-2.032" size="1.778" layer="95" rot="R90">&gt;NAME</text>
<text x="5.715" y="-2.032" size="1.778" layer="96" rot="R90">&gt;VALUE</text>
<pin name="C" x="0" y="-2.54" visible="off" length="short" direction="pas" rot="R90"/>
<pin name="A" x="0" y="5.08" visible="off" length="short" direction="pas" rot="R270"/>
<polygon width="0.1524" layer="94">
<vertex x="-3.429" y="0.381"/>
<vertex x="-3.048" y="1.27"/>
<vertex x="-2.54" y="0.762"/>
</polygon>
<polygon width="0.1524" layer="94">
<vertex x="-3.302" y="-0.762"/>
<vertex x="-2.921" y="0.127"/>
<vertex x="-2.413" y="-0.381"/>
</polygon>
</symbol>
<symbol name="D">
<wire x1="-1.27" y1="-1.27" x2="1.27" y2="0" width="0.254" layer="94"/>
<wire x1="1.27" y1="0" x2="-1.27" y2="1.27" width="0.254" layer="94"/>
<wire x1="1.27" y1="1.27" x2="1.27" y2="0" width="0.254" layer="94"/>
<wire x1="-1.27" y1="1.27" x2="-1.27" y2="-1.27" width="0.254" layer="94"/>
<wire x1="1.27" y1="0" x2="1.27" y2="-1.27" width="0.254" layer="94"/>
<text x="2.54" y="0.4826" size="1.778" layer="95">&gt;NAME</text>
<text x="2.54" y="-2.3114" size="1.778" layer="96">&gt;VALUE</text>
<pin name="A" x="-2.54" y="0" visible="off" length="short" direction="pas"/>
<pin name="C" x="2.54" y="0" visible="off" length="short" direction="pas" rot="R180"/>
</symbol>
<symbol name="USB-1">
<wire x1="6.35" y1="-2.54" x2="6.35" y2="2.54" width="0.254" layer="94"/>
<wire x1="6.35" y1="2.54" x2="-3.81" y2="2.54" width="0.254" layer="94"/>
<wire x1="-3.81" y1="2.54" x2="-3.81" y2="-2.54" width="0.254" layer="94"/>
<text x="-2.54" y="-1.27" size="2.54" layer="94">USB</text>
<text x="-4.445" y="-1.905" size="1.27" layer="95" font="vector" rot="R90">&gt;Name</text>
<text x="8.255" y="-1.905" size="1.27" layer="96" font="vector" rot="R90">&gt;Value</text>
<pin name="D+" x="5.08" y="5.08" visible="pad" length="short" rot="R270"/>
<pin name="D-" x="2.54" y="5.08" visible="pad" length="short" rot="R270"/>
<pin name="VBUS" x="0" y="5.08" visible="pad" length="short" rot="R270"/>
<pin name="GND" x="-2.54" y="5.08" visible="pad" length="short" rot="R270"/>
</symbol>
<symbol name="ARM_SWD_10">
<pin name="VCC" x="-17.78" y="5.08" length="middle"/>
<pin name="GND@3" x="-17.78" y="2.54" length="middle"/>
<pin name="GND@5" x="-17.78" y="0" length="middle"/>
<pin name="GND@7" x="-17.78" y="-2.54" length="middle"/>
<pin name="GND@9" x="-17.78" y="-5.08" length="middle"/>
<pin name="NRESET" x="17.78" y="-5.08" length="middle" rot="R180"/>
<pin name="NC/TDI" x="17.78" y="-2.54" length="middle" rot="R180"/>
<pin name="SWO/TDO" x="17.78" y="0" length="middle" rot="R180"/>
<pin name="SWDCLK/TCK" x="17.78" y="2.54" length="middle" rot="R180"/>
<pin name="SWDIO/TMS" x="17.78" y="5.08" length="middle" rot="R180"/>
<wire x1="-12.7" y1="7.62" x2="-12.7" y2="-7.62" width="0.254" layer="94"/>
<wire x1="-12.7" y1="-7.62" x2="12.7" y2="-7.62" width="0.254" layer="94"/>
<wire x1="12.7" y1="-7.62" x2="12.7" y2="7.62" width="0.254" layer="94"/>
<wire x1="12.7" y1="7.62" x2="-12.7" y2="7.62" width="0.254" layer="94"/>
<text x="-12.7" y="7.62" size="1.778" layer="95">&gt;NAME</text>
<text x="-12.7" y="-12.7" size="1.27" layer="97">&gt;PACKAGE</text>
<text x="-12.7" y="-10.16" size="1.778" layer="96">&gt;VALUE</text>
</symbol>
</symbols>
<devicesets>
<deviceset name="PMIC_H-BRIDGE_A4953_PAD">
<gates>
<gate name="G$1" symbol="A4953-H-BRIDGE-MOTOR-DRIVER" x="15.24" y="-5.08"/>
</gates>
<devices>
<device name="" package="SOIC8_PAD">
<connects>
<connect gate="G$1" pin="GND" pad="1 GND"/>
<connect gate="G$1" pin="IN1" pad="3"/>
<connect gate="G$1" pin="IN2" pad="2"/>
<connect gate="G$1" pin="LSS" pad="7"/>
<connect gate="G$1" pin="OUT1" pad="6"/>
<connect gate="G$1" pin="OUT2" pad="8"/>
<connect gate="G$1" pin="VBB" pad="5"/>
<connect gate="G$1" pin="VREF" pad="4"/>
</connects>
<technologies>
<technology name=""/>
</technologies>
</device>
</devices>
</deviceset>
<deviceset name="R" prefix="R" uservalue="yes">
<description>&lt;b&gt;Resistor (US Symbol)&lt;/b&gt;
&lt;p&gt;
Variants with postfix FAB are widened to allow the routing of internal traces</description>
<gates>
<gate name="G$1" symbol="R-US" x="0" y="0"/>
</gates>
<devices>
<device name="1206" package="R1206">
<connects>
<connect gate="G$1" pin="1" pad="1"/>
<connect gate="G$1" pin="2" pad="2"/>
</connects>
<technologies>
<technology name=""/>
</technologies>
</device>
<device name="1206W" package="R1206W">
<connects>
<connect gate="G$1" pin="1" pad="1"/>
<connect gate="G$1" pin="2" pad="2"/>
</connects>
<technologies>
<technology name=""/>
</technologies>
</device>
<device name="1206FAB" package="R1206FAB">
<connects>
<connect gate="G$1" pin="1" pad="1"/>
<connect gate="G$1" pin="2" pad="2"/>
</connects>
<technologies>
<technology name=""/>
</technologies>
</device>
</devices>
</deviceset>
<deviceset name="CONN_02X2-PINHEAD-SMD">
<gates>
<gate name="G$1" symbol="PINH2X2" x="2.54" y="0"/>
</gates>
<devices>
<device name="" package="2X02SMD">
<connects>
<connect gate="G$1" pin="1" pad="1"/>
<connect gate="G$1" pin="2" pad="2"/>
<connect gate="G$1" pin="3" pad="3"/>
<connect gate="G$1" pin="4" pad="4"/>
</connects>
<technologies>
<technology name=""/>
</technologies>
</device>
</devices>
</deviceset>
<deviceset name="SW_SWITCH_TACTILE_6MM" prefix="S" uservalue="yes">
<description>&lt;b&gt;OMRON SWITCH&lt;/b&gt;</description>
<gates>
<gate name="2" symbol="TS2" x="0" y="0"/>
</gates>
<devices>
<device name="6MM_SWITCH" package="6MM_SWITCH">
<connects>
<connect gate="2" pin="P" pad="1"/>
<connect gate="2" pin="P1" pad="2"/>
<connect gate="2" pin="S" pad="3"/>
<connect gate="2" pin="S1" pad="4"/>
</connects>
<technologies>
<technology name=""/>
</technologies>
</device>
</devices>
</deviceset>
<deviceset name="VR_REGULATOR_SOT223" prefix="U">
<gates>
<gate name="G$1" symbol="REGULATOR_SOT223" x="0" y="0"/>
</gates>
<devices>
<device name="" package="SOT223">
<connects>
<connect gate="G$1" pin="GND" pad="1"/>
<connect gate="G$1" pin="IN" pad="3"/>
<connect gate="G$1" pin="OUT" pad="2 4"/>
</connects>
<technologies>
<technology name=""/>
</technologies>
</device>
</devices>
</deviceset>
<deviceset name="LED">
<description>LED</description>
<gates>
<gate name="G$1" symbol="LED" x="0" y="0"/>
</gates>
<devices>
<device name="" package="LED1206">
<connects>
<connect gate="G$1" pin="A" pad="1"/>
<connect gate="G$1" pin="C" pad="2"/>
</connects>
<technologies>
<technology name=""/>
</technologies>
</device>
<device name="FAB1206" package="LED1206FAB">
<connects>
<connect gate="G$1" pin="A" pad="1"/>
<connect gate="G$1" pin="C" pad="2"/>
</connects>
<technologies>
<technology name=""/>
</technologies>
</device>
<device name="5MM" package="5MM">
<connects>
<connect gate="G$1" pin="A" pad="IN"/>
<connect gate="G$1" pin="C" pad="OUT"/>
</connects>
<technologies>
<technology name=""/>
</technologies>
</device>
</devices>
</deviceset>
<deviceset name="DIODE_SOD-123" prefix="D" uservalue="yes">
<description>&lt;B&gt;DIODE&lt;/B&gt;&lt;p&gt;
high speed (Philips)</description>
<gates>
<gate name="G$1" symbol="D" x="0" y="0"/>
</gates>
<devices>
<device name="SOD123" package="SOD123">
<connects>
<connect gate="G$1" pin="A" pad="ANODE"/>
<connect gate="G$1" pin="C" pad="CATHODE"/>
</connects>
<technologies>
<technology name=""/>
</technologies>
</device>
</devices>
</deviceset>
<deviceset name="CONN_MICRO-USB" prefix="X">
<description>SMD micro USB connector as found in the fablab inventory. 
Three footprint variants included: 
&lt;ol&gt;
&lt;li&gt; original, as described by manufacturer's datasheet
&lt;li&gt; for milling with the 1/100" bit
&lt;li&gt; for milling with the 1/64" bit
&lt;/ol&gt;
&lt;p&gt;Made by Zaerc.</description>
<gates>
<gate name="G$1" symbol="USB-1" x="0" y="0"/>
</gates>
<devices>
<device name="_1/100" package="DX4R005HJ5_100">
<connects>
<connect gate="G$1" pin="D+" pad="D+"/>
<connect gate="G$1" pin="D-" pad="D-"/>
<connect gate="G$1" pin="GND" pad="GND"/>
<connect gate="G$1" pin="VBUS" pad="VBUS"/>
</connects>
<technologies>
<technology name=""/>
</technologies>
</device>
<device name="_ORIG" package="DX4R005HJ5">
<connects>
<connect gate="G$1" pin="D+" pad="D+"/>
<connect gate="G$1" pin="D-" pad="D-"/>
<connect gate="G$1" pin="GND" pad="GND"/>
<connect gate="G$1" pin="VBUS" pad="VBUS"/>
</connects>
<technologies>
<technology name=""/>
</technologies>
</device>
<device name="_1/64" package="DX4R005HJ5_64">
<connects>
<connect gate="G$1" pin="D+" pad="D+"/>
<connect gate="G$1" pin="D-" pad="D-"/>
<connect gate="G$1" pin="GND" pad="GND"/>
<connect gate="G$1" pin="VBUS" pad="VBUS"/>
</connects>
<technologies>
<technology name=""/>
</technologies>
</device>
</devices>
</deviceset>
<deviceset name="CONN_05X2_ARM_DEBUG" prefix="J" uservalue="yes">
<gates>
<gate name="G$1" symbol="ARM_SWD_10" x="0" y="0"/>
</gates>
<devices>
<device name="SMD" package="2X5_1.27MM_SMD">
<connects>
<connect gate="G$1" pin="GND@3" pad="3"/>
<connect gate="G$1" pin="GND@5" pad="5"/>
<connect gate="G$1" pin="GND@7" pad="7"/>
<connect gate="G$1" pin="GND@9" pad="9"/>
<connect gate="G$1" pin="NC/TDI" pad="8"/>
<connect gate="G$1" pin="NRESET" pad="10"/>
<connect gate="G$1" pin="SWDCLK/TCK" pad="4"/>
<connect gate="G$1" pin="SWDIO/TMS" pad="2"/>
<connect gate="G$1" pin="SWO/TDO" pad="6"/>
<connect gate="G$1" pin="VCC" pad="1"/>
</connects>
<technologies>
<technology name="">
<attribute name="PACKAGE" value="2x5_1.27MM_SMD"/>
</technology>
</technologies>
</device>
<device name="PTH" package="2X5_1.27MM_PTH">
<connects>
<connect gate="G$1" pin="GND@3" pad="3"/>
<connect gate="G$1" pin="GND@5" pad="5"/>
<connect gate="G$1" pin="GND@7" pad="7"/>
<connect gate="G$1" pin="GND@9" pad="9"/>
<connect gate="G$1" pin="NC/TDI" pad="8"/>
<connect gate="G$1" pin="NRESET" pad="10"/>
<connect gate="G$1" pin="SWDCLK/TCK" pad="4"/>
<connect gate="G$1" pin="SWDIO/TMS" pad="2"/>
<connect gate="G$1" pin="SWO/TDO" pad="6"/>
<connect gate="G$1" pin="VCC" pad="1"/>
</connects>
<technologies>
<technology name="">
<attribute name="PACKAGE" value="2x5_1.27MM_PTH"/>
</technology>
</technologies>
</device>
<device name="TDC2050-IDC" package="TC2050-IDC">
<connects>
<connect gate="G$1" pin="GND@3" pad="3"/>
<connect gate="G$1" pin="GND@5" pad="5"/>
<connect gate="G$1" pin="GND@7" pad="7"/>
<connect gate="G$1" pin="GND@9" pad="9"/>
<connect gate="G$1" pin="NC/TDI" pad="8"/>
<connect gate="G$1" pin="NRESET" pad="10"/>
<connect gate="G$1" pin="SWDCLK/TCK" pad="4"/>
<connect gate="G$1" pin="SWDIO/TMS" pad="2"/>
<connect gate="G$1" pin="SWO/TDO" pad="6"/>
<connect gate="G$1" pin="VCC" pad="1"/>
</connects>
<technologies>
<technology name="">
<attribute name="PACKAGE" value="TC2050-IDC"/>
</technology>
</technologies>
</device>
</devices>
</deviceset>
</devicesets>
</library>
<library name="supply1" urn="urn:adsk.eagle:library:371">
<description>&lt;b&gt;Supply Symbols&lt;/b&gt;&lt;p&gt;
 GND, VCC, 0V, +5V, -5V, etc.&lt;p&gt;
 Please keep in mind, that these devices are necessary for the
 automatic wiring of the supply signals.&lt;p&gt;
 The pin name defined in the symbol is identical to the net which is to be wired automatically.&lt;p&gt;
 In this library the device names are the same as the pin names of the symbols, therefore the correct signal names appear next to the supply symbols in the schematic.&lt;p&gt;
 &lt;author&gt;Created by librarian@cadsoft.de&lt;/author&gt;</description>
<packages>
</packages>
<symbols>
<symbol name="GND" urn="urn:adsk.eagle:symbol:26925/1" library_version="1">
<wire x1="-1.905" y1="0" x2="1.905" y2="0" width="0.254" layer="94"/>
<text x="-2.54" y="-2.54" size="1.778" layer="96">&gt;VALUE</text>
<pin name="GND" x="0" y="2.54" visible="off" length="short" direction="sup" rot="R270"/>
</symbol>
</symbols>
<devicesets>
<deviceset name="GND" urn="urn:adsk.eagle:component:26954/1" prefix="GND" library_version="1">
<description>&lt;b&gt;SUPPLY SYMBOL&lt;/b&gt;</description>
<gates>
<gate name="1" symbol="GND" x="0" y="0"/>
</gates>
<devices>
<device name="">
<technologies>
<technology name=""/>
</technologies>
</device>
</devices>
</deviceset>
</devicesets>
</library>
<library name="POT_PTV09A-4225F-B102-ND">
<packages>
<package name="POT_PTV09A-4225F-B102-ND">
<pad name="P$4" x="-5.7" y="7" drill="2.5" shape="octagon"/>
<pad name="P$5" x="5.7" y="7" drill="2.5" shape="octagon"/>
<pad name="P$1" x="-2.5" y="0" drill="1.5" shape="long" rot="R90"/>
<pad name="P$2" x="0" y="0" drill="1.5" shape="long" rot="R90"/>
<pad name="P$3" x="2.5" y="0" drill="1.5" shape="long" rot="R90"/>
</package>
</packages>
<symbols>
<symbol name="POT_PTV09A-4225F-B102-ND">
<pin name="P$1" x="-12.7" y="0" length="middle"/>
<pin name="P$2" x="0" y="7.62" length="middle" rot="R270"/>
<pin name="P$3" x="12.7" y="0" length="middle" rot="R180"/>
<wire x1="-7.62" y1="0" x2="-5.08" y2="2.54" width="0.1524" layer="94"/>
<wire x1="-5.08" y1="2.54" x2="-2.54" y2="0" width="0.1524" layer="94"/>
<wire x1="-2.54" y1="0" x2="0" y2="2.54" width="0.1524" layer="94"/>
<wire x1="0" y1="2.54" x2="2.54" y2="0" width="0.1524" layer="94"/>
<wire x1="2.54" y1="0" x2="5.08" y2="2.54" width="0.1524" layer="94"/>
<wire x1="5.08" y1="2.54" x2="7.62" y2="0" width="0.1524" layer="94"/>
<text x="-2.54" y="12.7" size="1.778" layer="94">&gt;NAME</text>
<text x="-2.54" y="-7.62" size="1.778" layer="94">&gt;VALUE</text>
</symbol>
</symbols>
<devicesets>
<deviceset name="POT_PTV09A-4225F-B102-ND">
<gates>
<gate name="G$1" symbol="POT_PTV09A-4225F-B102-ND" x="10.16" y="10.16"/>
</gates>
<devices>
<device name="" package="POT_PTV09A-4225F-B102-ND">
<connects>
<connect gate="G$1" pin="P$1" pad="P$1"/>
<connect gate="G$1" pin="P$2" pad="P$2"/>
<connect gate="G$1" pin="P$3" pad="P$3"/>
</connects>
<technologies>
<technology name=""/>
</technologies>
</device>
</devices>
</deviceset>
</devicesets>
</library>
<library name="smd-special" urn="urn:adsk.eagle:library:362">
<description>&lt;b&gt;Special SMD Packages&lt;/b&gt;&lt;p&gt;
&lt;author&gt;Created by librarian@cadsoft.de&lt;/author&gt;</description>
<packages>
<package name="SMS-002" urn="urn:adsk.eagle:footprint:26406/1" library_version="3">
<description>&lt;b&gt;DIP SWITCH&lt;/b&gt;</description>
<wire x1="-3.175" y1="-3.2004" x2="3.175" y2="-3.2004" width="0.1524" layer="21"/>
<wire x1="3.175" y1="3.2004" x2="3.175" y2="-3.2004" width="0.1524" layer="21"/>
<wire x1="3.175" y1="3.2004" x2="-3.175" y2="3.2004" width="0.1524" layer="21"/>
<wire x1="-3.175" y1="-3.2004" x2="-3.175" y2="3.2004" width="0.1524" layer="21"/>
<wire x1="-2.032" y1="2.032" x2="-0.508" y2="2.032" width="0.1524" layer="21"/>
<wire x1="-0.508" y1="-2.032" x2="-2.032" y2="-2.032" width="0.1524" layer="21"/>
<wire x1="-0.508" y1="2.032" x2="-0.508" y2="-2.032" width="0.1524" layer="21"/>
<wire x1="-2.032" y1="-2.032" x2="-2.032" y2="2.032" width="0.1524" layer="21"/>
<wire x1="0.508" y1="2.032" x2="2.032" y2="2.032" width="0.1524" layer="21"/>
<wire x1="2.032" y1="-2.032" x2="0.508" y2="-2.032" width="0.1524" layer="21"/>
<wire x1="2.032" y1="2.032" x2="2.032" y2="-2.032" width="0.1524" layer="21"/>
<wire x1="0.508" y1="-2.032" x2="0.508" y2="2.032" width="0.1524" layer="21"/>
<smd name="3" x="1.27" y="4.4958" dx="1.0922" dy="2.0066" layer="1"/>
<smd name="2" x="1.27" y="-4.4958" dx="1.0922" dy="2.0066" layer="1"/>
<smd name="1" x="-1.27" y="-4.4958" dx="1.0922" dy="2.0066" layer="1"/>
<smd name="4" x="-1.27" y="4.4958" dx="1.0922" dy="2.0066" layer="1"/>
<text x="-1.397" y="-1.27" size="1.016" layer="21">1</text>
<text x="-3.556" y="-3.175" size="1.27" layer="25" ratio="10" rot="R90">&gt;NAME</text>
<text x="4.826" y="-3.175" size="1.27" layer="27" ratio="10" rot="R90">&gt;VALUE</text>
<rectangle x1="-2.032" y1="0.508" x2="-0.508" y2="2.032" layer="21"/>
<rectangle x1="0.508" y1="0.508" x2="2.032" y2="2.032" layer="21"/>
<rectangle x1="-2.0066" y1="-4.1148" x2="-0.508" y2="-3.2004" layer="51"/>
<rectangle x1="-1.5748" y1="-5.1816" x2="-0.9652" y2="-4.1148" layer="51"/>
<rectangle x1="0.5334" y1="-4.1148" x2="2.032" y2="-3.2004" layer="51"/>
<rectangle x1="0.9652" y1="-5.1816" x2="1.5748" y2="-4.1148" layer="51"/>
<rectangle x1="-2.032" y1="3.2004" x2="-0.5334" y2="4.1148" layer="51"/>
<rectangle x1="-1.5748" y1="4.1148" x2="-0.9652" y2="5.1816" layer="51"/>
<rectangle x1="0.508" y1="3.2004" x2="2.0066" y2="4.1148" layer="51"/>
<rectangle x1="0.9652" y1="4.1148" x2="1.5748" y2="5.1816" layer="51"/>
</package>
</packages>
<packages3d>
<package3d name="SMS-002" urn="urn:adsk.eagle:package:26469/1" type="box" library_version="3">
<description>DIP SWITCH</description>
<packageinstances>
<packageinstance name="SMS-002"/>
</packageinstances>
</package3d>
</packages3d>
<symbols>
<symbol name="DIP02" urn="urn:adsk.eagle:symbol:26405/1" library_version="3">
<wire x1="3.048" y1="0" x2="2.032" y2="0" width="0.1524" layer="94"/>
<wire x1="2.032" y1="2.54" x2="3.048" y2="2.54" width="0.1524" layer="94"/>
<wire x1="3.048" y1="2.54" x2="3.048" y2="0" width="0.1524" layer="94"/>
<wire x1="2.032" y1="0" x2="2.032" y2="2.54" width="0.1524" layer="94"/>
<wire x1="0.508" y1="0" x2="-0.508" y2="0" width="0.1524" layer="94"/>
<wire x1="-0.508" y1="2.54" x2="0.508" y2="2.54" width="0.1524" layer="94"/>
<wire x1="0.508" y1="2.54" x2="0.508" y2="0" width="0.1524" layer="94"/>
<wire x1="-0.508" y1="0" x2="-0.508" y2="2.54" width="0.1524" layer="94"/>
<wire x1="4.445" y1="5.08" x2="-1.905" y2="5.08" width="0.4064" layer="94"/>
<wire x1="-1.905" y1="5.08" x2="-1.905" y2="-2.54" width="0.4064" layer="94"/>
<wire x1="-1.905" y1="-2.54" x2="4.445" y2="-2.54" width="0.4064" layer="94"/>
<wire x1="4.445" y1="-2.54" x2="4.445" y2="5.08" width="0.4064" layer="94"/>
<text x="-2.54" y="-2.54" size="1.778" layer="95" rot="R90">&gt;NAME</text>
<text x="6.985" y="-2.54" size="1.778" layer="96" rot="R90">&gt;VALUE</text>
<text x="-0.635" y="3.175" size="0.9906" layer="94" ratio="14">ON</text>
<text x="-0.254" y="-1.651" size="0.9906" layer="94" ratio="14">1</text>
<text x="2.032" y="-1.651" size="0.9906" layer="94" ratio="14">2</text>
<rectangle x1="-0.254" y1="0.254" x2="0.254" y2="1.27" layer="94"/>
<rectangle x1="2.286" y1="0.254" x2="2.794" y2="1.27" layer="94"/>
<pin name="3" x="2.54" y="7.62" visible="pad" length="short" direction="pas" rot="R270"/>
<pin name="4" x="0" y="7.62" visible="pad" length="short" direction="pas" rot="R270"/>
<pin name="1" x="0" y="-5.08" visible="pad" length="short" direction="pas" rot="R90"/>
<pin name="2" x="2.54" y="-5.08" visible="pad" length="short" direction="pas" rot="R90"/>
</symbol>
</symbols>
<devicesets>
<deviceset name="SWS002" urn="urn:adsk.eagle:component:26478/2" prefix="S" library_version="3">
<description>&lt;b&gt;SMD Dip Switch 2 pol.&lt;/b&gt;</description>
<gates>
<gate name="G$1" symbol="DIP02" x="0" y="0"/>
</gates>
<devices>
<device name="" package="SMS-002">
<connects>
<connect gate="G$1" pin="1" pad="1"/>
<connect gate="G$1" pin="2" pad="2"/>
<connect gate="G$1" pin="3" pad="3"/>
<connect gate="G$1" pin="4" pad="4"/>
</connects>
<package3dinstances>
<package3dinstance package3d_urn="urn:adsk.eagle:package:26469/1"/>
</package3dinstances>
<technologies>
<technology name="">
<attribute name="POPULARITY" value="3" constant="no"/>
</technology>
</technologies>
</device>
</devices>
</deviceset>
</devicesets>
</library>
</libraries>
<attributes>
</attributes>
<variantdefs>
</variantdefs>
<classes>
<class number="0" name="default" width="0" drill="0">
</class>
</classes>
<parts>
<part name="U1" library="ATSAMD11C14A-SSUT" deviceset="ATSAMD11C14A-SSUT" device=""/>
<part name="U$1" library="eagle_fab" deviceset="PMIC_H-BRIDGE_A4953_PAD" device=""/>
<part name="U$2" library="eagle_fab" deviceset="PMIC_H-BRIDGE_A4953_PAD" device=""/>
<part name="GND1" library="supply1" library_urn="urn:adsk.eagle:library:371" deviceset="GND" device=""/>
<part name="GND2" library="supply1" library_urn="urn:adsk.eagle:library:371" deviceset="GND" device=""/>
<part name="GND3" library="supply1" library_urn="urn:adsk.eagle:library:371" deviceset="GND" device=""/>
<part name="R1" library="eagle_fab" deviceset="R" device="1206FAB"/>
<part name="R2" library="eagle_fab" deviceset="R" device="1206FAB"/>
<part name="GND4" library="supply1" library_urn="urn:adsk.eagle:library:371" deviceset="GND" device=""/>
<part name="GND5" library="supply1" library_urn="urn:adsk.eagle:library:371" deviceset="GND" device=""/>
<part name="U$3" library="eagle_fab" deviceset="CONN_02X2-PINHEAD-SMD" device=""/>
<part name="S1" library="eagle_fab" deviceset="SW_SWITCH_TACTILE_6MM" device="6MM_SWITCH"/>
<part name="U2" library="eagle_fab" deviceset="VR_REGULATOR_SOT223" device=""/>
<part name="U$4" library="eagle_fab" deviceset="LED" device="FAB1206"/>
<part name="D1" library="eagle_fab" deviceset="DIODE_SOD-123" device="SOD123"/>
<part name="X1" library="eagle_fab" deviceset="CONN_MICRO-USB" device="_1/64"/>
<part name="GND6" library="supply1" library_urn="urn:adsk.eagle:library:371" deviceset="GND" device=""/>
<part name="GND7" library="supply1" library_urn="urn:adsk.eagle:library:371" deviceset="GND" device=""/>
<part name="GND8" library="supply1" library_urn="urn:adsk.eagle:library:371" deviceset="GND" device=""/>
<part name="J1" library="eagle_fab" deviceset="CONN_05X2_ARM_DEBUG" device="SMD"/>
<part name="R3" library="eagle_fab" deviceset="R" device="1206FAB" value="1K"/>
<part name="U$5" library="POT_PTV09A-4225F-B102-ND" deviceset="POT_PTV09A-4225F-B102-ND" device=""/>
<part name="GND9" library="supply1" library_urn="urn:adsk.eagle:library:371" deviceset="GND" device=""/>
<part name="S2" library="smd-special" library_urn="urn:adsk.eagle:library:362" deviceset="SWS002" device="" package3d_urn="urn:adsk.eagle:package:26469/1"/>
<part name="R4" library="eagle_fab" deviceset="R" device="1206FAB"/>
<part name="R5" library="eagle_fab" deviceset="R" device="1206FAB"/>
<part name="GND10" library="supply1" library_urn="urn:adsk.eagle:library:371" deviceset="GND" device=""/>
</parts>
<sheets>
<sheet>
<plain>
<text x="-12.7" y="88.9" size="1.778" layer="91">h bridges</text>
<text x="96.52" y="53.34" size="1.778" layer="91">jtag header</text>
<text x="-12.7" y="144.78" size="1.778" layer="91">3 pins left.  Pot for speed 2 dip switches for config inline power switch</text>
</plain>
<instances>
<instance part="U1" gate="G$1" x="50.8" y="66.04" smashed="yes">
<attribute name="NAME" x="40.6201" y="81.8189" size="1.272490625" layer="95"/>
<attribute name="VALUE" x="41.14775" y="46.4815" size="1.27003125" layer="96"/>
</instance>
<instance part="U$1" gate="G$1" x="-7.62" y="78.74" smashed="yes" rot="R180"/>
<instance part="U$2" gate="G$1" x="-7.62" y="63.5" smashed="yes" rot="R180"/>
<instance part="GND1" gate="1" x="10.16" y="71.12" smashed="yes">
<attribute name="VALUE" x="7.62" y="68.58" size="1.778" layer="96"/>
</instance>
<instance part="GND2" gate="1" x="10.16" y="55.88" smashed="yes">
<attribute name="VALUE" x="7.62" y="53.34" size="1.778" layer="96"/>
</instance>
<instance part="GND3" gate="1" x="71.12" y="48.26" smashed="yes">
<attribute name="VALUE" x="68.58" y="45.72" size="1.778" layer="96"/>
</instance>
<instance part="R1" gate="G$1" x="-35.56" y="76.2" smashed="yes">
<attribute name="NAME" x="-39.37" y="77.6986" size="1.778" layer="95"/>
<attribute name="VALUE" x="-39.37" y="72.898" size="1.778" layer="96"/>
</instance>
<instance part="R2" gate="G$1" x="-35.56" y="60.96" smashed="yes">
<attribute name="NAME" x="-39.37" y="62.4586" size="1.778" layer="95"/>
<attribute name="VALUE" x="-39.37" y="57.658" size="1.778" layer="96"/>
</instance>
<instance part="GND4" gate="1" x="-45.72" y="58.42" smashed="yes">
<attribute name="VALUE" x="-48.26" y="55.88" size="1.778" layer="96"/>
</instance>
<instance part="GND5" gate="1" x="-45.72" y="73.66" smashed="yes">
<attribute name="VALUE" x="-48.26" y="71.12" size="1.778" layer="96"/>
</instance>
<instance part="U$3" gate="G$1" x="-66.04" y="68.58" smashed="yes">
<attribute name="NAME" x="-74.93" y="74.295" size="1.778" layer="95"/>
<attribute name="VALUE" x="-74.93" y="63.5" size="1.778" layer="96"/>
</instance>
<instance part="S1" gate="2" x="20.32" y="40.64" smashed="yes">
<attribute name="NAME" x="13.97" y="38.1" size="1.778" layer="95" rot="R90"/>
<attribute name="VALUE" x="16.51" y="43.815" size="1.778" layer="96" rot="R90"/>
</instance>
<instance part="U2" gate="G$1" x="58.42" y="101.6" smashed="yes">
<attribute name="NAME" x="52.07" y="95.25" size="1.27" layer="95"/>
<attribute name="VALUE" x="59.69" y="95.25" size="1.27" layer="96"/>
</instance>
<instance part="U$4" gate="G$1" x="15.24" y="114.3" smashed="yes">
<attribute name="NAME" x="18.796" y="112.268" size="1.778" layer="95" rot="R90"/>
<attribute name="VALUE" x="20.955" y="112.268" size="1.778" layer="96" rot="R90"/>
</instance>
<instance part="D1" gate="G$1" x="53.34" y="114.3" smashed="yes" rot="R270">
<attribute name="NAME" x="53.8226" y="111.76" size="1.778" layer="95" rot="R270"/>
<attribute name="VALUE" x="51.0286" y="111.76" size="1.778" layer="96" rot="R270"/>
</instance>
<instance part="X1" gate="G$1" x="55.88" y="129.54" smashed="yes" rot="R180">
<attribute name="NAME" x="60.325" y="131.445" size="1.27" layer="95" font="vector" rot="R270"/>
<attribute name="VALUE" x="47.625" y="131.445" size="1.27" layer="96" font="vector" rot="R270"/>
</instance>
<instance part="GND6" gate="1" x="63.5" y="121.92" smashed="yes">
<attribute name="VALUE" x="60.96" y="119.38" size="1.778" layer="96"/>
</instance>
<instance part="GND7" gate="1" x="58.42" y="91.44" smashed="yes">
<attribute name="VALUE" x="55.88" y="88.9" size="1.778" layer="96"/>
</instance>
<instance part="GND8" gate="1" x="20.32" y="27.94" smashed="yes">
<attribute name="VALUE" x="17.78" y="25.4" size="1.778" layer="96"/>
</instance>
<instance part="J1" gate="G$1" x="91.44" y="66.04" smashed="yes">
<attribute name="NAME" x="78.74" y="73.66" size="1.778" layer="95"/>
<attribute name="PACKAGE" x="78.74" y="53.34" size="1.27" layer="97"/>
<attribute name="VALUE" x="78.74" y="55.88" size="1.778" layer="96"/>
</instance>
<instance part="R3" gate="G$1" x="124.46" y="73.66" smashed="yes" rot="R90">
<attribute name="NAME" x="122.9614" y="69.85" size="1.778" layer="95" rot="R90"/>
<attribute name="VALUE" x="127.762" y="69.85" size="1.778" layer="96" rot="R90"/>
</instance>
<instance part="U$5" gate="G$1" x="38.1" y="12.7" smashed="yes" rot="R270">
<attribute name="NAME" x="50.8" y="15.24" size="1.778" layer="94" rot="R270"/>
<attribute name="VALUE" x="30.48" y="15.24" size="1.778" layer="94" rot="R270"/>
</instance>
<instance part="GND9" gate="1" x="35.56" y="-7.62" smashed="yes" rot="R270">
<attribute name="VALUE" x="33.02" y="-5.08" size="1.778" layer="96" rot="R270"/>
</instance>
<instance part="S2" gate="G$1" x="-5.08" y="-33.02" smashed="yes">
<attribute name="NAME" x="-7.62" y="-35.56" size="1.778" layer="95" rot="R90"/>
<attribute name="VALUE" x="1.905" y="-35.56" size="1.778" layer="96" rot="R90"/>
</instance>
<instance part="R4" gate="G$1" x="-5.08" y="-12.7" smashed="yes" rot="R90">
<attribute name="NAME" x="-6.5786" y="-16.51" size="1.778" layer="95" rot="R90"/>
<attribute name="VALUE" x="-1.778" y="-16.51" size="1.778" layer="96" rot="R90"/>
</instance>
<instance part="R5" gate="G$1" x="-2.54" y="-12.7" smashed="yes" rot="R90">
<attribute name="NAME" x="1.0414" y="-16.51" size="1.778" layer="95" rot="R90"/>
<attribute name="VALUE" x="0.762" y="-16.51" size="1.778" layer="96" rot="R90"/>
</instance>
<instance part="GND10" gate="1" x="-2.54" y="-43.18" smashed="yes">
<attribute name="VALUE" x="-5.08" y="-45.72" size="1.778" layer="96"/>
</instance>
</instances>
<busses>
</busses>
<nets>
<net name="GND" class="0">
<segment>
<pinref part="U$1" gate="G$1" pin="GND"/>
<wire x1="5.08" y1="73.66" x2="10.16" y2="73.66" width="0.1524" layer="91"/>
<pinref part="GND1" gate="1" pin="GND"/>
</segment>
<segment>
<pinref part="U$2" gate="G$1" pin="GND"/>
<wire x1="5.08" y1="58.42" x2="10.16" y2="58.42" width="0.1524" layer="91"/>
<pinref part="GND2" gate="1" pin="GND"/>
</segment>
<segment>
<pinref part="U1" gate="G$1" pin="GND"/>
<wire x1="63.5" y1="50.8" x2="71.12" y2="50.8" width="0.1524" layer="91"/>
<pinref part="GND3" gate="1" pin="GND"/>
<pinref part="J1" gate="G$1" pin="GND@3"/>
<pinref part="J1" gate="G$1" pin="GND@5"/>
<wire x1="73.66" y1="68.58" x2="73.66" y2="66.04" width="0.1524" layer="91"/>
<pinref part="J1" gate="G$1" pin="GND@7"/>
<wire x1="73.66" y1="66.04" x2="73.66" y2="63.5" width="0.1524" layer="91"/>
<junction x="73.66" y="66.04"/>
<pinref part="J1" gate="G$1" pin="GND@9"/>
<wire x1="73.66" y1="63.5" x2="73.66" y2="60.96" width="0.1524" layer="91"/>
<junction x="73.66" y="63.5"/>
<wire x1="73.66" y1="60.96" x2="71.12" y2="60.96" width="0.1524" layer="91"/>
<wire x1="71.12" y1="60.96" x2="71.12" y2="50.8" width="0.1524" layer="91"/>
<junction x="73.66" y="60.96"/>
<junction x="71.12" y="50.8"/>
</segment>
<segment>
<pinref part="R2" gate="G$1" pin="1"/>
<wire x1="-40.64" y1="60.96" x2="-45.72" y2="60.96" width="0.1524" layer="91"/>
<pinref part="GND4" gate="1" pin="GND"/>
</segment>
<segment>
<pinref part="R1" gate="G$1" pin="1"/>
<wire x1="-40.64" y1="76.2" x2="-45.72" y2="76.2" width="0.1524" layer="91"/>
<pinref part="GND5" gate="1" pin="GND"/>
</segment>
<segment>
<pinref part="X1" gate="G$1" pin="GND"/>
<wire x1="58.42" y1="124.46" x2="63.5" y2="124.46" width="0.1524" layer="91"/>
<pinref part="GND6" gate="1" pin="GND"/>
</segment>
<segment>
<pinref part="U2" gate="G$1" pin="GND"/>
<pinref part="GND7" gate="1" pin="GND"/>
<wire x1="58.42" y1="96.52" x2="58.42" y2="93.98" width="0.1524" layer="91"/>
</segment>
<segment>
<pinref part="S1" gate="2" pin="P"/>
<wire x1="20.32" y1="35.56" x2="20.32" y2="30.48" width="0.1524" layer="91"/>
<pinref part="GND8" gate="1" pin="GND"/>
</segment>
<segment>
<pinref part="U$5" gate="G$1" pin="P$3"/>
<wire x1="38.1" y1="0" x2="38.1" y2="-7.62" width="0.1524" layer="91"/>
<pinref part="GND9" gate="1" pin="GND"/>
</segment>
<segment>
<pinref part="S2" gate="G$1" pin="1"/>
<pinref part="S2" gate="G$1" pin="2"/>
<wire x1="-5.08" y1="-38.1" x2="-2.54" y2="-38.1" width="0.1524" layer="91"/>
<wire x1="-2.54" y1="-38.1" x2="-2.54" y2="-40.64" width="0.1524" layer="91"/>
<junction x="-2.54" y="-38.1"/>
<pinref part="GND10" gate="1" pin="GND"/>
</segment>
</net>
<net name="3V3" class="0">
<segment>
<pinref part="U$1" gate="G$1" pin="VREF"/>
<wire x1="5.08" y1="81.28" x2="10.16" y2="81.28" width="0.1524" layer="91"/>
<label x="7.62" y="81.28" size="1.778" layer="95"/>
</segment>
<segment>
<pinref part="U$2" gate="G$1" pin="VREF"/>
<wire x1="5.08" y1="66.04" x2="10.16" y2="66.04" width="0.1524" layer="91"/>
<label x="5.08" y="66.04" size="1.778" layer="95"/>
</segment>
<segment>
<pinref part="U1" gate="G$1" pin="VDD"/>
<label x="53.34" y="78.74" size="1.778" layer="95"/>
<pinref part="U2" gate="G$1" pin="OUT"/>
<wire x1="66.04" y1="104.14" x2="71.12" y2="104.14" width="0.1524" layer="91"/>
<wire x1="71.12" y1="104.14" x2="71.12" y2="78.74" width="0.1524" layer="91"/>
<wire x1="71.12" y1="78.74" x2="63.5" y2="78.74" width="0.1524" layer="91"/>
<pinref part="J1" gate="G$1" pin="VCC"/>
<wire x1="73.66" y1="71.12" x2="73.66" y2="78.74" width="0.1524" layer="91"/>
<wire x1="73.66" y1="78.74" x2="71.12" y2="78.74" width="0.1524" layer="91"/>
<junction x="71.12" y="78.74"/>
<pinref part="R3" gate="G$1" pin="2"/>
<wire x1="124.46" y1="78.74" x2="73.66" y2="78.74" width="0.1524" layer="91"/>
<junction x="73.66" y="78.74"/>
</segment>
<segment>
<pinref part="U$5" gate="G$1" pin="P$1"/>
<wire x1="38.1" y1="25.4" x2="38.1" y2="33.02" width="0.1524" layer="91"/>
<label x="38.1" y="33.02" size="1.778" layer="95" rot="R270"/>
</segment>
<segment>
<pinref part="R4" gate="G$1" pin="2"/>
<wire x1="-5.08" y1="-7.62" x2="-5.08" y2="-5.08" width="0.1524" layer="91"/>
<pinref part="R5" gate="G$1" pin="2"/>
<wire x1="-2.54" y1="-7.62" x2="-5.08" y2="-7.62" width="0.1524" layer="91"/>
<junction x="-5.08" y="-7.62"/>
<label x="-5.08" y="-7.62" size="1.778" layer="95"/>
</segment>
</net>
<net name="N$7" class="0">
<segment>
<pinref part="U1" gate="G$1" pin="PA05"/>
<wire x1="35.56" y1="73.66" x2="20.32" y2="73.66" width="0.1524" layer="91"/>
<wire x1="20.32" y1="73.66" x2="20.32" y2="78.74" width="0.1524" layer="91"/>
<pinref part="U$1" gate="G$1" pin="IN1"/>
<wire x1="20.32" y1="78.74" x2="5.08" y2="78.74" width="0.1524" layer="91"/>
</segment>
</net>
<net name="N$8" class="0">
<segment>
<pinref part="U$1" gate="G$1" pin="IN2"/>
<wire x1="5.08" y1="76.2" x2="17.78" y2="76.2" width="0.1524" layer="91"/>
<wire x1="17.78" y1="76.2" x2="17.78" y2="71.12" width="0.1524" layer="91"/>
<pinref part="U1" gate="G$1" pin="PA08"/>
<wire x1="17.78" y1="71.12" x2="35.56" y2="71.12" width="0.1524" layer="91"/>
</segment>
</net>
<net name="N$9" class="0">
<segment>
<pinref part="U$2" gate="G$1" pin="IN1"/>
<wire x1="5.08" y1="63.5" x2="17.78" y2="63.5" width="0.1524" layer="91"/>
<wire x1="17.78" y1="63.5" x2="17.78" y2="68.58" width="0.1524" layer="91"/>
<pinref part="U1" gate="G$1" pin="PA09"/>
<wire x1="17.78" y1="68.58" x2="35.56" y2="68.58" width="0.1524" layer="91"/>
</segment>
</net>
<net name="N$10" class="0">
<segment>
<pinref part="U1" gate="G$1" pin="PA14"/>
<wire x1="35.56" y1="66.04" x2="20.32" y2="66.04" width="0.1524" layer="91"/>
<wire x1="20.32" y1="66.04" x2="20.32" y2="60.96" width="0.1524" layer="91"/>
<pinref part="U$2" gate="G$1" pin="IN2"/>
<wire x1="20.32" y1="60.96" x2="5.08" y2="60.96" width="0.1524" layer="91"/>
</segment>
</net>
<net name="VMOTOR" class="0">
<segment>
<pinref part="U$1" gate="G$1" pin="VBB"/>
<wire x1="-22.86" y1="81.28" x2="-27.94" y2="81.28" width="0.1524" layer="91"/>
<label x="-35.56" y="81.28" size="1.778" layer="95"/>
</segment>
<segment>
<pinref part="U$2" gate="G$1" pin="VBB"/>
<wire x1="-22.86" y1="66.04" x2="-27.94" y2="66.04" width="0.1524" layer="91"/>
<label x="-35.56" y="66.04" size="1.778" layer="95"/>
</segment>
</net>
<net name="N$1" class="0">
<segment>
<pinref part="R1" gate="G$1" pin="2"/>
<pinref part="U$1" gate="G$1" pin="LSS"/>
<wire x1="-30.48" y1="76.2" x2="-22.86" y2="76.2" width="0.1524" layer="91"/>
</segment>
</net>
<net name="N$2" class="0">
<segment>
<pinref part="R2" gate="G$1" pin="2"/>
<pinref part="U$2" gate="G$1" pin="LSS"/>
<wire x1="-30.48" y1="60.96" x2="-22.86" y2="60.96" width="0.1524" layer="91"/>
</segment>
</net>
<net name="M1" class="0">
<segment>
<pinref part="U$1" gate="G$1" pin="OUT1"/>
<wire x1="-22.86" y1="78.74" x2="-30.48" y2="78.74" width="0.1524" layer="91"/>
<label x="-30.48" y="78.74" size="1.778" layer="95"/>
</segment>
<segment>
<pinref part="U$3" gate="G$1" pin="2"/>
<wire x1="-63.5" y1="71.12" x2="-50.8" y2="71.12" width="0.1524" layer="91"/>
<label x="-58.42" y="71.12" size="1.778" layer="95"/>
</segment>
</net>
<net name="M2" class="0">
<segment>
<pinref part="U$1" gate="G$1" pin="OUT2"/>
<wire x1="-22.86" y1="73.66" x2="-30.48" y2="73.66" width="0.1524" layer="91"/>
<label x="-30.48" y="73.66" size="1.778" layer="95"/>
</segment>
<segment>
<pinref part="U$3" gate="G$1" pin="4"/>
<wire x1="-63.5" y1="68.58" x2="-50.8" y2="68.58" width="0.1524" layer="91"/>
<label x="-58.42" y="68.58" size="1.778" layer="95"/>
</segment>
</net>
<net name="M3" class="0">
<segment>
<pinref part="U$2" gate="G$1" pin="OUT1"/>
<wire x1="-22.86" y1="63.5" x2="-30.48" y2="63.5" width="0.1524" layer="91"/>
<label x="-30.48" y="63.5" size="1.778" layer="95"/>
</segment>
<segment>
<pinref part="U$3" gate="G$1" pin="1"/>
<wire x1="-71.12" y1="71.12" x2="-83.82" y2="71.12" width="0.1524" layer="91"/>
<label x="-81.28" y="71.12" size="1.778" layer="95"/>
</segment>
</net>
<net name="M4" class="0">
<segment>
<pinref part="U$2" gate="G$1" pin="OUT2"/>
<wire x1="-22.86" y1="58.42" x2="-30.48" y2="58.42" width="0.1524" layer="91"/>
<label x="-30.48" y="58.42" size="1.778" layer="95"/>
</segment>
<segment>
<pinref part="U$3" gate="G$1" pin="3"/>
<wire x1="-71.12" y1="68.58" x2="-83.82" y2="68.58" width="0.1524" layer="91"/>
<label x="-81.28" y="68.58" size="1.778" layer="95"/>
</segment>
</net>
<net name="N$4" class="0">
<segment>
<pinref part="U2" gate="G$1" pin="IN"/>
<wire x1="50.8" y1="104.14" x2="50.8" y2="109.22" width="0.1524" layer="91"/>
<wire x1="50.8" y1="109.22" x2="53.34" y2="109.22" width="0.1524" layer="91"/>
<pinref part="D1" gate="G$1" pin="C"/>
<wire x1="53.34" y1="109.22" x2="53.34" y2="111.76" width="0.1524" layer="91"/>
</segment>
</net>
<net name="N$5" class="0">
<segment>
<pinref part="D1" gate="G$1" pin="A"/>
<wire x1="53.34" y1="116.84" x2="55.88" y2="116.84" width="0.1524" layer="91"/>
<pinref part="X1" gate="G$1" pin="VBUS"/>
<wire x1="55.88" y1="116.84" x2="55.88" y2="124.46" width="0.1524" layer="91"/>
</segment>
</net>
<net name="DM" class="0">
<segment>
<pinref part="U1" gate="G$1" pin="PA24"/>
<wire x1="35.56" y1="60.96" x2="30.48" y2="60.96" width="0.1524" layer="91"/>
<label x="30.48" y="60.96" size="1.778" layer="95"/>
</segment>
<segment>
<pinref part="X1" gate="G$1" pin="D-"/>
<wire x1="53.34" y1="124.46" x2="53.34" y2="119.38" width="0.1524" layer="91"/>
<label x="53.34" y="119.38" size="1.778" layer="95" rot="R90"/>
</segment>
</net>
<net name="DP" class="0">
<segment>
<pinref part="U1" gate="G$1" pin="PA25"/>
<wire x1="35.56" y1="58.42" x2="30.48" y2="58.42" width="0.1524" layer="91"/>
<label x="30.48" y="58.42" size="1.778" layer="95"/>
</segment>
<segment>
<pinref part="X1" gate="G$1" pin="D+"/>
<wire x1="50.8" y1="124.46" x2="50.8" y2="119.38" width="0.1524" layer="91"/>
<label x="50.8" y="119.38" size="1.778" layer="95" rot="R90"/>
</segment>
</net>
<net name="RESET" class="0">
<segment>
<pinref part="U1" gate="G$1" pin="PA28/!RST"/>
<pinref part="S1" gate="2" pin="S"/>
<wire x1="35.56" y1="55.88" x2="20.32" y2="55.88" width="0.1524" layer="91"/>
<wire x1="20.32" y1="55.88" x2="20.32" y2="45.72" width="0.1524" layer="91"/>
<pinref part="S1" gate="2" pin="S1"/>
<wire x1="20.32" y1="45.72" x2="22.86" y2="45.72" width="0.1524" layer="91"/>
<junction x="20.32" y="45.72"/>
<label x="27.94" y="55.88" size="1.778" layer="95"/>
</segment>
<segment>
<pinref part="J1" gate="G$1" pin="NRESET"/>
<wire x1="109.22" y1="60.96" x2="116.84" y2="60.96" width="0.1524" layer="91"/>
<label x="111.76" y="60.96" size="1.778" layer="95"/>
</segment>
</net>
<net name="DIO" class="0">
<segment>
<pinref part="J1" gate="G$1" pin="SWDIO/TMS"/>
<wire x1="109.22" y1="71.12" x2="116.84" y2="71.12" width="0.1524" layer="91"/>
<label x="111.76" y="71.12" size="1.778" layer="95"/>
</segment>
<segment>
<pinref part="U1" gate="G$1" pin="PA31"/>
<wire x1="35.56" y1="50.8" x2="27.94" y2="50.8" width="0.1524" layer="91"/>
<label x="30.48" y="50.8" size="1.778" layer="95"/>
</segment>
</net>
<net name="CLK" class="0">
<segment>
<pinref part="J1" gate="G$1" pin="SWDCLK/TCK"/>
<label x="111.76" y="68.58" size="1.778" layer="95"/>
<pinref part="R3" gate="G$1" pin="1"/>
<wire x1="109.22" y1="68.58" x2="124.46" y2="68.58" width="0.1524" layer="91"/>
</segment>
<segment>
<pinref part="U1" gate="G$1" pin="PA30"/>
<wire x1="35.56" y1="53.34" x2="27.94" y2="53.34" width="0.1524" layer="91"/>
<label x="30.48" y="53.34" size="1.778" layer="95"/>
</segment>
</net>
<net name="POT" class="0">
<segment>
<pinref part="U1" gate="G$1" pin="PA15"/>
<wire x1="35.56" y1="63.5" x2="30.48" y2="63.5" width="0.1524" layer="91"/>
<label x="30.48" y="63.5" size="1.778" layer="95"/>
</segment>
<segment>
<pinref part="U$5" gate="G$1" pin="P$2"/>
<wire x1="45.72" y1="12.7" x2="53.34" y2="12.7" width="0.1524" layer="91"/>
<label x="53.34" y="12.7" size="1.778" layer="95"/>
</segment>
</net>
<net name="SW1" class="0">
<segment>
<pinref part="S2" gate="G$1" pin="4"/>
<pinref part="R4" gate="G$1" pin="1"/>
<wire x1="-5.08" y1="-25.4" x2="-5.08" y2="-17.78" width="0.1524" layer="91"/>
<label x="-5.08" y="-25.4" size="1.778" layer="95" rot="R90"/>
</segment>
<segment>
<pinref part="U1" gate="G$1" pin="PA02"/>
<wire x1="35.56" y1="78.74" x2="30.48" y2="78.74" width="0.1524" layer="91"/>
<label x="27.94" y="78.74" size="1.778" layer="95"/>
</segment>
</net>
<net name="SW2" class="0">
<segment>
<pinref part="S2" gate="G$1" pin="3"/>
<pinref part="R5" gate="G$1" pin="1"/>
<wire x1="-2.54" y1="-25.4" x2="-2.54" y2="-17.78" width="0.1524" layer="91"/>
<label x="-2.54" y="-25.4" size="1.778" layer="95" rot="R90"/>
</segment>
<segment>
<pinref part="U1" gate="G$1" pin="PA04"/>
<wire x1="35.56" y1="76.2" x2="30.48" y2="76.2" width="0.1524" layer="91"/>
<label x="27.94" y="76.2" size="1.778" layer="95"/>
</segment>
</net>
</nets>
</sheet>
</sheets>
</schematic>
</drawing>
<compatibility>
<note version="8.2" severity="warning">
Since Version 8.2, EAGLE supports online libraries. The ids
of those online libraries will not be understood (or retained)
with this version.
</note>
<note version="8.3" severity="warning">
Since Version 8.3, EAGLE supports URNs for individual library
assets (packages, symbols, and devices). The URNs of those assets
will not be understood (or retained) with this version.
</note>
<note version="8.3" severity="warning">
Since Version 8.3, EAGLE supports the association of 3D packages
with devices in libraries, schematics, and board files. Those 3D
packages will not be understood (or retained) with this version.
</note>
</compatibility>
</eagle>
