<?xml version="1.0" encoding="utf-8"?>
<!DOCTYPE eagle SYSTEM "eagle.dtd">
<eagle version="9.5.2">
<drawing>
<settings>
<setting alwaysvectorfont="no"/>
<setting verticaltext="up"/>
</settings>
<grid distance="50" unitdist="mil" unit="mil" style="lines" multiple="1" display="no" altdistance="5" altunitdist="mil" altunit="mil"/>
<layers>
<layer number="1" name="Top" color="4" fill="1" visible="yes" active="yes"/>
<layer number="16" name="Bottom" color="1" fill="1" visible="yes" active="yes"/>
<layer number="17" name="Pads" color="2" fill="1" visible="yes" active="yes"/>
<layer number="18" name="Vias" color="2" fill="1" visible="yes" active="yes"/>
<layer number="19" name="Unrouted" color="6" fill="1" visible="yes" active="yes"/>
<layer number="20" name="Dimension" color="24" fill="1" visible="yes" active="yes"/>
<layer number="21" name="tPlace" color="7" fill="1" visible="yes" active="yes"/>
<layer number="22" name="bPlace" color="7" fill="1" visible="yes" active="yes"/>
<layer number="23" name="tOrigins" color="15" fill="1" visible="yes" active="yes"/>
<layer number="24" name="bOrigins" color="15" fill="1" visible="yes" active="yes"/>
<layer number="25" name="tNames" color="7" fill="1" visible="yes" active="yes"/>
<layer number="26" name="bNames" color="7" fill="1" visible="yes" active="yes"/>
<layer number="27" name="tValues" color="7" fill="1" visible="yes" active="yes"/>
<layer number="28" name="bValues" color="7" fill="1" visible="yes" active="yes"/>
<layer number="29" name="tStop" color="7" fill="3" visible="no" active="yes"/>
<layer number="30" name="bStop" color="7" fill="6" visible="no" active="yes"/>
<layer number="31" name="tCream" color="7" fill="4" visible="no" active="yes"/>
<layer number="32" name="bCream" color="7" fill="5" visible="no" active="yes"/>
<layer number="33" name="tFinish" color="6" fill="3" visible="no" active="yes"/>
<layer number="34" name="bFinish" color="6" fill="6" visible="no" active="yes"/>
<layer number="35" name="tGlue" color="7" fill="4" visible="no" active="yes"/>
<layer number="36" name="bGlue" color="7" fill="5" visible="no" active="yes"/>
<layer number="37" name="tTest" color="7" fill="1" visible="no" active="yes"/>
<layer number="38" name="bTest" color="7" fill="1" visible="no" active="yes"/>
<layer number="39" name="tKeepout" color="4" fill="11" visible="yes" active="yes"/>
<layer number="40" name="bKeepout" color="1" fill="11" visible="yes" active="yes"/>
<layer number="41" name="tRestrict" color="4" fill="10" visible="yes" active="yes"/>
<layer number="42" name="bRestrict" color="1" fill="10" visible="yes" active="yes"/>
<layer number="43" name="vRestrict" color="2" fill="10" visible="yes" active="yes"/>
<layer number="44" name="Drills" color="7" fill="1" visible="no" active="yes"/>
<layer number="45" name="Holes" color="7" fill="1" visible="no" active="yes"/>
<layer number="46" name="Milling" color="3" fill="1" visible="no" active="yes"/>
<layer number="47" name="Measures" color="7" fill="1" visible="no" active="yes"/>
<layer number="48" name="Document" color="7" fill="1" visible="yes" active="yes"/>
<layer number="49" name="Reference" color="7" fill="1" visible="yes" active="yes"/>
<layer number="50" name="dxf" color="7" fill="1" visible="no" active="no"/>
<layer number="51" name="tDocu" color="7" fill="1" visible="yes" active="yes"/>
<layer number="52" name="bDocu" color="7" fill="1" visible="yes" active="yes"/>
<layer number="53" name="tGND_GNDA" color="7" fill="9" visible="no" active="no"/>
<layer number="54" name="bGND_GNDA" color="1" fill="9" visible="no" active="no"/>
<layer number="56" name="wert" color="7" fill="1" visible="no" active="no"/>
<layer number="57" name="tCAD" color="7" fill="1" visible="no" active="no"/>
<layer number="59" name="tCarbon" color="7" fill="1" visible="no" active="no"/>
<layer number="60" name="bCarbon" color="7" fill="1" visible="no" active="no"/>
<layer number="88" name="SimResults" color="9" fill="1" visible="no" active="no"/>
<layer number="89" name="SimProbes" color="9" fill="1" visible="no" active="no"/>
<layer number="90" name="Modules" color="5" fill="1" visible="no" active="no"/>
<layer number="91" name="Nets" color="2" fill="1" visible="no" active="no"/>
<layer number="92" name="Busses" color="1" fill="1" visible="no" active="no"/>
<layer number="93" name="Pins" color="2" fill="1" visible="no" active="no"/>
<layer number="94" name="Symbols" color="4" fill="1" visible="no" active="no"/>
<layer number="95" name="Names" color="7" fill="1" visible="no" active="no"/>
<layer number="96" name="Values" color="7" fill="1" visible="no" active="no"/>
<layer number="97" name="Info" color="7" fill="1" visible="no" active="no"/>
<layer number="98" name="Guide" color="6" fill="1" visible="no" active="no"/>
<layer number="99" name="SpiceOrder" color="7" fill="1" visible="no" active="no"/>
<layer number="100" name="Muster" color="7" fill="1" visible="no" active="no"/>
<layer number="101" name="Patch_Top" color="12" fill="4" visible="no" active="yes"/>
<layer number="102" name="Vscore" color="7" fill="1" visible="no" active="yes"/>
<layer number="103" name="tMap" color="7" fill="1" visible="no" active="yes"/>
<layer number="104" name="Name" color="7" fill="1" visible="no" active="yes"/>
<layer number="105" name="tPlate" color="7" fill="1" visible="no" active="yes"/>
<layer number="106" name="bPlate" color="7" fill="1" visible="no" active="yes"/>
<layer number="107" name="Crop" color="7" fill="1" visible="no" active="yes"/>
<layer number="108" name="tplace-old" color="10" fill="1" visible="no" active="yes"/>
<layer number="109" name="ref-old" color="11" fill="1" visible="no" active="yes"/>
<layer number="110" name="fp0" color="7" fill="1" visible="no" active="yes"/>
<layer number="111" name="LPC17xx" color="7" fill="1" visible="no" active="yes"/>
<layer number="112" name="tSilk" color="7" fill="1" visible="no" active="yes"/>
<layer number="113" name="IDFDebug" color="7" fill="1" visible="no" active="yes"/>
<layer number="114" name="Badge_Outline" color="7" fill="1" visible="no" active="yes"/>
<layer number="115" name="ReferenceISLANDS" color="7" fill="1" visible="no" active="yes"/>
<layer number="116" name="Patch_BOT" color="9" fill="4" visible="no" active="yes"/>
<layer number="117" name="BACKMAAT1" color="7" fill="1" visible="yes" active="yes"/>
<layer number="118" name="Rect_Pads" color="7" fill="1" visible="no" active="yes"/>
<layer number="119" name="KAP_TEKEN" color="7" fill="1" visible="yes" active="yes"/>
<layer number="120" name="KAP_MAAT1" color="7" fill="1" visible="yes" active="yes"/>
<layer number="121" name="_tsilk" color="7" fill="1" visible="no" active="yes"/>
<layer number="122" name="_bsilk" color="7" fill="1" visible="no" active="yes"/>
<layer number="123" name="tTestmark" color="7" fill="1" visible="no" active="yes"/>
<layer number="124" name="bTestmark" color="7" fill="1" visible="no" active="yes"/>
<layer number="125" name="_tNames" color="7" fill="1" visible="no" active="yes"/>
<layer number="126" name="_bNames" color="7" fill="1" visible="no" active="yes"/>
<layer number="127" name="_tValues" color="7" fill="1" visible="no" active="yes"/>
<layer number="128" name="_bValues" color="7" fill="1" visible="no" active="yes"/>
<layer number="129" name="Mask" color="7" fill="1" visible="no" active="yes"/>
<layer number="130" name="SMDSTROOK" color="7" fill="1" visible="yes" active="yes"/>
<layer number="131" name="tAdjust" color="7" fill="1" visible="no" active="yes"/>
<layer number="132" name="bAdjust" color="7" fill="1" visible="no" active="yes"/>
<layer number="133" name="bottom_silk" color="7" fill="1" visible="yes" active="yes"/>
<layer number="144" name="Drill_legend" color="7" fill="1" visible="no" active="yes"/>
<layer number="150" name="Notes" color="7" fill="1" visible="no" active="yes"/>
<layer number="151" name="HeatSink" color="7" fill="1" visible="no" active="yes"/>
<layer number="152" name="_bDocu" color="7" fill="1" visible="no" active="yes"/>
<layer number="153" name="FabDoc1" color="7" fill="1" visible="no" active="yes"/>
<layer number="154" name="FabDoc2" color="7" fill="1" visible="no" active="yes"/>
<layer number="155" name="FabDoc3" color="7" fill="1" visible="no" active="yes"/>
<layer number="199" name="Contour" color="7" fill="1" visible="no" active="yes"/>
<layer number="200" name="200bmp" color="1" fill="10" visible="no" active="yes"/>
<layer number="201" name="201bmp" color="2" fill="10" visible="no" active="yes"/>
<layer number="202" name="202bmp" color="3" fill="10" visible="no" active="yes"/>
<layer number="203" name="203bmp" color="4" fill="10" visible="no" active="yes"/>
<layer number="204" name="204bmp" color="5" fill="10" visible="no" active="yes"/>
<layer number="205" name="205bmp" color="6" fill="10" visible="no" active="yes"/>
<layer number="206" name="206bmp" color="7" fill="10" visible="no" active="yes"/>
<layer number="207" name="207bmp" color="8" fill="10" visible="no" active="yes"/>
<layer number="208" name="208bmp" color="9" fill="10" visible="no" active="yes"/>
<layer number="209" name="209bmp" color="7" fill="1" visible="no" active="yes"/>
<layer number="210" name="210bmp" color="7" fill="1" visible="no" active="yes"/>
<layer number="211" name="211bmp" color="7" fill="1" visible="no" active="yes"/>
<layer number="212" name="212bmp" color="7" fill="1" visible="no" active="yes"/>
<layer number="213" name="213bmp" color="7" fill="1" visible="no" active="yes"/>
<layer number="214" name="214bmp" color="7" fill="1" visible="no" active="yes"/>
<layer number="215" name="215bmp" color="7" fill="1" visible="no" active="yes"/>
<layer number="216" name="216bmp" color="7" fill="1" visible="no" active="yes"/>
<layer number="217" name="217bmp" color="18" fill="1" visible="no" active="no"/>
<layer number="218" name="218bmp" color="19" fill="1" visible="no" active="no"/>
<layer number="219" name="219bmp" color="20" fill="1" visible="no" active="no"/>
<layer number="220" name="220bmp" color="21" fill="1" visible="no" active="no"/>
<layer number="221" name="221bmp" color="22" fill="1" visible="no" active="no"/>
<layer number="222" name="222bmp" color="23" fill="1" visible="no" active="no"/>
<layer number="223" name="223bmp" color="24" fill="1" visible="no" active="no"/>
<layer number="224" name="224bmp" color="25" fill="1" visible="no" active="no"/>
<layer number="225" name="225bmp" color="7" fill="1" visible="no" active="yes"/>
<layer number="226" name="226bmp" color="7" fill="1" visible="no" active="yes"/>
<layer number="227" name="227bmp" color="7" fill="1" visible="no" active="yes"/>
<layer number="228" name="228bmp" color="7" fill="1" visible="no" active="yes"/>
<layer number="229" name="229bmp" color="7" fill="1" visible="no" active="yes"/>
<layer number="230" name="230bmp" color="7" fill="1" visible="no" active="yes"/>
<layer number="231" name="231bmp" color="7" fill="1" visible="no" active="yes"/>
<layer number="232" name="Eagle3D_PG2" color="7" fill="1" visible="no" active="yes"/>
<layer number="233" name="Eagle3D_PG3" color="7" fill="1" visible="no" active="yes"/>
<layer number="248" name="Housing" color="7" fill="1" visible="no" active="yes"/>
<layer number="249" name="Edge" color="7" fill="1" visible="no" active="yes"/>
<layer number="250" name="Descript" color="3" fill="1" visible="no" active="no"/>
<layer number="251" name="SMDround" color="12" fill="11" visible="no" active="no"/>
<layer number="254" name="cooling" color="7" fill="1" visible="no" active="yes"/>
<layer number="255" name="routoute" color="7" fill="1" visible="no" active="yes"/>
</layers>
<board>
<plain>
<wire x1="0" y1="0" x2="43.231" y2="0" width="0" layer="20"/>
<wire x1="43.231" y1="0" x2="43.231" y2="65.395" width="0" layer="20"/>
<wire x1="43.231" y1="65.395" x2="0" y2="65.395" width="0" layer="20"/>
<wire x1="0" y1="65.395" x2="0" y2="0" width="0" layer="20"/>
</plain>
<libraries>
<library name="fab">
<packages>
<package name="C1206">
<description>&lt;b&gt;CAPACITOR&lt;/b&gt;</description>
<wire x1="-2.473" y1="0.983" x2="2.473" y2="0.983" width="0.0508" layer="39"/>
<wire x1="2.473" y1="-0.983" x2="-2.473" y2="-0.983" width="0.0508" layer="39"/>
<wire x1="-2.473" y1="-0.983" x2="-2.473" y2="0.983" width="0.0508" layer="39"/>
<wire x1="2.473" y1="0.983" x2="2.473" y2="-0.983" width="0.0508" layer="39"/>
<wire x1="-0.965" y1="0.787" x2="0.965" y2="0.787" width="0.1016" layer="51"/>
<wire x1="-0.965" y1="-0.787" x2="0.965" y2="-0.787" width="0.1016" layer="51"/>
<smd name="1" x="-1.4" y="0" dx="1.6" dy="1.8" layer="1"/>
<smd name="2" x="1.4" y="0" dx="1.6" dy="1.8" layer="1"/>
<text x="-1.27" y="1.27" size="1.27" layer="25">&gt;NAME</text>
<text x="-1.27" y="-2.54" size="1.27" layer="27">&gt;VALUE</text>
<rectangle x1="-1.7018" y1="-0.8509" x2="-0.9517" y2="0.8491" layer="51"/>
<rectangle x1="0.9517" y1="-0.8491" x2="1.7018" y2="0.8509" layer="51"/>
<rectangle x1="-0.1999" y1="-0.4001" x2="0.1999" y2="0.4001" layer="35"/>
</package>
<package name="SOD123">
<description>&lt;b&gt;SMALL OUTLINE DIODE&lt;/b&gt;</description>
<wire x1="-2.973" y1="0.983" x2="2.973" y2="0.983" width="0.0508" layer="39"/>
<wire x1="2.973" y1="-0.983" x2="-2.973" y2="-0.983" width="0.0508" layer="39"/>
<wire x1="-2.973" y1="-0.983" x2="-2.973" y2="0.983" width="0.0508" layer="39"/>
<wire x1="2.973" y1="0.983" x2="2.973" y2="-0.983" width="0.0508" layer="39"/>
<wire x1="-1.321" y1="0.787" x2="1.321" y2="0.787" width="0.1016" layer="51"/>
<wire x1="-1.321" y1="-0.787" x2="1.321" y2="-0.787" width="0.1016" layer="51"/>
<wire x1="-1.321" y1="-0.787" x2="-1.321" y2="0.787" width="0.1016" layer="51"/>
<wire x1="1.321" y1="-0.787" x2="1.321" y2="0.787" width="0.1016" layer="51"/>
<wire x1="-1" y1="0" x2="0" y2="0.5" width="0.2032" layer="51"/>
<wire x1="0" y1="0.5" x2="0" y2="-0.5" width="0.2032" layer="51"/>
<wire x1="0" y1="-0.5" x2="-1" y2="0" width="0.2032" layer="51"/>
<wire x1="-1" y1="0.5" x2="-1" y2="0" width="0.2032" layer="51"/>
<wire x1="-1" y1="0" x2="-1" y2="-0.5" width="0.2032" layer="51"/>
<smd name="CATHODE" x="-1.7" y="0" dx="1.6" dy="0.8" layer="1"/>
<smd name="ANODE" x="1.7" y="0" dx="1.6" dy="0.8" layer="1"/>
<text x="-1.905" y="1.905" size="1.27" layer="25">&gt;NAME</text>
<text x="-1.905" y="-3.175" size="1.27" layer="27">&gt;VALUE</text>
<rectangle x1="-1.9558" y1="-0.3048" x2="-1.3716" y2="0.3048" layer="51" rot="R180"/>
<rectangle x1="1.3716" y1="-0.3048" x2="1.9558" y2="0.3048" layer="51" rot="R180"/>
<rectangle x1="-0.4001" y1="-0.7" x2="0.4001" y2="0.7" layer="35"/>
<wire x1="-2.667" y1="0.889" x2="-2.667" y2="-0.889" width="0.127" layer="21"/>
<wire x1="-2.921" y1="0.889" x2="-2.921" y2="-0.889" width="0.127" layer="21"/>
<wire x1="-2.921" y1="-0.889" x2="2.794" y2="-0.889" width="0.127" layer="21"/>
<wire x1="2.794" y1="-0.889" x2="2.794" y2="0.889" width="0.127" layer="21"/>
<wire x1="2.794" y1="0.889" x2="-2.921" y2="0.889" width="0.127" layer="21"/>
</package>
<package name="SOT23">
<description>&lt;b&gt;SOT 23&lt;/b&gt;</description>
<wire x1="1.4224" y1="0.6604" x2="1.4224" y2="-0.6604" width="0.1524" layer="51"/>
<wire x1="1.4224" y1="-0.6604" x2="-1.4224" y2="-0.6604" width="0.1524" layer="51"/>
<wire x1="-1.4224" y1="-0.6604" x2="-1.4224" y2="0.6604" width="0.1524" layer="51"/>
<wire x1="-1.4224" y1="0.6604" x2="1.4224" y2="0.6604" width="0.1524" layer="51"/>
<wire x1="-1.4224" y1="-0.1524" x2="-1.4224" y2="0.6604" width="0.1524" layer="21"/>
<wire x1="-1.4224" y1="0.6604" x2="-0.8636" y2="0.6604" width="0.1524" layer="21"/>
<wire x1="1.4224" y1="0.6604" x2="1.4224" y2="-0.1524" width="0.1524" layer="21"/>
<wire x1="0.8636" y1="0.6604" x2="1.4224" y2="0.6604" width="0.1524" layer="21"/>
<smd name="3" x="0" y="1.1" dx="1" dy="1.4" layer="1"/>
<smd name="2" x="0.95" y="-1.1" dx="1" dy="1.4" layer="1"/>
<smd name="1" x="-0.95" y="-1.1" dx="1" dy="1.4" layer="1"/>
<text x="-1.905" y="1.905" size="1.27" layer="25">&gt;NAME</text>
<text x="-1.905" y="-3.175" size="1.27" layer="27">&gt;VALUE</text>
<rectangle x1="-0.2286" y1="0.7112" x2="0.2286" y2="1.2954" layer="51"/>
<rectangle x1="0.7112" y1="-1.2954" x2="1.1684" y2="-0.7112" layer="51"/>
<rectangle x1="-1.1684" y1="-1.2954" x2="-0.7112" y2="-0.7112" layer="51"/>
</package>
<package name="2X03SMD">
<smd name="1" x="-2.54" y="2.54" dx="2.54" dy="1.27" layer="1"/>
<smd name="3" x="-2.54" y="0" dx="2.54" dy="1.27" layer="1"/>
<smd name="5" x="-2.54" y="-2.54" dx="2.54" dy="1.27" layer="1"/>
<smd name="2" x="2.92" y="2.54" dx="2.54" dy="1.27" layer="1"/>
<smd name="4" x="2.92" y="0" dx="2.54" dy="1.27" layer="1"/>
<smd name="6" x="2.92" y="-2.54" dx="2.54" dy="1.27" layer="1"/>
<text x="-5.08" y="2.54" size="1.27" layer="27">1</text>
<text x="-3.81" y="3.81" size="1.27" layer="25">&gt;NAME</text>
<text x="-3.81" y="-5.08" size="1.27" layer="27">&gt;VALUE</text>
</package>
<package name="R1206FAB">
<wire x1="-2.032" y1="1.016" x2="2.032" y2="1.016" width="0.127" layer="21"/>
<wire x1="2.032" y1="1.016" x2="2.032" y2="-1.016" width="0.127" layer="21"/>
<wire x1="2.032" y1="-1.016" x2="-2.032" y2="-1.016" width="0.127" layer="21"/>
<wire x1="-2.032" y1="-1.016" x2="-2.032" y2="1.016" width="0.127" layer="21"/>
<smd name="1" x="-1.651" y="0" dx="1.27" dy="1.905" layer="1"/>
<smd name="2" x="1.651" y="0" dx="1.27" dy="1.905" layer="1"/>
<text x="-1.778" y="1.27" size="1.016" layer="25" ratio="15">&gt;NAME</text>
<text x="-1.778" y="-2.286" size="1.016" layer="27" ratio="15">&gt;VALUE</text>
</package>
<package name="6MM_SWITCH">
<description>&lt;b&gt;OMRON SWITCH&lt;/b&gt;</description>
<wire x1="3.302" y1="-0.762" x2="3.048" y2="-0.762" width="0.1524" layer="21"/>
<wire x1="3.302" y1="-0.762" x2="3.302" y2="0.762" width="0.1524" layer="21"/>
<wire x1="3.048" y1="0.762" x2="3.302" y2="0.762" width="0.1524" layer="21"/>
<wire x1="3.048" y1="1.016" x2="3.048" y2="2.54" width="0.1524" layer="51"/>
<wire x1="-3.302" y1="0.762" x2="-3.048" y2="0.762" width="0.1524" layer="21"/>
<wire x1="-3.302" y1="0.762" x2="-3.302" y2="-0.762" width="0.1524" layer="21"/>
<wire x1="-3.048" y1="-0.762" x2="-3.302" y2="-0.762" width="0.1524" layer="21"/>
<wire x1="3.048" y1="2.54" x2="2.54" y2="3.048" width="0.1524" layer="51"/>
<wire x1="2.54" y1="-3.048" x2="3.048" y2="-2.54" width="0.1524" layer="51"/>
<wire x1="3.048" y1="-2.54" x2="3.048" y2="-1.016" width="0.1524" layer="51"/>
<wire x1="-2.54" y1="3.048" x2="-3.048" y2="2.54" width="0.1524" layer="51"/>
<wire x1="-3.048" y1="2.54" x2="-3.048" y2="1.016" width="0.1524" layer="51"/>
<wire x1="-2.54" y1="-3.048" x2="-3.048" y2="-2.54" width="0.1524" layer="51"/>
<wire x1="-3.048" y1="-2.54" x2="-3.048" y2="-1.016" width="0.1524" layer="51"/>
<wire x1="-1.27" y1="1.27" x2="-1.27" y2="-1.27" width="0.0508" layer="51"/>
<wire x1="1.27" y1="-1.27" x2="-1.27" y2="-1.27" width="0.0508" layer="51"/>
<wire x1="1.27" y1="-1.27" x2="1.27" y2="1.27" width="0.0508" layer="51"/>
<wire x1="-1.27" y1="1.27" x2="1.27" y2="1.27" width="0.0508" layer="51"/>
<wire x1="-1.27" y1="3.048" x2="-1.27" y2="2.794" width="0.0508" layer="21"/>
<wire x1="1.27" y1="2.794" x2="-1.27" y2="2.794" width="0.0508" layer="21"/>
<wire x1="1.27" y1="2.794" x2="1.27" y2="3.048" width="0.0508" layer="21"/>
<wire x1="1.143" y1="-2.794" x2="-1.27" y2="-2.794" width="0.0508" layer="21"/>
<wire x1="1.143" y1="-2.794" x2="1.143" y2="-3.048" width="0.0508" layer="21"/>
<wire x1="-1.27" y1="-2.794" x2="-1.27" y2="-3.048" width="0.0508" layer="21"/>
<wire x1="2.54" y1="-3.048" x2="2.159" y2="-3.048" width="0.1524" layer="51"/>
<wire x1="-2.54" y1="-3.048" x2="-2.159" y2="-3.048" width="0.1524" layer="51"/>
<wire x1="-2.159" y1="-3.048" x2="-1.27" y2="-3.048" width="0.1524" layer="21"/>
<wire x1="-2.54" y1="3.048" x2="-2.159" y2="3.048" width="0.1524" layer="51"/>
<wire x1="2.54" y1="3.048" x2="2.159" y2="3.048" width="0.1524" layer="51"/>
<wire x1="2.159" y1="3.048" x2="1.27" y2="3.048" width="0.1524" layer="21"/>
<wire x1="1.27" y1="3.048" x2="-1.27" y2="3.048" width="0.1524" layer="21"/>
<wire x1="-1.27" y1="3.048" x2="-2.159" y2="3.048" width="0.1524" layer="21"/>
<wire x1="-1.27" y1="-3.048" x2="1.143" y2="-3.048" width="0.1524" layer="21"/>
<wire x1="1.143" y1="-3.048" x2="2.159" y2="-3.048" width="0.1524" layer="21"/>
<wire x1="3.048" y1="-0.762" x2="3.048" y2="-1.016" width="0.1524" layer="21"/>
<wire x1="3.048" y1="0.762" x2="3.048" y2="1.016" width="0.1524" layer="21"/>
<wire x1="-3.048" y1="-0.762" x2="-3.048" y2="-1.016" width="0.1524" layer="21"/>
<wire x1="-3.048" y1="0.762" x2="-3.048" y2="1.016" width="0.1524" layer="21"/>
<wire x1="-1.27" y1="-2.159" x2="1.27" y2="-2.159" width="0.1524" layer="51"/>
<wire x1="1.27" y1="2.286" x2="-1.27" y2="2.286" width="0.1524" layer="51"/>
<wire x1="-2.413" y1="1.27" x2="-2.413" y2="0.508" width="0.1524" layer="51"/>
<wire x1="-2.413" y1="-0.508" x2="-2.413" y2="-1.27" width="0.1524" layer="51"/>
<wire x1="-2.413" y1="0.508" x2="-2.159" y2="-0.381" width="0.1524" layer="51"/>
<circle x="0" y="0" radius="1.778" width="0.1524" layer="21"/>
<circle x="-2.159" y="-2.159" radius="0.508" width="0.1524" layer="51"/>
<circle x="2.159" y="-2.032" radius="0.508" width="0.1524" layer="51"/>
<circle x="2.159" y="2.159" radius="0.508" width="0.1524" layer="51"/>
<circle x="-2.159" y="2.159" radius="0.508" width="0.1524" layer="51"/>
<circle x="0" y="0" radius="0.635" width="0.0508" layer="51"/>
<circle x="0" y="0" radius="0.254" width="0.1524" layer="21"/>
<smd name="1" x="-3.302" y="2.286" dx="2.286" dy="1.524" layer="1"/>
<smd name="2" x="3.302" y="2.286" dx="2.286" dy="1.524" layer="1"/>
<smd name="3" x="-3.302" y="-2.286" dx="2.286" dy="1.524" layer="1"/>
<smd name="4" x="3.302" y="-2.286" dx="2.286" dy="1.524" layer="1"/>
<text x="-3.048" y="3.683" size="1.27" layer="25" ratio="10">&gt;NAME</text>
<text x="-3.048" y="-5.08" size="1.27" layer="27" ratio="10">&gt;VALUE</text>
<text x="-4.318" y="1.651" size="1.27" layer="51" ratio="10">1</text>
<text x="3.556" y="1.524" size="1.27" layer="51" ratio="10">2</text>
<text x="-4.572" y="-2.794" size="1.27" layer="51" ratio="10">3</text>
<text x="3.556" y="-2.794" size="1.27" layer="51" ratio="10">4</text>
</package>
<package name="USB_MINIB">
<wire x1="-0.03" y1="3.8" x2="2.07" y2="3.8" width="0.2032" layer="21"/>
<wire x1="4.57" y1="3.1" x2="4.57" y2="2.2" width="0.2032" layer="21"/>
<wire x1="4.57" y1="-2.2" x2="4.57" y2="-3.1" width="0.2032" layer="21"/>
<wire x1="2.07" y1="-3.8" x2="-0.03" y2="-3.8" width="0.2032" layer="21"/>
<wire x1="-4.63" y1="3.8" x2="-4.63" y2="-3.8" width="0.2032" layer="51"/>
<wire x1="-4.63" y1="-3.8" x2="-3.23" y2="-3.8" width="0.2032" layer="51"/>
<wire x1="-4.63" y1="3.8" x2="-3.23" y2="3.8" width="0.2032" layer="51"/>
<smd name="D+" x="3.77" y="0" dx="2.5" dy="0.35" layer="1"/>
<smd name="D-" x="3.77" y="0.8" dx="2.5" dy="0.35" layer="1"/>
<smd name="GND" x="3.77" y="-1.6" dx="2.5" dy="0.35" layer="1"/>
<smd name="ID" x="3.77" y="-0.8" dx="2.5" dy="0.35" layer="1"/>
<smd name="SHIELD@1" x="-1.73" y="-4.5" dx="2.5" dy="2" layer="1"/>
<smd name="SHIELD@2" x="-1.73" y="4.5" dx="2.5" dy="2" layer="1"/>
<smd name="SHIELD@4" x="3.77" y="-4.5" dx="2.5" dy="2" layer="1"/>
<smd name="SHIELD@3" x="3.77" y="4.5" dx="2.5" dy="2" layer="1"/>
<smd name="VBUS" x="3.77" y="1.6" dx="2.5" dy="0.35" layer="1"/>
<text x="-2.54" y="1.27" size="0.4064" layer="25">&gt;NAME</text>
<text x="-2.54" y="0" size="0.4064" layer="27">&gt;VALUE</text>
</package>
<package name="SOIC8_PAD">
<description>&lt;B&gt;Wide Plastic Gull Wing Small Outline Package&lt;/B&gt;</description>
<wire x1="-2.6" y1="2.25" x2="-2.35" y2="2.5" width="0.1524" layer="21" curve="-90" cap="flat"/>
<wire x1="2.35" y1="2.5" x2="2.6" y2="2.25" width="0.1524" layer="21" curve="-90"/>
<wire x1="2.35" y1="-2.5" x2="2.6" y2="-2.25" width="0.1524" layer="21" curve="90" cap="flat"/>
<wire x1="-2.6" y1="-2.25" x2="-2.35" y2="-2.5" width="0.1524" layer="21" curve="90" cap="flat"/>
<wire x1="2.36" y1="-2.5" x2="-2.34" y2="-2.5" width="0.1524" layer="51"/>
<wire x1="-2.34" y1="2.5" x2="2.36" y2="2.5" width="0.1524" layer="51"/>
<wire x1="-2.21" y1="2.5" x2="-2.34" y2="2.5" width="0.1524" layer="21"/>
<wire x1="-1.59" y1="2.5" x2="-0.95" y2="2.5" width="0.1524" layer="21"/>
<wire x1="-0.32" y1="2.5" x2="0.32" y2="2.5" width="0.1524" layer="21"/>
<wire x1="0.95" y1="2.5" x2="1.59" y2="2.5" width="0.1524" layer="21"/>
<wire x1="2.21" y1="2.5" x2="2.36" y2="2.5" width="0.1524" layer="21"/>
<wire x1="2.2" y1="-2.5" x2="2.33" y2="-2.5" width="0.1524" layer="21"/>
<wire x1="1.59" y1="-2.5" x2="0.94" y2="-2.5" width="0.1524" layer="21"/>
<wire x1="0.32" y1="-2.5" x2="-0.33" y2="-2.5" width="0.1524" layer="21"/>
<wire x1="-0.95" y1="-2.5" x2="-1.59" y2="-2.5" width="0.1524" layer="21"/>
<wire x1="-2.21" y1="-2.5" x2="-2.34" y2="-2.5" width="0.1524" layer="21"/>
<wire x1="-2.6" y1="2.25" x2="-2.6" y2="-2.24" width="0.1524" layer="21"/>
<wire x1="2.6" y1="-2.25" x2="2.6" y2="2.25" width="0.1524" layer="21"/>
<circle x="-1.42" y="-1.115" radius="0.5" width="0.0508" layer="21"/>
<smd name="1" x="-1.905" y="-3.154" dx="0.5" dy="2.2" layer="1"/>
<smd name="2" x="-0.645" y="-3.154" dx="0.5" dy="2.2" layer="1"/>
<smd name="3" x="0.625" y="-3.154" dx="0.5" dy="2.2" layer="1"/>
<smd name="4" x="1.895" y="-3.154" dx="0.5" dy="2.2" layer="1"/>
<smd name="8" x="-1.905" y="3.154" dx="0.5" dy="2.2" layer="1"/>
<smd name="7" x="-0.635" y="3.154" dx="0.5" dy="2.2" layer="1"/>
<smd name="6" x="0.635" y="3.154" dx="0.5" dy="2.2" layer="1"/>
<smd name="5" x="1.905" y="3.154" dx="0.5" dy="2.2" layer="1"/>
<text x="-2.8575" y="-2.159" size="1.27" layer="25" ratio="10" rot="R90">&gt;NAME</text>
<text x="4.064" y="-2.159" size="1.27" layer="27" ratio="10" rot="R90">&gt;VALUE</text>
<rectangle x1="-2.08" y1="2.5" x2="-1.73" y2="3.4" layer="51"/>
<rectangle x1="-0.81" y1="2.5" x2="-0.46" y2="3.4" layer="51"/>
<rectangle x1="0.46" y1="2.5" x2="0.81" y2="3.4" layer="51"/>
<rectangle x1="1.73" y1="2.5" x2="2.08" y2="3.4" layer="51"/>
<rectangle x1="1.72" y1="-3.4" x2="2.07" y2="-2.5" layer="51"/>
<rectangle x1="0.45" y1="-3.4" x2="0.8" y2="-2.5" layer="51"/>
<rectangle x1="-0.82" y1="-3.4" x2="-0.47" y2="-2.5" layer="51"/>
<rectangle x1="-2.08" y1="-3.4" x2="-1.73" y2="-2.5" layer="51"/>
<smd name="GND" x="0" y="0" dx="3.8862" dy="2.9972" layer="1" thermals="no"/>
</package>
</packages>
</library>
<library name="rcl" urn="urn:adsk.eagle:library:334">
<description>&lt;b&gt;Resistors, Capacitors, Inductors&lt;/b&gt;&lt;p&gt;
Based on the previous libraries:
&lt;ul&gt;
&lt;li&gt;r.lbr
&lt;li&gt;cap.lbr 
&lt;li&gt;cap-fe.lbr
&lt;li&gt;captant.lbr
&lt;li&gt;polcap.lbr
&lt;li&gt;ipc-smd.lbr
&lt;/ul&gt;
All SMD packages are defined according to the IPC specifications and  CECC&lt;p&gt;
&lt;author&gt;Created by librarian@cadsoft.de&lt;/author&gt;&lt;p&gt;
&lt;p&gt;
for Electrolyt Capacitors see also :&lt;p&gt;
www.bccomponents.com &lt;p&gt;
www.panasonic.com&lt;p&gt;
www.kemet.com&lt;p&gt;
http://www.secc.co.jp/pdf/os_e/2004/e_os_all.pdf &lt;b&gt;(SANYO)&lt;/b&gt;
&lt;p&gt;
for trimmer refence see : &lt;u&gt;www.electrospec-inc.com/cross_references/trimpotcrossref.asp&lt;/u&gt;&lt;p&gt;

&lt;table border=0 cellspacing=0 cellpadding=0 width="100%" cellpaddding=0&gt;
&lt;tr valign="top"&gt;

&lt;! &lt;td width="10"&gt;&amp;nbsp;&lt;/td&gt;
&lt;td width="90%"&gt;

&lt;b&gt;&lt;font color="#0000FF" size="4"&gt;TRIM-POT CROSS REFERENCE&lt;/font&gt;&lt;/b&gt;
&lt;P&gt;
&lt;TABLE BORDER=0 CELLSPACING=1 CELLPADDING=2&gt;
  &lt;TR&gt;
    &lt;TD COLSPAN=8&gt;
      &lt;FONT SIZE=3 FACE=ARIAL&gt;&lt;B&gt;RECTANGULAR MULTI-TURN&lt;/B&gt;&lt;/FONT&gt;
    &lt;/TD&gt;
  &lt;/TR&gt;
  &lt;TR&gt;
    &lt;TD ALIGN=CENTER&gt;
      &lt;B&gt;
      &lt;FONT SIZE=3 FACE=ARIAL color="#FF0000"&gt;BOURNS&lt;/FONT&gt;
      &lt;/B&gt;
    &lt;/TD&gt;
    &lt;TD ALIGN=CENTER&gt;
      &lt;B&gt;
      &lt;FONT SIZE=3 FACE=ARIAL color="#FF0000"&gt;BI&amp;nbsp;TECH&lt;/FONT&gt;
      &lt;/B&gt;
    &lt;/TD&gt;
    &lt;TD ALIGN=CENTER&gt;
      &lt;B&gt;
      &lt;FONT SIZE=3 FACE=ARIAL color="#FF0000"&gt;DALE-VISHAY&lt;/FONT&gt;
      &lt;/B&gt;
    &lt;/TD&gt;
    &lt;TD ALIGN=CENTER&gt;
      &lt;B&gt;
      &lt;FONT SIZE=3 FACE=ARIAL color="#FF0000"&gt;PHILIPS/MEPCO&lt;/FONT&gt;
      &lt;/B&gt;
    &lt;/TD&gt;
    &lt;TD ALIGN=CENTER&gt;
      &lt;B&gt;
      &lt;FONT SIZE=3 FACE=ARIAL color="#FF0000"&gt;MURATA&lt;/FONT&gt;
      &lt;/B&gt;
    &lt;/TD&gt;
    &lt;TD ALIGN=CENTER&gt;
      &lt;B&gt;
      &lt;FONT SIZE=3 FACE=ARIAL color="#FF0000"&gt;PANASONIC&lt;/FONT&gt;
      &lt;/B&gt;
    &lt;/TD&gt;
    &lt;TD ALIGN=CENTER&gt;
      &lt;B&gt;
      &lt;FONT SIZE=3 FACE=ARIAL color="#FF0000"&gt;SPECTROL&lt;/FONT&gt;
      &lt;/B&gt;
    &lt;/TD&gt;
    &lt;TD ALIGN=CENTER&gt;
      &lt;B&gt;
      &lt;FONT SIZE=3 FACE=ARIAL color="#FF0000"&gt;MILSPEC&lt;/FONT&gt;
      &lt;/B&gt;
    &lt;/TD&gt;&lt;TD&gt;&amp;nbsp;&lt;/TD&gt;
  &lt;/TR&gt;
  &lt;TR&gt;
    &lt;TD BGCOLOR="#cccccc" ALIGN=CENTER&gt;&lt;FONT FACE=ARIAL SIZE=3 &gt;
      3005P&lt;BR&gt;
      3006P&lt;BR&gt;
      3006W&lt;BR&gt;
      3006Y&lt;BR&gt;
      3009P&lt;BR&gt;
      3009W&lt;BR&gt;
      3009Y&lt;BR&gt;
      3057J&lt;BR&gt;
      3057L&lt;BR&gt;
      3057P&lt;BR&gt;
      3057Y&lt;BR&gt;
      3059J&lt;BR&gt;
      3059L&lt;BR&gt;
      3059P&lt;BR&gt;
      3059Y&lt;BR&gt;&lt;/FONT&gt;
    &lt;/TD&gt;
    &lt;TD BGCOLOR="#cccccc" ALIGN=CENTER&gt;&lt;FONT FACE=ARIAL SIZE=3&gt;
      -&lt;BR&gt;
      89P&lt;BR&gt;
      89W&lt;BR&gt;
      89X&lt;BR&gt;
      89PH&lt;BR&gt;
      76P&lt;BR&gt;
      89XH&lt;BR&gt;
      78SLT&lt;BR&gt;
      78L&amp;nbsp;ALT&lt;BR&gt;
      56P&amp;nbsp;ALT&lt;BR&gt;
      78P&amp;nbsp;ALT&lt;BR&gt;
      T8S&lt;BR&gt;
      78L&lt;BR&gt;
      56P&lt;BR&gt;
      78P&lt;BR&gt;&lt;/FONT&gt;
    &lt;/TD&gt;
    &lt;TD BGCOLOR="#cccccc" ALIGN=CENTER&gt;&lt;FONT FACE=ARIAL SIZE=3&gt;
      -&lt;BR&gt;
      T18/784&lt;BR&gt;
      783&lt;BR&gt;
      781&lt;BR&gt;
      -&lt;BR&gt;
      -&lt;BR&gt;
      -&lt;BR&gt;
      2199&lt;BR&gt;
      1697/1897&lt;BR&gt;
      1680/1880&lt;BR&gt;
      2187&lt;BR&gt;
      -&lt;BR&gt;
      -&lt;BR&gt;
      -&lt;BR&gt;
      -&lt;BR&gt;&lt;/FONT&gt;
    &lt;/TD&gt;
    &lt;TD BGCOLOR="#cccccc" ALIGN=CENTER&gt;&lt;FONT FACE=ARIAL SIZE=3&gt;
      -&lt;BR&gt;
      8035EKP/CT20/RJ-20P&lt;BR&gt;
      -&lt;BR&gt;
      RJ-20X&lt;BR&gt;
      -&lt;BR&gt;
      -&lt;BR&gt;
      -&lt;BR&gt;
      1211L&lt;BR&gt;
      8012EKQ&amp;nbsp;ALT&lt;BR&gt;
      8012EKR&amp;nbsp;ALT&lt;BR&gt;
      1211P&lt;BR&gt;
      8012EKJ&lt;BR&gt;
      8012EKL&lt;BR&gt;
      8012EKQ&lt;BR&gt;
      8012EKR&lt;BR&gt;&lt;/FONT&gt;
    &lt;/TD&gt;
    &lt;TD BGCOLOR="#cccccc" ALIGN=CENTER&gt;&lt;FONT FACE=ARIAL SIZE=3&gt;
      -&lt;BR&gt;
      2101P&lt;BR&gt;
      2101W&lt;BR&gt;
      2101Y&lt;BR&gt;
      -&lt;BR&gt;
      -&lt;BR&gt;
      -&lt;BR&gt;
      -&lt;BR&gt;
      -&lt;BR&gt;
      -&lt;BR&gt;
      -&lt;BR&gt;
      -&lt;BR&gt;
      2102L&lt;BR&gt;
      2102S&lt;BR&gt;
      2102Y&lt;BR&gt;&lt;/FONT&gt;
    &lt;/TD&gt;
    &lt;TD BGCOLOR="#cccccc" ALIGN=CENTER&gt;&lt;FONT FACE=ARIAL SIZE=3&gt;
      -&lt;BR&gt;
      EVMCOG&lt;BR&gt;
      -&lt;BR&gt;
      -&lt;BR&gt;
      -&lt;BR&gt;
      -&lt;BR&gt;
      -&lt;BR&gt;
      -&lt;BR&gt;
      -&lt;BR&gt;
      -&lt;BR&gt;
      -&lt;BR&gt;
      -&lt;BR&gt;
      -&lt;BR&gt;
      -&lt;BR&gt;
      -&lt;BR&gt;&lt;/FONT&gt;
    &lt;/TD&gt;
    &lt;TD BGCOLOR="#cccccc" ALIGN=CENTER&gt;&lt;FONT FACE=ARIAL SIZE=3&gt;
      -&lt;BR&gt;
      43P&lt;BR&gt;
      43W&lt;BR&gt;
      43Y&lt;BR&gt;
      -&lt;BR&gt;
      -&lt;BR&gt;
      -&lt;BR&gt;
      -&lt;BR&gt;
      40L&lt;BR&gt;
      40P&lt;BR&gt;
      40Y&lt;BR&gt;
      70Y-T602&lt;BR&gt;
      70L&lt;BR&gt;
      70P&lt;BR&gt;
      70Y&lt;BR&gt;&lt;/FONT&gt;
    &lt;/TD&gt;
    &lt;TD BGCOLOR="#cccccc" ALIGN=CENTER&gt;&lt;FONT FACE=ARIAL SIZE=3&gt;
      -&lt;BR&gt;
      -&lt;BR&gt;
      -&lt;BR&gt;
      -&lt;BR&gt;
      -&lt;BR&gt;
      -&lt;BR&gt;
      -&lt;BR&gt;
      -&lt;BR&gt;
      RT/RTR12&lt;BR&gt;
      RT/RTR12&lt;BR&gt;
      RT/RTR12&lt;BR&gt;
      -&lt;BR&gt;
      RJ/RJR12&lt;BR&gt;
      RJ/RJR12&lt;BR&gt;
      RJ/RJR12&lt;BR&gt;&lt;/FONT&gt;
    &lt;/TD&gt;
  &lt;/TR&gt;
  &lt;TR&gt;
    &lt;TD COLSPAN=8&gt;&amp;nbsp;
    &lt;/TD&gt;
  &lt;/TR&gt;
  &lt;TR&gt;
    &lt;TD COLSPAN=8&gt;
      &lt;FONT SIZE=4 FACE=ARIAL&gt;&lt;B&gt;SQUARE MULTI-TURN&lt;/B&gt;&lt;/FONT&gt;
    &lt;/TD&gt;
  &lt;/TR&gt;
  &lt;TR&gt;
   &lt;TD ALIGN=CENTER&gt;
      &lt;FONT SIZE=3 FACE=ARIAL&gt;&lt;B&gt;BOURN&lt;/B&gt;&lt;/FONT&gt;
    &lt;/TD&gt;
    &lt;TD ALIGN=CENTER&gt;
      &lt;FONT SIZE=3 FACE=ARIAL&gt;&lt;B&gt;BI&amp;nbsp;TECH&lt;/B&gt;&lt;/FONT&gt;
    &lt;/TD&gt;
    &lt;TD ALIGN=CENTER&gt;
      &lt;FONT SIZE=3 FACE=ARIAL&gt;&lt;B&gt;DALE-VISHAY&lt;/B&gt;&lt;/FONT&gt;
    &lt;/TD&gt;
    &lt;TD ALIGN=CENTER&gt;
      &lt;FONT SIZE=3 FACE=ARIAL&gt;&lt;B&gt;PHILIPS/MEPCO&lt;/B&gt;&lt;/FONT&gt;
    &lt;/TD&gt;
    &lt;TD ALIGN=CENTER&gt;
      &lt;FONT SIZE=3 FACE=ARIAL&gt;&lt;B&gt;MURATA&lt;/B&gt;&lt;/FONT&gt;
    &lt;/TD&gt;
    &lt;TD ALIGN=CENTER&gt;
      &lt;FONT SIZE=3 FACE=ARIAL&gt;&lt;B&gt;PANASONIC&lt;/B&gt;&lt;/FONT&gt;
    &lt;/TD&gt;
    &lt;TD ALIGN=CENTER&gt;
      &lt;FONT SIZE=3 FACE=ARIAL&gt;&lt;B&gt;SPECTROL&lt;/B&gt;&lt;/FONT&gt;
    &lt;/TD&gt;
    &lt;TD ALIGN=CENTER&gt;
      &lt;FONT SIZE=3 FACE=ARIAL&gt;&lt;B&gt;MILSPEC&lt;/B&gt;&lt;/FONT&gt;
    &lt;/TD&gt;
  &lt;/TR&gt;
  &lt;TR&gt;
    &lt;TD BGCOLOR="#cccccc" ALIGN=CENTER&gt;&lt;FONT FACE=ARIAL SIZE=3&gt;
      3250L&lt;BR&gt;
      3250P&lt;BR&gt;
      3250W&lt;BR&gt;
      3250X&lt;BR&gt;
      3252P&lt;BR&gt;
      3252W&lt;BR&gt;
      3252X&lt;BR&gt;
      3260P&lt;BR&gt;
      3260W&lt;BR&gt;
      3260X&lt;BR&gt;
      3262P&lt;BR&gt;
      3262W&lt;BR&gt;
      3262X&lt;BR&gt;
      3266P&lt;BR&gt;
      3266W&lt;BR&gt;
      3266X&lt;BR&gt;
      3290H&lt;BR&gt;
      3290P&lt;BR&gt;
      3290W&lt;BR&gt;
      3292P&lt;BR&gt;
      3292W&lt;BR&gt;
      3292X&lt;BR&gt;
      3296P&lt;BR&gt;
      3296W&lt;BR&gt;
      3296X&lt;BR&gt;
      3296Y&lt;BR&gt;
      3296Z&lt;BR&gt;
      3299P&lt;BR&gt;
      3299W&lt;BR&gt;
      3299X&lt;BR&gt;
      3299Y&lt;BR&gt;
      3299Z&lt;BR&gt;&lt;/FONT&gt;
    &lt;/TD&gt;
    &lt;TD BGCOLOR="#cccccc" ALIGN=CENTER&gt;&lt;FONT FACE=ARIAL SIZE=3&gt;
      -&lt;BR&gt;
      66P&amp;nbsp;ALT&lt;BR&gt;
      66W&amp;nbsp;ALT&lt;BR&gt;
      66X&amp;nbsp;ALT&lt;BR&gt;
      66P&amp;nbsp;ALT&lt;BR&gt;
      66W&amp;nbsp;ALT&lt;BR&gt;
      66X&amp;nbsp;ALT&lt;BR&gt;
      -&lt;BR&gt;
      64W&amp;nbsp;ALT&lt;BR&gt;
      -&lt;BR&gt;
      64P&amp;nbsp;ALT&lt;BR&gt;
      64W&amp;nbsp;ALT&lt;BR&gt;
      64X&amp;nbsp;ALT&lt;BR&gt;
      64P&lt;BR&gt;
      64W&lt;BR&gt;
      64X&lt;BR&gt;
      66X&amp;nbsp;ALT&lt;BR&gt;
      66P&amp;nbsp;ALT&lt;BR&gt;
      66W&amp;nbsp;ALT&lt;BR&gt;
      66P&lt;BR&gt;
      66W&lt;BR&gt;
      66X&lt;BR&gt;
      67P&lt;BR&gt;
      67W&lt;BR&gt;
      67X&lt;BR&gt;
      67Y&lt;BR&gt;
      67Z&lt;BR&gt;
      68P&lt;BR&gt;
      68W&lt;BR&gt;
      68X&lt;BR&gt;
      67Y&amp;nbsp;ALT&lt;BR&gt;
      67Z&amp;nbsp;ALT&lt;BR&gt;&lt;/FONT&gt;
    &lt;/TD&gt;
    &lt;TD BGCOLOR="#cccccc" ALIGN=CENTER&gt;&lt;FONT FACE=ARIAL SIZE=3&gt;
      5050&lt;BR&gt;
      5091&lt;BR&gt;
      5080&lt;BR&gt;
      5087&lt;BR&gt;
      -&lt;BR&gt;
      -&lt;BR&gt;
      -&lt;BR&gt;
      -&lt;BR&gt;
      -&lt;BR&gt;
      -&lt;BR&gt;
      -&lt;BR&gt;
      T63YB&lt;BR&gt;
      T63XB&lt;BR&gt;
      -&lt;BR&gt;
      -&lt;BR&gt;
      -&lt;BR&gt;
      5887&lt;BR&gt;
      5891&lt;BR&gt;
      5880&lt;BR&gt;
      -&lt;BR&gt;
      -&lt;BR&gt;
      -&lt;BR&gt;
      T93Z&lt;BR&gt;
      T93YA&lt;BR&gt;
      T93XA&lt;BR&gt;
      T93YB&lt;BR&gt;
      T93XB&lt;BR&gt;
      -&lt;BR&gt;
      -&lt;BR&gt;
      -&lt;BR&gt;
      -&lt;BR&gt;
      -&lt;BR&gt;&lt;/FONT&gt;
    &lt;/TD&gt;
    &lt;TD BGCOLOR="#cccccc" ALIGN=CENTER&gt;&lt;FONT FACE=ARIAL SIZE=3&gt;
      -&lt;BR&gt;
      -&lt;BR&gt;
      -&lt;BR&gt;
      -&lt;BR&gt;
      -&lt;BR&gt;
      -&lt;BR&gt;
      -&lt;BR&gt;
      -&lt;BR&gt;
      -&lt;BR&gt;
      -&lt;BR&gt;
      8026EKP&lt;BR&gt;
      8026EKW&lt;BR&gt;
      8026EKM&lt;BR&gt;
      8026EKP&lt;BR&gt;
      8026EKB&lt;BR&gt;
      8026EKM&lt;BR&gt;
      1309X&lt;BR&gt;
      1309P&lt;BR&gt;
      1309W&lt;BR&gt;
      8024EKP&lt;BR&gt;
      8024EKW&lt;BR&gt;
      8024EKN&lt;BR&gt;
      RJ-9P/CT9P&lt;BR&gt;
      RJ-9W&lt;BR&gt;
      RJ-9X&lt;BR&gt;
      -&lt;BR&gt;
      -&lt;BR&gt;
      -&lt;BR&gt;
      -&lt;BR&gt;
      -&lt;BR&gt;
      -&lt;BR&gt;
      -&lt;BR&gt;&lt;/FONT&gt;
    &lt;/TD&gt;
    &lt;TD BGCOLOR="#cccccc" ALIGN=CENTER&gt;&lt;FONT FACE=ARIAL SIZE=3&gt;
      -&lt;BR&gt;
      -&lt;BR&gt;
      -&lt;BR&gt;
      -&lt;BR&gt;
      -&lt;BR&gt;
      -&lt;BR&gt;
      -&lt;BR&gt;
      -&lt;BR&gt;
      -&lt;BR&gt;
      -&lt;BR&gt;
      3103P&lt;BR&gt;
      3103Y&lt;BR&gt;
      3103Z&lt;BR&gt;
      3103P&lt;BR&gt;
      3103Y&lt;BR&gt;
      3103Z&lt;BR&gt;
      -&lt;BR&gt;
      -&lt;BR&gt;
      -&lt;BR&gt;
      -&lt;BR&gt;
      -&lt;BR&gt;
      -&lt;BR&gt;
      3105P/3106P&lt;BR&gt;
      3105W/3106W&lt;BR&gt;
      3105X/3106X&lt;BR&gt;
      3105Y/3106Y&lt;BR&gt;
      3105Z/3105Z&lt;BR&gt;
      3102P&lt;BR&gt;
      3102W&lt;BR&gt;
      3102X&lt;BR&gt;
      3102Y&lt;BR&gt;
      3102Z&lt;BR&gt;&lt;/FONT&gt;
    &lt;/TD&gt;
    &lt;TD BGCOLOR="#cccccc" ALIGN=CENTER&gt;&lt;FONT FACE=ARIAL SIZE=3&gt;
      -&lt;BR&gt;
      -&lt;BR&gt;
      -&lt;BR&gt;
      -&lt;BR&gt;
      -&lt;BR&gt;
      -&lt;BR&gt;
      -&lt;BR&gt;
      -&lt;BR&gt;
      -&lt;BR&gt;
      -&lt;BR&gt;
      -&lt;BR&gt;
      -&lt;BR&gt;
      -&lt;BR&gt;
      -&lt;BR&gt;
      -&lt;BR&gt;
      -&lt;BR&gt;
      -&lt;BR&gt;
      -&lt;BR&gt;
      -&lt;BR&gt;
      -&lt;BR&gt;
      -&lt;BR&gt;
      -&lt;BR&gt;
      EVMCBG&lt;BR&gt;
      EVMCCG&lt;BR&gt;
      -&lt;BR&gt;
      -&lt;BR&gt;
      -&lt;BR&gt;
      -&lt;BR&gt;
      -&lt;BR&gt;
      -&lt;BR&gt;
      -&lt;BR&gt;
      -&lt;BR&gt;&lt;/FONT&gt;
    &lt;/TD&gt;
    &lt;TD BGCOLOR="#cccccc" ALIGN=CENTER&gt;&lt;FONT FACE=ARIAL SIZE=3&gt;
      55-1-X&lt;BR&gt;
      55-4-X&lt;BR&gt;
      55-3-X&lt;BR&gt;
      55-2-X&lt;BR&gt;
      -&lt;BR&gt;
      -&lt;BR&gt;
      -&lt;BR&gt;
      -&lt;BR&gt;
      -&lt;BR&gt;
      -&lt;BR&gt;
      -&lt;BR&gt;
      -&lt;BR&gt;
      -&lt;BR&gt;
      -&lt;BR&gt;
      -&lt;BR&gt;
      -&lt;BR&gt;
      50-2-X&lt;BR&gt;
      50-4-X&lt;BR&gt;
      50-3-X&lt;BR&gt;
      -&lt;BR&gt;
      -&lt;BR&gt;
      -&lt;BR&gt;
      64P&lt;BR&gt;
      64W&lt;BR&gt;
      64X&lt;BR&gt;
      64Y&lt;BR&gt;
      64Z&lt;BR&gt;
      -&lt;BR&gt;
      -&lt;BR&gt;
      -&lt;BR&gt;
      -&lt;BR&gt;
      -&lt;BR&gt;&lt;/FONT&gt;
    &lt;/TD&gt;
    &lt;TD BGCOLOR="#cccccc" ALIGN=CENTER&gt;&lt;FONT FACE=ARIAL SIZE=3&gt;
      RT/RTR22&lt;BR&gt;
      RT/RTR22&lt;BR&gt;
      RT/RTR22&lt;BR&gt;
      RT/RTR22&lt;BR&gt;
      RJ/RJR22&lt;BR&gt;
      RJ/RJR22&lt;BR&gt;
      RJ/RJR22&lt;BR&gt;
      RT/RTR26&lt;BR&gt;
      RT/RTR26&lt;BR&gt;
      RT/RTR26&lt;BR&gt;
      RJ/RJR26&lt;BR&gt;
      RJ/RJR26&lt;BR&gt;
      RJ/RJR26&lt;BR&gt;
      RJ/RJR26&lt;BR&gt;
      RJ/RJR26&lt;BR&gt;
      RJ/RJR26&lt;BR&gt;
      RT/RTR24&lt;BR&gt;
      RT/RTR24&lt;BR&gt;
      RT/RTR24&lt;BR&gt;
      RJ/RJR24&lt;BR&gt;
      RJ/RJR24&lt;BR&gt;
      RJ/RJR24&lt;BR&gt;
      RJ/RJR24&lt;BR&gt;
      RJ/RJR24&lt;BR&gt;
      RJ/RJR24&lt;BR&gt;
      -&lt;BR&gt;
      -&lt;BR&gt;
      -&lt;BR&gt;
      -&lt;BR&gt;
      -&lt;BR&gt;
      -&lt;BR&gt;
      -&lt;BR&gt;&lt;/FONT&gt;
    &lt;/TD&gt;
  &lt;/TR&gt;
  &lt;TR&gt;
    &lt;TD COLSPAN=8&gt;&amp;nbsp;
    &lt;/TD&gt;
  &lt;/TR&gt;
  &lt;TR&gt;
    &lt;TD COLSPAN=8&gt;
      &lt;FONT SIZE=4 FACE=ARIAL&gt;&lt;B&gt;SINGLE TURN&lt;/B&gt;&lt;/FONT&gt;
    &lt;/TD&gt;
  &lt;/TR&gt;
  &lt;TR&gt;
    &lt;TD ALIGN=CENTER&gt;
      &lt;FONT SIZE=3 FACE=ARIAL&gt;&lt;B&gt;BOURN&lt;/B&gt;&lt;/FONT&gt;
    &lt;/TD&gt;
    &lt;TD ALIGN=CENTER&gt;
      &lt;FONT SIZE=3 FACE=ARIAL&gt;&lt;B&gt;BI&amp;nbsp;TECH&lt;/B&gt;&lt;/FONT&gt;
    &lt;/TD&gt;
    &lt;TD ALIGN=CENTER&gt;
      &lt;FONT SIZE=3 FACE=ARIAL&gt;&lt;B&gt;DALE-VISHAY&lt;/B&gt;&lt;/FONT&gt;
    &lt;/TD&gt;
    &lt;TD ALIGN=CENTER&gt;
      &lt;FONT SIZE=3 FACE=ARIAL&gt;&lt;B&gt;PHILIPS/MEPCO&lt;/B&gt;&lt;/FONT&gt;
    &lt;/TD&gt;
    &lt;TD ALIGN=CENTER&gt;
      &lt;FONT SIZE=3 FACE=ARIAL&gt;&lt;B&gt;MURATA&lt;/B&gt;&lt;/FONT&gt;
    &lt;/TD&gt;
    &lt;TD ALIGN=CENTER&gt;
      &lt;FONT SIZE=3 FACE=ARIAL&gt;&lt;B&gt;PANASONIC&lt;/B&gt;&lt;/FONT&gt;
    &lt;/TD&gt;
    &lt;TD ALIGN=CENTER&gt;
      &lt;FONT SIZE=3 FACE=ARIAL&gt;&lt;B&gt;SPECTROL&lt;/B&gt;&lt;/FONT&gt;
    &lt;/TD&gt;
    &lt;TD ALIGN=CENTER&gt;
      &lt;FONT SIZE=3 FACE=ARIAL&gt;&lt;B&gt;MILSPEC&lt;/B&gt;&lt;/FONT&gt;
    &lt;/TD&gt;
  &lt;/TR&gt;
  &lt;TR&gt;
    &lt;TD BGCOLOR="#cccccc" ALIGN=CENTER&gt;&lt;FONT FACE=ARIAL SIZE=3&gt;
      3323P&lt;BR&gt;
      3323S&lt;BR&gt;
      3323W&lt;BR&gt;
      3329H&lt;BR&gt;
      3329P&lt;BR&gt;
      3329W&lt;BR&gt;
      3339H&lt;BR&gt;
      3339P&lt;BR&gt;
      3339W&lt;BR&gt;
      3352E&lt;BR&gt;
      3352H&lt;BR&gt;
      3352K&lt;BR&gt;
      3352P&lt;BR&gt;
      3352T&lt;BR&gt;
      3352V&lt;BR&gt;
      3352W&lt;BR&gt;
      3362H&lt;BR&gt;
      3362M&lt;BR&gt;
      3362P&lt;BR&gt;
      3362R&lt;BR&gt;
      3362S&lt;BR&gt;
      3362U&lt;BR&gt;
      3362W&lt;BR&gt;
      3362X&lt;BR&gt;
      3386B&lt;BR&gt;
      3386C&lt;BR&gt;
      3386F&lt;BR&gt;
      3386H&lt;BR&gt;
      3386K&lt;BR&gt;
      3386M&lt;BR&gt;
      3386P&lt;BR&gt;
      3386S&lt;BR&gt;
      3386W&lt;BR&gt;
      3386X&lt;BR&gt;&lt;/FONT&gt;
    &lt;/TD&gt;
    &lt;TD BGCOLOR="#cccccc" ALIGN=CENTER&gt;&lt;FONT FACE=ARIAL SIZE=3&gt;
      25P&lt;BR&gt;
      25S&lt;BR&gt;
      25RX&lt;BR&gt;
      82P&lt;BR&gt;
      82M&lt;BR&gt;
      82PA&lt;BR&gt;
      -&lt;BR&gt;
      -&lt;BR&gt;
      -&lt;BR&gt;
      91E&lt;BR&gt;
      91X&lt;BR&gt;
      91T&lt;BR&gt;
      91B&lt;BR&gt;
      91A&lt;BR&gt;
      91V&lt;BR&gt;
      91W&lt;BR&gt;
      25W&lt;BR&gt;
      25V&lt;BR&gt;
      25P&lt;BR&gt;
      -&lt;BR&gt;
      25S&lt;BR&gt;
      25U&lt;BR&gt;
      25RX&lt;BR&gt;
      25X&lt;BR&gt;
      72XW&lt;BR&gt;
      72XL&lt;BR&gt;
      72PM&lt;BR&gt;
      72RX&lt;BR&gt;
      -&lt;BR&gt;
      72PX&lt;BR&gt;
      72P&lt;BR&gt;
      72RXW&lt;BR&gt;
      72RXL&lt;BR&gt;
      72X&lt;BR&gt;&lt;/FONT&gt;
    &lt;/TD&gt;
    &lt;TD BGCOLOR="#cccccc" ALIGN=CENTER&gt;&lt;FONT FACE=ARIAL SIZE=3&gt;
      -&lt;BR&gt;
      -&lt;BR&gt;
      -&lt;BR&gt;
      T7YB&lt;BR&gt;
      T7YA&lt;BR&gt;
      -&lt;BR&gt;
      -&lt;BR&gt;
      -&lt;BR&gt;
      -&lt;BR&gt;
      -&lt;BR&gt;
      -&lt;BR&gt;
      -&lt;BR&gt;
      -&lt;BR&gt;
      -&lt;BR&gt;
      -&lt;BR&gt;
      -&lt;BR&gt;
      -&lt;BR&gt;
      TXD&lt;BR&gt;
      TYA&lt;BR&gt;
      TYP&lt;BR&gt;
      -&lt;BR&gt;
      TYD&lt;BR&gt;
      TX&lt;BR&gt;
      -&lt;BR&gt;
      150SX&lt;BR&gt;
      100SX&lt;BR&gt;
      102T&lt;BR&gt;
      101S&lt;BR&gt;
      190T&lt;BR&gt;
      150TX&lt;BR&gt;
      101&lt;BR&gt;
      -&lt;BR&gt;
      -&lt;BR&gt;
      101SX&lt;BR&gt;&lt;/FONT&gt;
    &lt;/TD&gt;
    &lt;TD BGCOLOR="#cccccc" ALIGN=CENTER&gt;&lt;FONT FACE=ARIAL SIZE=3&gt;
      ET6P&lt;BR&gt;
      ET6S&lt;BR&gt;
      ET6X&lt;BR&gt;
      RJ-6W/8014EMW&lt;BR&gt;
      RJ-6P/8014EMP&lt;BR&gt;
      RJ-6X/8014EMX&lt;BR&gt;
      TM7W&lt;BR&gt;
      TM7P&lt;BR&gt;
      TM7X&lt;BR&gt;
      -&lt;BR&gt;
      8017SMS&lt;BR&gt;
      -&lt;BR&gt;
      8017SMB&lt;BR&gt;
      8017SMA&lt;BR&gt;
      -&lt;BR&gt;
      -&lt;BR&gt;
      CT-6W&lt;BR&gt;
      CT-6H&lt;BR&gt;
      CT-6P&lt;BR&gt;
      CT-6R&lt;BR&gt;
      -&lt;BR&gt;
      CT-6V&lt;BR&gt;
      CT-6X&lt;BR&gt;
      -&lt;BR&gt;
      -&lt;BR&gt;
      8038EKV&lt;BR&gt;
      -&lt;BR&gt;
      8038EKX&lt;BR&gt;
      -&lt;BR&gt;
      -&lt;BR&gt;
      8038EKP&lt;BR&gt;
      8038EKZ&lt;BR&gt;
      8038EKW&lt;BR&gt;
      -&lt;BR&gt;&lt;/FONT&gt;
    &lt;/TD&gt;
    &lt;TD BGCOLOR="#cccccc" ALIGN=CENTER&gt;&lt;FONT FACE=ARIAL SIZE=3&gt;
      -&lt;BR&gt;
      -&lt;BR&gt;
      -&lt;BR&gt;
      3321H&lt;BR&gt;
      3321P&lt;BR&gt;
      3321N&lt;BR&gt;
      1102H&lt;BR&gt;
      1102P&lt;BR&gt;
      1102T&lt;BR&gt;
      RVA0911V304A&lt;BR&gt;
      -&lt;BR&gt;
      RVA0911H413A&lt;BR&gt;
      RVG0707V100A&lt;BR&gt;
      RVA0607V(H)306A&lt;BR&gt;
      RVA1214H213A&lt;BR&gt;
      -&lt;BR&gt;
      -&lt;BR&gt;
      -&lt;BR&gt;
      -&lt;BR&gt;
      -&lt;BR&gt;
      -&lt;BR&gt;
      -&lt;BR&gt;
      -&lt;BR&gt;
      -&lt;BR&gt;
      3104B&lt;BR&gt;
      3104C&lt;BR&gt;
      3104F&lt;BR&gt;
      3104H&lt;BR&gt;
      -&lt;BR&gt;
      3104M&lt;BR&gt;
      3104P&lt;BR&gt;
      3104S&lt;BR&gt;
      3104W&lt;BR&gt;
      3104X&lt;BR&gt;&lt;/FONT&gt;
    &lt;/TD&gt;
    &lt;TD BGCOLOR="#cccccc" ALIGN=CENTER&gt;&lt;FONT FACE=ARIAL SIZE=3&gt;
      EVMQ0G&lt;BR&gt;
      EVMQIG&lt;BR&gt;
      EVMQ3G&lt;BR&gt;
      EVMS0G&lt;BR&gt;
      EVMQ0G&lt;BR&gt;
      EVMG0G&lt;BR&gt;
      -&lt;BR&gt;
      -&lt;BR&gt;
      -&lt;BR&gt;
      EVMK4GA00B&lt;BR&gt;
      EVM30GA00B&lt;BR&gt;
      EVMK0GA00B&lt;BR&gt;
      EVM38GA00B&lt;BR&gt;
      EVMB6&lt;BR&gt;
      EVLQ0&lt;BR&gt;
      -&lt;BR&gt;
      EVMMSG&lt;BR&gt;
      EVMMBG&lt;BR&gt;
      EVMMAG&lt;BR&gt;
      -&lt;BR&gt;
      -&lt;BR&gt;
      EVMMCS&lt;BR&gt;
      -&lt;BR&gt;
      -&lt;BR&gt;
      -&lt;BR&gt;
      -&lt;BR&gt;
      -&lt;BR&gt;
      EVMM1&lt;BR&gt;
      -&lt;BR&gt;
      -&lt;BR&gt;
      EVMM0&lt;BR&gt;
      -&lt;BR&gt;
      -&lt;BR&gt;
      EVMM3&lt;BR&gt;&lt;/FONT&gt;
    &lt;/TD&gt;
    &lt;TD BGCOLOR="#cccccc" ALIGN=CENTER&gt;&lt;FONT FACE=ARIAL SIZE=3&gt;
      -&lt;BR&gt;
      -&lt;BR&gt;
      -&lt;BR&gt;
      62-3-1&lt;BR&gt;
      62-1-2&lt;BR&gt;
      -&lt;BR&gt;
      -&lt;BR&gt;
      -&lt;BR&gt;
      -&lt;BR&gt;
      -&lt;BR&gt;
      -&lt;BR&gt;
      -&lt;BR&gt;
      -&lt;BR&gt;
      -&lt;BR&gt;
      -&lt;BR&gt;
      -&lt;BR&gt;
      67R&lt;BR&gt;
      -&lt;BR&gt;
      67P&lt;BR&gt;
      -&lt;BR&gt;
      -&lt;BR&gt;
      -&lt;BR&gt;
      -&lt;BR&gt;
      67X&lt;BR&gt;
      63V&lt;BR&gt;
      63S&lt;BR&gt;
      63M&lt;BR&gt;
      -&lt;BR&gt;
      -&lt;BR&gt;
      63H&lt;BR&gt;
      63P&lt;BR&gt;
      -&lt;BR&gt;
      -&lt;BR&gt;
      63X&lt;BR&gt;&lt;/FONT&gt;
    &lt;/TD&gt;
    &lt;TD BGCOLOR="#cccccc" ALIGN=CENTER&gt;&lt;FONT FACE=ARIAL SIZE=3&gt;
      -&lt;BR&gt;
      -&lt;BR&gt;
      -&lt;BR&gt;
      RJ/RJR50&lt;BR&gt;
      RJ/RJR50&lt;BR&gt;
      RJ/RJR50&lt;BR&gt;
      -&lt;BR&gt;
      -&lt;BR&gt;
      -&lt;BR&gt;
      -&lt;BR&gt;
      -&lt;BR&gt;
      -&lt;BR&gt;
      -&lt;BR&gt;
      -&lt;BR&gt;
      -&lt;BR&gt;
      -&lt;BR&gt;
      -&lt;BR&gt;
      -&lt;BR&gt;
      -&lt;BR&gt;
      -&lt;BR&gt;
      -&lt;BR&gt;
      -&lt;BR&gt;
      -&lt;BR&gt;
      -&lt;BR&gt;
      -&lt;BR&gt;
      -&lt;BR&gt;
      -&lt;BR&gt;
      -&lt;BR&gt;
      -&lt;BR&gt;
      -&lt;BR&gt;
      -&lt;BR&gt;
      -&lt;BR&gt;
      -&lt;BR&gt;
      -&lt;BR&gt;&lt;/FONT&gt;
    &lt;/TD&gt;
  &lt;/TR&gt;
&lt;/TABLE&gt;
&lt;P&gt;&amp;nbsp;&lt;P&gt;
&lt;TABLE BORDER=0 CELLSPACING=1 CELLPADDING=3&gt;
  &lt;TR&gt;
    &lt;TD COLSPAN=7&gt;
      &lt;FONT color="#0000FF" SIZE=4 FACE=ARIAL&gt;&lt;B&gt;SMD TRIM-POT CROSS REFERENCE&lt;/B&gt;&lt;/FONT&gt;
      &lt;P&gt;
      &lt;FONT SIZE=4 FACE=ARIAL&gt;&lt;B&gt;MULTI-TURN&lt;/B&gt;&lt;/FONT&gt;
    &lt;/TD&gt;
  &lt;/TR&gt;
  &lt;TR&gt;
    &lt;TD&gt;
      &lt;FONT SIZE=3 FACE=ARIAL&gt;&lt;B&gt;BOURNS&lt;/B&gt;&lt;/FONT&gt;
    &lt;/TD&gt;
    &lt;TD&gt;
      &lt;FONT SIZE=3 FACE=ARIAL&gt;&lt;B&gt;BI&amp;nbsp;TECH&lt;/B&gt;&lt;/FONT&gt;
    &lt;/TD&gt;
    &lt;TD&gt;
      &lt;FONT SIZE=3 FACE=ARIAL&gt;&lt;B&gt;DALE-VISHAY&lt;/B&gt;&lt;/FONT&gt;
    &lt;/TD&gt;
    &lt;TD&gt;
      &lt;FONT SIZE=3 FACE=ARIAL&gt;&lt;B&gt;PHILIPS/MEPCO&lt;/B&gt;&lt;/FONT&gt;
    &lt;/TD&gt;
    &lt;TD&gt;
      &lt;FONT SIZE=3 FACE=ARIAL&gt;&lt;B&gt;PANASONIC&lt;/B&gt;&lt;/FONT&gt;
    &lt;/TD&gt;
    &lt;TD&gt;
      &lt;FONT SIZE=3 FACE=ARIAL&gt;&lt;B&gt;TOCOS&lt;/B&gt;&lt;/FONT&gt;
    &lt;/TD&gt;
    &lt;TD&gt;
      &lt;FONT SIZE=3 FACE=ARIAL&gt;&lt;B&gt;AUX/KYOCERA&lt;/B&gt;&lt;/FONT&gt;
    &lt;/TD&gt;
  &lt;/TR&gt;
  &lt;TR&gt;
    &lt;TD BGCOLOR="#cccccc" ALIGN=CENTER&gt;&lt;FONT FACE=ARIAL SIZE=3&gt;
      3224G&lt;BR&gt;
      3224J&lt;BR&gt;
      3224W&lt;BR&gt;
      3269P&lt;BR&gt;
      3269W&lt;BR&gt;
      3269X&lt;BR&gt;&lt;/FONT&gt;
    &lt;/TD&gt;
    &lt;TD BGCOLOR="#cccccc" ALIGN=CENTER&gt;&lt;FONT FACE=ARIAL SIZE=3&gt;
      44G&lt;BR&gt;
      44J&lt;BR&gt;
      44W&lt;BR&gt;
      84P&lt;BR&gt;
      84W&lt;BR&gt;
      84X&lt;BR&gt;&lt;/FONT&gt;
    &lt;/TD&gt;
    &lt;TD BGCOLOR="#cccccc" ALIGN=CENTER&gt;&lt;FONT FACE=ARIAL SIZE=3&gt;
      -&lt;BR&gt;
      -&lt;BR&gt;
      -&lt;BR&gt;
      ST63Z&lt;BR&gt;
      ST63Y&lt;BR&gt;
      -&lt;BR&gt;&lt;/FONT&gt;
    &lt;/TD&gt;
    &lt;TD BGCOLOR="#cccccc" ALIGN=CENTER&gt;&lt;FONT FACE=ARIAL SIZE=3&gt;
      -&lt;BR&gt;
      -&lt;BR&gt;
      -&lt;BR&gt;
      ST5P&lt;BR&gt;
      ST5W&lt;BR&gt;
      ST5X&lt;BR&gt;&lt;/FONT&gt;
    &lt;/TD&gt;
    &lt;TD BGCOLOR="#cccccc" ALIGN=CENTER&gt;&lt;FONT FACE=ARIAL SIZE=3&gt;
      -&lt;BR&gt;
      -&lt;BR&gt;
      -&lt;BR&gt;
      -&lt;BR&gt;
      -&lt;BR&gt;
      -&lt;BR&gt;&lt;/FONT&gt;
    &lt;/TD&gt;
    &lt;TD BGCOLOR="#cccccc" ALIGN=CENTER&gt;&lt;FONT FACE=ARIAL SIZE=3&gt;
      -&lt;BR&gt;
      -&lt;BR&gt;
      -&lt;BR&gt;
      -&lt;BR&gt;
      -&lt;BR&gt;
      -&lt;BR&gt;&lt;/FONT&gt;
    &lt;/TD&gt;
    &lt;TD BGCOLOR="#cccccc" ALIGN=CENTER&gt;&lt;FONT FACE=ARIAL SIZE=3&gt;
      -&lt;BR&gt;
      -&lt;BR&gt;
      -&lt;BR&gt;
      -&lt;BR&gt;
      -&lt;BR&gt;
      -&lt;BR&gt;&lt;/FONT&gt;
    &lt;/TD&gt;
  &lt;/TR&gt;
  &lt;TR&gt;
    &lt;TD COLSPAN=7&gt;&amp;nbsp;
    &lt;/TD&gt;
  &lt;/TR&gt;
  &lt;TR&gt;
    &lt;TD COLSPAN=7&gt;
      &lt;FONT SIZE=4 FACE=ARIAL&gt;&lt;B&gt;SINGLE TURN&lt;/B&gt;&lt;/FONT&gt;
    &lt;/TD&gt;
  &lt;/TR&gt;
  &lt;TR&gt;
    &lt;TD&gt;
      &lt;FONT SIZE=3 FACE=ARIAL&gt;&lt;B&gt;BOURNS&lt;/B&gt;&lt;/FONT&gt;
    &lt;/TD&gt;
    &lt;TD&gt;
      &lt;FONT SIZE=3 FACE=ARIAL&gt;&lt;B&gt;BI&amp;nbsp;TECH&lt;/B&gt;&lt;/FONT&gt;
    &lt;/TD&gt;
    &lt;TD&gt;
      &lt;FONT SIZE=3 FACE=ARIAL&gt;&lt;B&gt;DALE-VISHAY&lt;/B&gt;&lt;/FONT&gt;
    &lt;/TD&gt;
    &lt;TD&gt;
      &lt;FONT SIZE=3 FACE=ARIAL&gt;&lt;B&gt;PHILIPS/MEPCO&lt;/B&gt;&lt;/FONT&gt;
    &lt;/TD&gt;
    &lt;TD&gt;
      &lt;FONT SIZE=3 FACE=ARIAL&gt;&lt;B&gt;PANASONIC&lt;/B&gt;&lt;/FONT&gt;
    &lt;/TD&gt;
    &lt;TD&gt;
      &lt;FONT SIZE=3 FACE=ARIAL&gt;&lt;B&gt;TOCOS&lt;/B&gt;&lt;/FONT&gt;
    &lt;/TD&gt;
    &lt;TD&gt;
      &lt;FONT SIZE=3 FACE=ARIAL&gt;&lt;B&gt;AUX/KYOCERA&lt;/B&gt;&lt;/FONT&gt;
    &lt;/TD&gt;
  &lt;/TR&gt;
  &lt;TR&gt;
    &lt;TD BGCOLOR="#cccccc" ALIGN=CENTER&gt;&lt;FONT FACE=ARIAL SIZE=3&gt;
      3314G&lt;BR&gt;
      3314J&lt;BR&gt;
      3364A/B&lt;BR&gt;
      3364C/D&lt;BR&gt;
      3364W/X&lt;BR&gt;
      3313G&lt;BR&gt;
      3313J&lt;BR&gt;&lt;/FONT&gt;
    &lt;/TD&gt;
    &lt;TD BGCOLOR="#cccccc" ALIGN=CENTER&gt;&lt;FONT FACE=ARIAL SIZE=3&gt;
      23B&lt;BR&gt;
      23A&lt;BR&gt;
      21X&lt;BR&gt;
      21W&lt;BR&gt;
      -&lt;BR&gt;
      22B&lt;BR&gt;
      22A&lt;BR&gt;&lt;/FONT&gt;
    &lt;/TD&gt;
    &lt;TD BGCOLOR="#cccccc" ALIGN=CENTER&gt;&lt;FONT FACE=ARIAL SIZE=3&gt;
      ST5YL/ST53YL&lt;BR&gt;
      ST5YJ/5T53YJ&lt;BR&gt;
      ST-23A&lt;BR&gt;
      ST-22B&lt;BR&gt;
      ST-22&lt;BR&gt;
      -&lt;BR&gt;
      -&lt;BR&gt;&lt;/FONT&gt;
    &lt;/TD&gt;
    &lt;TD BGCOLOR="#cccccc" ALIGN=CENTER&gt;&lt;FONT FACE=ARIAL SIZE=3&gt;
      ST-4B&lt;BR&gt;
      ST-4A&lt;BR&gt;
      -&lt;BR&gt;
      -&lt;BR&gt;
      -&lt;BR&gt;
      ST-3B&lt;BR&gt;
      ST-3A&lt;BR&gt;&lt;/FONT&gt;
    &lt;/TD&gt;
    &lt;TD BGCOLOR="#cccccc" ALIGN=CENTER&gt;&lt;FONT FACE=ARIAL SIZE=3&gt;
      -&lt;BR&gt;
      EVM-6YS&lt;BR&gt;
      EVM-1E&lt;BR&gt;
      EVM-1G&lt;BR&gt;
      EVM-1D&lt;BR&gt;
      -&lt;BR&gt;
      -&lt;BR&gt;&lt;/FONT&gt;
    &lt;/TD&gt;
    &lt;TD BGCOLOR="#cccccc" ALIGN=CENTER&gt;&lt;FONT FACE=ARIAL SIZE=3&gt;
      G4B&lt;BR&gt;
      G4A&lt;BR&gt;
      TR04-3S1&lt;BR&gt;
      TRG04-2S1&lt;BR&gt;
      -&lt;BR&gt;
      -&lt;BR&gt;
      -&lt;BR&gt;&lt;/FONT&gt;
    &lt;/TD&gt;
    &lt;TD BGCOLOR="#cccccc" ALIGN=CENTER&gt;&lt;FONT FACE=ARIAL SIZE=3&gt;
      -&lt;BR&gt;
      -&lt;BR&gt;
      DVR-43A&lt;BR&gt;
      CVR-42C&lt;BR&gt;
      CVR-42A/C&lt;BR&gt;
      -&lt;BR&gt;
      -&lt;BR&gt;&lt;/FONT&gt;
    &lt;/TD&gt;
  &lt;/TR&gt;
&lt;/TABLE&gt;
&lt;P&gt;
&lt;FONT SIZE=4 FACE=ARIAL&gt;&lt;B&gt;ALT =&amp;nbsp;ALTERNATE&lt;/B&gt;&lt;/FONT&gt;
&lt;P&gt;

&amp;nbsp;
&lt;P&gt;
&lt;/td&gt;
&lt;/tr&gt;
&lt;/table&gt;</description>
<packages>
<package name="R2010" urn="urn:adsk.eagle:footprint:23051/1" library_version="11">
<description>&lt;b&gt;RESISTOR&lt;/b&gt;</description>
<wire x1="-1.662" y1="1.245" x2="1.662" y2="1.245" width="0.1524" layer="51"/>
<wire x1="-1.637" y1="-1.245" x2="1.687" y2="-1.245" width="0.1524" layer="51"/>
<wire x1="-3.473" y1="1.483" x2="3.473" y2="1.483" width="0.0508" layer="39"/>
<wire x1="3.473" y1="1.483" x2="3.473" y2="-1.483" width="0.0508" layer="39"/>
<wire x1="3.473" y1="-1.483" x2="-3.473" y2="-1.483" width="0.0508" layer="39"/>
<wire x1="-3.473" y1="-1.483" x2="-3.473" y2="1.483" width="0.0508" layer="39"/>
<smd name="1" x="-2.2" y="0" dx="1.8" dy="2.7" layer="1"/>
<smd name="2" x="2.2" y="0" dx="1.8" dy="2.7" layer="1"/>
<text x="-3.175" y="1.905" size="1.27" layer="25">&gt;NAME</text>
<text x="-3.175" y="-3.175" size="1.27" layer="27">&gt;VALUE</text>
<rectangle x1="-2.4892" y1="-1.3208" x2="-1.6393" y2="1.3292" layer="51"/>
<rectangle x1="1.651" y1="-1.3208" x2="2.5009" y2="1.3292" layer="51"/>
</package>
</packages>
<packages3d>
<package3d name="R2010" urn="urn:adsk.eagle:package:23551/2" type="model" library_version="11">
<description>RESISTOR</description>
<packageinstances>
<packageinstance name="R2010"/>
</packageinstances>
</package3d>
</packages3d>
</library>
<library name="ATSAMD21E18A-AUT">
<packages>
<package name="QFP80P900X900X120-32N">
<text x="-5.225" y="-5.33" size="1.27" layer="27" align="top-left">&gt;VALUE</text>
<text x="-5.225" y="5.43" size="1.27" layer="25">&gt;NAME</text>
<circle x="-5.98" y="2.8" radius="0.1" width="0.2" layer="21"/>
<circle x="-5.98" y="2.8" radius="0.1" width="0.2" layer="51"/>
<wire x1="3.5" y1="-3.5" x2="-3.5" y2="-3.5" width="0.127" layer="51"/>
<wire x1="3.5" y1="3.5" x2="-3.5" y2="3.5" width="0.127" layer="51"/>
<wire x1="3.5" y1="-3.5" x2="3.5" y2="3.5" width="0.127" layer="51"/>
<wire x1="-3.5" y1="-3.5" x2="-3.5" y2="3.5" width="0.127" layer="51"/>
<wire x1="3.5" y1="-3.5" x2="3.395" y2="-3.5" width="0.127" layer="21"/>
<wire x1="3.5" y1="3.5" x2="3.395" y2="3.5" width="0.127" layer="21"/>
<wire x1="-3.5" y1="-3.5" x2="-3.395" y2="-3.5" width="0.127" layer="21"/>
<wire x1="-3.5" y1="3.5" x2="-3.395" y2="3.5" width="0.127" layer="21"/>
<wire x1="3.5" y1="-3.5" x2="3.5" y2="-3.395" width="0.127" layer="21"/>
<wire x1="3.5" y1="3.5" x2="3.5" y2="3.395" width="0.127" layer="21"/>
<wire x1="-3.5" y1="-3.5" x2="-3.5" y2="-3.395" width="0.127" layer="21"/>
<wire x1="-3.5" y1="3.5" x2="-3.5" y2="3.395" width="0.127" layer="21"/>
<wire x1="-5.23" y1="-5.23" x2="5.23" y2="-5.23" width="0.05" layer="39"/>
<wire x1="-5.23" y1="5.23" x2="5.23" y2="5.23" width="0.05" layer="39"/>
<wire x1="-5.23" y1="-5.23" x2="-5.23" y2="5.23" width="0.05" layer="39"/>
<wire x1="5.23" y1="-5.23" x2="5.23" y2="5.23" width="0.05" layer="39"/>
<smd name="9" x="-2.8" y="-4.18" dx="1.6002" dy="0.39243125" layer="1" roundness="25" rot="R90"/>
<smd name="10" x="-2" y="-4.18" dx="1.6002" dy="0.39243125" layer="1" roundness="25" rot="R90"/>
<smd name="11" x="-1.2" y="-4.18" dx="1.6002" dy="0.39243125" layer="1" roundness="25" rot="R90"/>
<smd name="12" x="-0.4" y="-4.18" dx="1.6002" dy="0.39243125" layer="1" roundness="25" rot="R90"/>
<smd name="13" x="0.4" y="-4.18" dx="1.6002" dy="0.39243125" layer="1" roundness="25" rot="R90"/>
<smd name="14" x="1.2" y="-4.18" dx="1.6002" dy="0.39243125" layer="1" roundness="25" rot="R90"/>
<smd name="15" x="2" y="-4.18" dx="1.6002" dy="0.39243125" layer="1" roundness="25" rot="R90"/>
<smd name="16" x="2.8" y="-4.18" dx="1.6002" dy="0.39243125" layer="1" roundness="25" rot="R90"/>
<smd name="25" x="2.8" y="4.18" dx="1.6002" dy="0.39243125" layer="1" roundness="25" rot="R90"/>
<smd name="26" x="2" y="4.18" dx="1.6002" dy="0.39243125" layer="1" roundness="25" rot="R90"/>
<smd name="27" x="1.2" y="4.18" dx="1.6002" dy="0.39243125" layer="1" roundness="25" rot="R90"/>
<smd name="28" x="0.4" y="4.18" dx="1.6002" dy="0.39243125" layer="1" roundness="25" rot="R90"/>
<smd name="29" x="-0.4" y="4.18" dx="1.6002" dy="0.39243125" layer="1" roundness="25" rot="R90"/>
<smd name="30" x="-1.2" y="4.18" dx="1.6002" dy="0.39243125" layer="1" roundness="25" rot="R90"/>
<smd name="31" x="-2" y="4.18" dx="1.6002" dy="0.39243125" layer="1" roundness="25" rot="R90"/>
<smd name="32" x="-2.8" y="4.18" dx="1.6002" dy="0.39243125" layer="1" roundness="25" rot="R90"/>
<smd name="1" x="-4.18" y="2.8" dx="1.6002" dy="0.39243125" layer="1" roundness="25"/>
<smd name="2" x="-4.18" y="2" dx="1.6002" dy="0.39243125" layer="1" roundness="25"/>
<smd name="3" x="-4.18" y="1.2" dx="1.6002" dy="0.39243125" layer="1" roundness="25"/>
<smd name="4" x="-4.18" y="0.4" dx="1.6002" dy="0.39243125" layer="1" roundness="25"/>
<smd name="5" x="-4.18" y="-0.4" dx="1.6002" dy="0.39243125" layer="1" roundness="25"/>
<smd name="6" x="-4.18" y="-1.2" dx="1.6002" dy="0.39243125" layer="1" roundness="25"/>
<smd name="7" x="-4.18" y="-2" dx="1.6002" dy="0.39243125" layer="1" roundness="25"/>
<smd name="8" x="-4.18" y="-2.8" dx="1.6002" dy="0.39243125" layer="1" roundness="25"/>
<smd name="17" x="4.18" y="-2.8" dx="1.6002" dy="0.39243125" layer="1" roundness="25"/>
<smd name="18" x="4.18" y="-2" dx="1.6002" dy="0.39243125" layer="1" roundness="25"/>
<smd name="19" x="4.18" y="-1.2" dx="1.6002" dy="0.39243125" layer="1" roundness="25"/>
<smd name="20" x="4.18" y="-0.4" dx="1.6002" dy="0.39243125" layer="1" roundness="25"/>
<smd name="21" x="4.18" y="0.4" dx="1.6002" dy="0.39243125" layer="1" roundness="25"/>
<smd name="22" x="4.18" y="1.2" dx="1.6002" dy="0.39243125" layer="1" roundness="25"/>
<smd name="23" x="4.18" y="2" dx="1.6002" dy="0.39243125" layer="1" roundness="25"/>
<smd name="24" x="4.18" y="2.8" dx="1.6002" dy="0.39243125" layer="1" roundness="25"/>
</package>
</packages>
</library>
<library name="con-leotronics" urn="urn:adsk.eagle:library:160">
<description>&lt;b&gt;Connectors from Leotronics&lt;/b&gt;&lt;p&gt;
www.leotronics.co.uk&lt;br&gt;</description>
<packages>
<package name="1365-10" urn="urn:adsk.eagle:footprint:7867/1" library_version="2">
<description>&lt;b&gt;DUAL ROW STRAIGHT HEADER&lt;/b&gt; 1364 SERIES. 1.27mm x 1.27mm. Without Fixing Post. SMT&lt;p&gt;
Source: http://www.leotronics.co.uk/Conexcon/Data%20Sheets/sec.%20A/1364ing.pdf</description>
<wire x1="-3.075" y1="1.63" x2="3.07" y2="1.63" width="0.2032" layer="21"/>
<wire x1="3.07" y1="1.63" x2="3.07" y2="-1.63" width="0.2032" layer="21"/>
<wire x1="3.07" y1="-1.63" x2="-3.075" y2="-1.63" width="0.2032" layer="21"/>
<wire x1="-3.075" y1="-1.63" x2="-3.075" y2="1.63" width="0.2032" layer="21"/>
<smd name="1" x="-2.54" y="-2.95" dx="0.76" dy="2.4" layer="1"/>
<smd name="2" x="-2.54" y="2.95" dx="0.76" dy="2.4" layer="1"/>
<smd name="3" x="-1.27" y="-2.95" dx="0.76" dy="2.4" layer="1"/>
<smd name="4" x="-1.27" y="2.95" dx="0.76" dy="2.4" layer="1"/>
<smd name="5" x="0" y="-2.95" dx="0.76" dy="2.4" layer="1"/>
<smd name="6" x="0" y="2.95" dx="0.76" dy="2.4" layer="1"/>
<smd name="7" x="1.27" y="-2.95" dx="0.76" dy="2.4" layer="1"/>
<smd name="8" x="1.27" y="2.95" dx="0.76" dy="2.4" layer="1"/>
<smd name="9" x="2.54" y="-2.95" dx="0.76" dy="2.4" layer="1"/>
<smd name="10" x="2.54" y="2.95" dx="0.76" dy="2.4" layer="1"/>
<text x="-3.81" y="-3.175" size="1.27" layer="25" rot="R90">&gt;NAME</text>
<text x="5.08" y="-3.81" size="1.27" layer="27" rot="R90">&gt;VALUE</text>
<rectangle x1="-2.74" y1="1.725" x2="-2.34" y2="2.75" layer="51"/>
<rectangle x1="-2.74" y1="-2.75" x2="-2.34" y2="-1.725" layer="51" rot="R180"/>
<rectangle x1="-1.47" y1="1.725" x2="-1.07" y2="2.75" layer="51"/>
<rectangle x1="-1.47" y1="-2.75" x2="-1.07" y2="-1.725" layer="51" rot="R180"/>
<rectangle x1="-0.2" y1="1.725" x2="0.2" y2="2.75" layer="51"/>
<rectangle x1="-0.2" y1="-2.75" x2="0.2" y2="-1.725" layer="51" rot="R180"/>
<rectangle x1="1.07" y1="1.725" x2="1.47" y2="2.75" layer="51"/>
<rectangle x1="1.07" y1="-2.75" x2="1.47" y2="-1.725" layer="51" rot="R180"/>
<rectangle x1="2.34" y1="1.725" x2="2.74" y2="2.75" layer="51"/>
<rectangle x1="2.34" y1="-2.75" x2="2.74" y2="-1.725" layer="51" rot="R180"/>
</package>
</packages>
<packages3d>
<package3d name="1365-10" urn="urn:adsk.eagle:package:7957/1" type="box" library_version="2">
<description>DUAL ROW STRAIGHT HEADER 1364 SERIES. 1.27mm x 1.27mm. Without Fixing Post. SMT
Source: http://www.leotronics.co.uk/Conexcon/Data%20Sheets/sec.%20A/1364ing.pdf</description>
<packageinstances>
<packageinstance name="1365-10"/>
</packageinstances>
</package3d>
</packages3d>
</library>
</libraries>
<attributes>
</attributes>
<variantdefs>
</variantdefs>
<classes>
<class number="0" name="default" width="0" drill="0">
</class>
</classes>
<designrules name="default *">
<description language="de">&lt;b&gt;EAGLE Design Rules&lt;/b&gt;
&lt;p&gt;
Die Standard-Design-Rules sind so gewählt, dass sie für 
die meisten Anwendungen passen. Sollte ihre Platine 
besondere Anforderungen haben, treffen Sie die erforderlichen
Einstellungen hier und speichern die Design Rules unter 
einem neuen Namen ab.</description>
<description language="en">&lt;b&gt;EAGLE Design Rules&lt;/b&gt;
&lt;p&gt;
The default Design Rules have been set to cover
a wide range of applications. Your particular design
may have different requirements, so please make the
necessary adjustments and save your customized
design rules under a new name.</description>
<param name="layerSetup" value="(1*16)"/>
<param name="mtCopper" value="0.035mm 0.035mm 0.035mm 0.035mm 0.035mm 0.035mm 0.035mm 0.035mm 0.035mm 0.035mm 0.035mm 0.035mm 0.035mm 0.035mm 0.035mm 0.035mm"/>
<param name="mtIsolate" value="1.5mm 0.15mm 0.2mm 0.15mm 0.2mm 0.15mm 0.2mm 0.15mm 0.2mm 0.15mm 0.2mm 0.15mm 0.2mm 0.15mm 0.2mm"/>
<param name="mdWireWire" value="16mil"/>
<param name="mdWirePad" value="16mil"/>
<param name="mdWireVia" value="16mil"/>
<param name="mdPadPad" value="16mil"/>
<param name="mdPadVia" value="16mil"/>
<param name="mdViaVia" value="16mil"/>
<param name="mdSmdPad" value="6mil"/>
<param name="mdSmdVia" value="6mil"/>
<param name="mdSmdSmd" value="6mil"/>
<param name="mdViaViaSameLayer" value="6mil"/>
<param name="mnLayersViaInSmd" value="2"/>
<param name="mdCopperDimension" value="40mil"/>
<param name="mdDrill" value="6mil"/>
<param name="mdSmdStop" value="0mil"/>
<param name="msWidth" value="6mil"/>
<param name="msDrill" value="0.35mm"/>
<param name="msMicroVia" value="9.99mm"/>
<param name="msBlindViaRatio" value="0.5"/>
<param name="rvPadTop" value="0.25"/>
<param name="rvPadInner" value="0.25"/>
<param name="rvPadBottom" value="0.25"/>
<param name="rvViaOuter" value="0.25"/>
<param name="rvViaInner" value="0.25"/>
<param name="rvMicroViaOuter" value="0.25"/>
<param name="rvMicroViaInner" value="0.25"/>
<param name="rlMinPadTop" value="10mil"/>
<param name="rlMaxPadTop" value="20mil"/>
<param name="rlMinPadInner" value="10mil"/>
<param name="rlMaxPadInner" value="20mil"/>
<param name="rlMinPadBottom" value="10mil"/>
<param name="rlMaxPadBottom" value="20mil"/>
<param name="rlMinViaOuter" value="8mil"/>
<param name="rlMaxViaOuter" value="20mil"/>
<param name="rlMinViaInner" value="8mil"/>
<param name="rlMaxViaInner" value="20mil"/>
<param name="rlMinMicroViaOuter" value="4mil"/>
<param name="rlMaxMicroViaOuter" value="20mil"/>
<param name="rlMinMicroViaInner" value="4mil"/>
<param name="rlMaxMicroViaInner" value="20mil"/>
<param name="psTop" value="-1"/>
<param name="psBottom" value="-1"/>
<param name="psFirst" value="-1"/>
<param name="psElongationLong" value="100"/>
<param name="psElongationOffset" value="100"/>
<param name="mvStopFrame" value="1"/>
<param name="mvCreamFrame" value="0"/>
<param name="mlMinStopFrame" value="4mil"/>
<param name="mlMaxStopFrame" value="4mil"/>
<param name="mlMinCreamFrame" value="0mil"/>
<param name="mlMaxCreamFrame" value="0mil"/>
<param name="mlViaStopLimit" value="0mil"/>
<param name="srRoundness" value="0"/>
<param name="srMinRoundness" value="0mil"/>
<param name="srMaxRoundness" value="0mil"/>
<param name="slThermalIsolate" value="10mil"/>
<param name="slThermalsForVias" value="0"/>
<param name="dpMaxLengthDifference" value="10mm"/>
<param name="dpGapFactor" value="2.5"/>
<param name="checkAngle" value="0"/>
<param name="checkFont" value="1"/>
<param name="checkRestrict" value="1"/>
<param name="checkStop" value="0"/>
<param name="checkValues" value="0"/>
<param name="checkNames" value="1"/>
<param name="checkWireStubs" value="1"/>
<param name="checkPolygonWidth" value="0"/>
<param name="useDiameter" value="13"/>
<param name="maxErrors" value="50"/>
</designrules>
<autorouter>
<pass name="Default">
<param name="RoutingGrid" value="50mil"/>
<param name="AutoGrid" value="1"/>
<param name="Efforts" value="0"/>
<param name="TopRouterVariant" value="1"/>
<param name="tpViaShape" value="round"/>
<param name="PrefDir.1" value="a"/>
<param name="PrefDir.2" value="0"/>
<param name="PrefDir.3" value="0"/>
<param name="PrefDir.4" value="0"/>
<param name="PrefDir.5" value="0"/>
<param name="PrefDir.6" value="0"/>
<param name="PrefDir.7" value="0"/>
<param name="PrefDir.8" value="0"/>
<param name="PrefDir.9" value="0"/>
<param name="PrefDir.10" value="0"/>
<param name="PrefDir.11" value="0"/>
<param name="PrefDir.12" value="0"/>
<param name="PrefDir.13" value="0"/>
<param name="PrefDir.14" value="0"/>
<param name="PrefDir.15" value="0"/>
<param name="PrefDir.16" value="a"/>
<param name="cfVia" value="8"/>
<param name="cfNonPref" value="5"/>
<param name="cfChangeDir" value="2"/>
<param name="cfOrthStep" value="2"/>
<param name="cfDiagStep" value="3"/>
<param name="cfExtdStep" value="0"/>
<param name="cfBonusStep" value="1"/>
<param name="cfMalusStep" value="1"/>
<param name="cfPadImpact" value="4"/>
<param name="cfSmdImpact" value="4"/>
<param name="cfBusImpact" value="0"/>
<param name="cfHugging" value="3"/>
<param name="cfAvoid" value="4"/>
<param name="cfPolygon" value="10"/>
<param name="cfBase.1" value="0"/>
<param name="cfBase.2" value="1"/>
<param name="cfBase.3" value="1"/>
<param name="cfBase.4" value="1"/>
<param name="cfBase.5" value="1"/>
<param name="cfBase.6" value="1"/>
<param name="cfBase.7" value="1"/>
<param name="cfBase.8" value="1"/>
<param name="cfBase.9" value="1"/>
<param name="cfBase.10" value="1"/>
<param name="cfBase.11" value="1"/>
<param name="cfBase.12" value="1"/>
<param name="cfBase.13" value="1"/>
<param name="cfBase.14" value="1"/>
<param name="cfBase.15" value="1"/>
<param name="cfBase.16" value="0"/>
<param name="mnVias" value="20"/>
<param name="mnSegments" value="9999"/>
<param name="mnExtdSteps" value="9999"/>
<param name="mnRipupLevel" value="10"/>
<param name="mnRipupSteps" value="100"/>
<param name="mnRipupTotal" value="100"/>
</pass>
<pass name="Follow-me" refer="Default" active="yes">
</pass>
<pass name="Busses" refer="Default" active="yes">
<param name="cfNonPref" value="4"/>
<param name="cfBusImpact" value="4"/>
<param name="cfHugging" value="0"/>
<param name="mnVias" value="0"/>
</pass>
<pass name="Route" refer="Default" active="yes">
</pass>
<pass name="Optimize1" refer="Default" active="yes">
<param name="cfVia" value="99"/>
<param name="cfExtdStep" value="10"/>
<param name="cfHugging" value="1"/>
<param name="mnExtdSteps" value="1"/>
<param name="mnRipupLevel" value="0"/>
</pass>
<pass name="Optimize2" refer="Optimize1" active="yes">
<param name="cfNonPref" value="0"/>
<param name="cfChangeDir" value="6"/>
<param name="cfExtdStep" value="0"/>
<param name="cfBonusStep" value="2"/>
<param name="cfMalusStep" value="2"/>
<param name="cfPadImpact" value="2"/>
<param name="cfSmdImpact" value="2"/>
<param name="cfHugging" value="0"/>
</pass>
<pass name="Optimize3" refer="Optimize2" active="yes">
<param name="cfChangeDir" value="8"/>
<param name="cfPadImpact" value="0"/>
<param name="cfSmdImpact" value="0"/>
</pass>
<pass name="Optimize4" refer="Optimize3" active="yes">
<param name="cfChangeDir" value="25"/>
</pass>
</autorouter>
<elements>
<element name="C1" library="fab" package="C1206" value="0.1uF" x="20.32" y="44.45" smashed="yes">
<attribute name="NAME" x="19.05" y="45.72" size="1.27" layer="25"/>
<attribute name="VALUE" x="19.05" y="41.91" size="1.27" layer="27"/>
</element>
<element name="C4" library="fab" package="C1206" value="10uF" x="20.32" y="47.244" smashed="yes">
<attribute name="NAME" x="19.05" y="48.514" size="1.27" layer="25"/>
<attribute name="VALUE" x="19.05" y="44.704" size="1.27" layer="27"/>
</element>
<element name="D1" library="fab" package="SOD123" value="" x="34.798" y="39.116" smashed="yes" rot="R90">
<attribute name="NAME" x="32.893" y="37.211" size="1.27" layer="25" rot="R90"/>
<attribute name="VALUE" x="37.973" y="37.211" size="1.27" layer="27" rot="R90"/>
</element>
<element name="IC1" library="fab" package="SOT23" value="" x="8.89" y="43.18" smashed="yes" rot="R270">
<attribute name="NAME" x="10.795" y="45.085" size="1.27" layer="25" rot="R270"/>
<attribute name="VALUE" x="5.715" y="45.085" size="1.27" layer="27" rot="R270"/>
</element>
<element name="JP1" library="fab" package="2X03SMD" value="" x="33.02" y="19.05" smashed="yes">
<attribute name="NAME" x="29.21" y="22.86" size="1.27" layer="25"/>
<attribute name="VALUE" x="29.21" y="13.97" size="1.27" layer="27"/>
</element>
<element name="R1" library="fab" package="R1206FAB" value="" x="14.478" y="60.96" smashed="yes" rot="R90">
<attribute name="NAME" x="13.208" y="59.182" size="1.016" layer="25" ratio="15" rot="R90"/>
<attribute name="VALUE" x="16.764" y="59.182" size="1.016" layer="27" ratio="15" rot="R90"/>
</element>
<element name="R2" library="rcl" library_urn="urn:adsk.eagle:library:334" package="R2010" package3d_urn="urn:adsk.eagle:package:23551/2" value="" x="24.765" y="26.924" smashed="yes" rot="R90">
<attribute name="NAME" x="22.86" y="23.749" size="1.27" layer="25" rot="R90"/>
<attribute name="POPULARITY" value="0" x="80.645" y="73.914" size="1.778" layer="27" rot="R90" display="off"/>
<attribute name="SPICEPREFIX" value="R" x="80.645" y="73.914" size="1.778" layer="27" rot="R90" display="off"/>
<attribute name="VALUE" x="27.94" y="23.749" size="1.27" layer="27" rot="R90"/>
</element>
<element name="R3" library="rcl" library_urn="urn:adsk.eagle:library:334" package="R2010" package3d_urn="urn:adsk.eagle:package:23551/2" value="" x="24.892" y="15.494" smashed="yes" rot="R90">
<attribute name="NAME" x="22.987" y="12.319" size="1.27" layer="25" rot="R90"/>
<attribute name="POPULARITY" value="0" x="87.122" y="32.004" size="1.778" layer="27" rot="R90" display="off"/>
<attribute name="SPICEPREFIX" value="R" x="87.122" y="32.004" size="1.778" layer="27" rot="R90" display="off"/>
<attribute name="VALUE" x="28.067" y="12.319" size="1.27" layer="27" rot="R90"/>
</element>
<element name="S1" library="fab" package="6MM_SWITCH" value="" x="21.59" y="55.88" smashed="yes" rot="R270">
<attribute name="NAME" x="25.273" y="58.928" size="1.27" layer="25" ratio="10" rot="R270"/>
<attribute name="VALUE" x="16.51" y="58.928" size="1.27" layer="27" ratio="10" rot="R270"/>
</element>
<element name="U$1" library="fab" package="USB_MINIB" value="CONN_USB_MINIB" x="32.639" y="60.706" smashed="yes" rot="R270">
<attribute name="NAME" x="33.909" y="63.246" size="0.4064" layer="25" rot="R270"/>
<attribute name="VALUE" x="32.639" y="63.246" size="0.4064" layer="27" rot="R270"/>
</element>
<element name="U$2" library="fab" package="SOIC8_PAD" value="PMIC_H-BRIDGE_A4953_PAD" x="17.78" y="22.86" smashed="yes" rot="R270">
<attribute name="NAME" x="15.621" y="25.7175" size="1.27" layer="25" ratio="10"/>
<attribute name="VALUE" x="15.621" y="18.796" size="1.27" layer="27" ratio="10"/>
</element>
<element name="U$3" library="fab" package="SOIC8_PAD" value="PMIC_H-BRIDGE_A4953_PAD" x="17.78" y="12.7" smashed="yes" rot="R270">
<attribute name="NAME" x="15.621" y="15.5575" size="1.27" layer="25" ratio="10"/>
<attribute name="VALUE" x="15.621" y="8.636" size="1.27" layer="27" ratio="10"/>
</element>
<element name="U1" library="ATSAMD21E18A-AUT" package="QFP80P900X900X120-32N" value="ATSAMD21E18A-AUT" x="20.32" y="36.83" smashed="yes">
<attribute name="AVAILABILITY" value="Good" x="46.99" y="0" size="1.778" layer="27" display="off"/>
<attribute name="DESCRIPTION" value=" IC MCU 32BIT 256KB FLASH 32TQFP " x="46.99" y="0" size="1.778" layer="27" display="off"/>
<attribute name="MF" value="Microchip Technology" x="46.99" y="0" size="1.778" layer="27" display="off"/>
<attribute name="MP" value="ATSAMD21E18A-AU" x="46.99" y="0" size="1.778" layer="27" display="off"/>
<attribute name="NAME" x="15.095" y="42.26" size="1.27" layer="25"/>
<attribute name="PACKAGE" value="None" x="46.99" y="0" size="1.778" layer="27" display="off"/>
<attribute name="PRICE" value="None" x="46.99" y="0" size="1.778" layer="27" display="off"/>
<attribute name="PURCHASE-URL" value="https://pricing.snapeda.com/search/part/ATSAMD21E18A-AU/?ref=eda" x="46.99" y="0" size="1.778" layer="27" display="off"/>
<attribute name="VALUE" x="15.095" y="31.5" size="1.27" layer="27" align="top-left"/>
</element>
<element name="X1" library="con-leotronics" library_urn="urn:adsk.eagle:library:160" package="1365-10" package3d_urn="urn:adsk.eagle:package:7957/1" value="1365-10" x="10.16" y="54.61" smashed="yes">
<attribute name="MF" value="" x="50.8" y="5.08" size="1.778" layer="27" display="off"/>
<attribute name="MPN" value="" x="50.8" y="5.08" size="1.778" layer="27" display="off"/>
<attribute name="NAME" x="6.35" y="51.435" size="1.27" layer="25" rot="R90"/>
<attribute name="OC_FARNELL" value="unknown" x="50.8" y="5.08" size="1.778" layer="27" display="off"/>
<attribute name="OC_NEWARK" value="unknown" x="50.8" y="5.08" size="1.778" layer="27" display="off"/>
<attribute name="POPULARITY" value="1" x="50.8" y="5.08" size="1.778" layer="27" display="off"/>
<attribute name="VALUE" x="15.24" y="50.8" size="1.27" layer="27" rot="R90"/>
</element>
<element name="C2" library="fab" package="C1206" value="10uF" x="19.05" y="6.35" smashed="yes" rot="R180">
<attribute name="NAME" x="20.32" y="5.08" size="1.27" layer="25" rot="R180"/>
<attribute name="VALUE" x="20.32" y="8.89" size="1.27" layer="27" rot="R180"/>
</element>
<element name="C3" library="fab" package="C1206" value="10uF" x="18.669" y="18.288" smashed="yes" rot="R180">
<attribute name="NAME" x="19.939" y="17.018" size="1.27" layer="25" rot="R180"/>
<attribute name="VALUE" x="19.939" y="20.828" size="1.27" layer="27" rot="R180"/>
</element>
</elements>
<signals>
<signal name="3V3">
<contactref element="C1" pad="1"/>
<contactref element="U1" pad="29"/>
<contactref element="U1" pad="30"/>
<contactref element="U1" pad="9"/>
<contactref element="C4" pad="1"/>
<contactref element="IC1" pad="1"/>
<contactref element="R1" pad="2"/>
<contactref element="X1" pad="1"/>
<wire x1="18.92" y1="44.45" x2="18.92" y2="47.244" width="0.4064" layer="1"/>
<wire x1="18.92" y1="47.244" x2="18.666" y2="46.99" width="0.3048" layer="1"/>
<wire x1="18.666" y1="46.99" x2="7.62" y2="46.99" width="0.4064" layer="1"/>
<wire x1="7.62" y1="46.99" x2="7.62" y2="51.66" width="0.4064" layer="1"/>
<wire x1="7.62" y1="51.66" x2="3.302" y2="55.978" width="0.4064" layer="1"/>
<wire x1="7.79" y1="44.13" x2="7.62" y2="44.3" width="0.3048" layer="1"/>
<wire x1="7.62" y1="44.3" x2="7.62" y2="46.99" width="0.4064" layer="1"/>
<wire x1="3.302" y1="60.706" x2="3.683" y2="61.087" width="0.4064" layer="1"/>
<wire x1="3.683" y1="61.087" x2="4.36418125" y2="61.76818125" width="0.4064" layer="1"/>
<wire x1="3.302" y1="55.978" x2="3.302" y2="60.706" width="0.4064" layer="1"/>
<wire x1="17.52" y1="32.65" x2="17.52" y2="36.57" width="0.3048" layer="1"/>
<wire x1="19.12" y1="38.17" x2="19.12" y2="41.01" width="0.3048" layer="1"/>
<wire x1="17.52" y1="36.57" x2="19.12" y2="38.17" width="0.3048" layer="1"/>
<wire x1="19.92" y1="41.01" x2="19.12" y2="41.01" width="0.3048" layer="1"/>
<wire x1="19.12" y1="41.01" x2="19.12" y2="44.25" width="0.3048" layer="1"/>
<wire x1="19.12" y1="44.25" x2="18.92" y2="44.45" width="0.3048" layer="1"/>
<wire x1="14.478" y1="62.611" x2="5.207" y2="62.611" width="0.4064" layer="1"/>
<wire x1="5.207" y1="62.611" x2="4.36418125" y2="61.76818125" width="0.4064" layer="1"/>
</signal>
<signal name="GND">
<contactref element="C1" pad="2"/>
<contactref element="C4" pad="2"/>
<contactref element="U1" pad="10"/>
<contactref element="U1" pad="28"/>
<contactref element="S1" pad="2"/>
<contactref element="IC1" pad="3"/>
<contactref element="X1" pad="3"/>
<contactref element="X1" pad="5"/>
<contactref element="U$1" pad="GND"/>
<contactref element="U$2" pad="1"/>
<contactref element="U$2" pad="GND"/>
<contactref element="U$3" pad="1"/>
<contactref element="U$3" pad="GND"/>
<contactref element="R2" pad="2"/>
<contactref element="R3" pad="2"/>
<contactref element="JP1" pad="6"/>
<contactref element="C3" pad="2"/>
<contactref element="C2" pad="2"/>
<contactref element="S1" pad="1"/>
<wire x1="8.89" y1="51.66" x2="10.16" y2="51.66" width="0.4064" layer="1"/>
<polygon width="0.3048" layer="1" isolate="0.8128">
<vertex x="-3.81" y="66.04"/>
<vertex x="44.45" y="66.04"/>
<vertex x="46.99" y="63.5"/>
<vertex x="46.99" y="1.27"/>
<vertex x="41.91" y="-3.81"/>
<vertex x="1.27" y="-3.81"/>
<vertex x="-3.81" y="1.27"/>
</polygon>
<wire x1="20.72" y1="41.01" x2="20.72" y2="43.45" width="0.3048" layer="1"/>
<wire x1="20.72" y1="43.45" x2="21.72" y2="44.45" width="0.3048" layer="1"/>
<wire x1="20.72" y1="41.01" x2="20.72" y2="37.611" width="0.3048" layer="1"/>
<wire x1="20.72" y1="37.611" x2="18.288" y2="35.179" width="0.3048" layer="1"/>
<wire x1="18.288" y1="35.179" x2="18.288" y2="32.682" width="0.3048" layer="1"/>
<wire x1="18.288" y1="32.682" x2="18.32" y2="32.65" width="0.3048" layer="1"/>
<wire x1="18.32" y1="32.65" x2="18.32" y2="29.124" width="0.3048" layer="1"/>
<wire x1="18.32" y1="29.124" x2="24.765" y2="29.124" width="0.3048" layer="1"/>
<wire x1="10.16" y1="51.66" x2="10.16" y2="49.53" width="0.3048" layer="1"/>
<wire x1="10.16" y1="49.53" x2="20.32" y2="49.53" width="0.3048" layer="1"/>
<wire x1="20.32" y1="49.53" x2="21.72" y2="48.13" width="0.3048" layer="1"/>
<wire x1="21.72" y1="48.13" x2="21.72" y2="47.244" width="0.3048" layer="1"/>
<wire x1="31.42" y1="50.8" x2="31.42" y2="50.47" width="0.4064" layer="1"/>
<wire x1="31.42" y1="50.47" x2="29.21" y2="48.26" width="0.4064" layer="1"/>
<wire x1="29.21" y1="48.26" x2="26.67" y2="48.26" width="0.4064" layer="1"/>
<wire x1="23.876" y1="51.054" x2="23.876" y2="52.578" width="0.4064" layer="1"/>
<wire x1="26.67" y1="48.26" x2="23.876" y2="51.054" width="0.4064" layer="1"/>
<wire x1="8.89" y1="51.66" x2="8.89" y2="49.53" width="0.4064" layer="1"/>
<wire x1="8.89" y1="49.53" x2="10.16" y2="49.53" width="0.4064" layer="1"/>
<wire x1="31.039" y1="56.936" x2="31.039" y2="52.629" width="0.4064" layer="1"/>
<wire x1="31.039" y1="52.629" x2="30.48" y2="52.07" width="0.4064" layer="1"/>
<wire x1="30.48" y1="52.07" x2="30.48" y2="50.8" width="0.4064" layer="1"/>
<wire x1="30.48" y1="50.8" x2="31.42" y2="50.8" width="0.4064" layer="1"/>
</signal>
<signal name="5V">
<contactref element="U$1" pad="VBUS"/>
<contactref element="D1" pad="ANODE"/>
<wire x1="34.239" y1="56.936" x2="34.366" y2="56.809" width="0.3048" layer="1"/>
<wire x1="34.366" y1="56.809" x2="34.366" y2="42.650021875" width="0.3048" layer="1"/>
<wire x1="34.798" y1="41.232675" x2="34.798" y2="40.816" width="0.3048" layer="1"/>
<wire x1="34.798" y1="41.232675" x2="34.366" y2="42.650021875" width="0.3048" layer="1"/>
</signal>
<signal name="SWDIO">
<contactref element="X1" pad="2"/>
<contactref element="U1" pad="32"/>
<wire x1="17.52" y1="41.01" x2="16.14" y2="41.01" width="0.3048" layer="1"/>
<wire x1="16.14" y1="41.01" x2="13.97" y2="43.18" width="0.4064" layer="1"/>
<via x="13.97" y="43.18" extent="1-16" drill="0.8" diameter="1.3"/>
<wire x1="13.97" y1="43.18" x2="6.096" y2="51.054" width="0.4064" layer="16"/>
<wire x1="6.096" y1="51.054" x2="6.096" y2="57.531" width="0.4064" layer="16"/>
<via x="6.096" y="57.531" extent="1-16" drill="0.8" diameter="1.3"/>
<wire x1="6.096" y1="57.531" x2="7.591" y2="57.531" width="0.4064" layer="1"/>
<wire x1="7.591" y1="57.531" x2="7.62" y2="57.56" width="0.4064" layer="1"/>
</signal>
<signal name="SWDCLK">
<contactref element="X1" pad="4"/>
<contactref element="U1" pad="31"/>
<via x="8.747953125" y="59.674953125" extent="1-16" drill="0.8" diameter="1.3"/>
<wire x1="8.89" y1="57.56" x2="8.8636" y2="57.5864" width="0.4064" layer="1"/>
<wire x1="8.8636" y1="57.5864" x2="8.8636" y2="59.01250625" width="0.4064" layer="1"/>
<wire x1="8.747953125" y1="59.674953125" x2="8.747953125" y2="59.128153125" width="0.4064" layer="1"/>
<wire x1="8.8636" y1="59.01250625" x2="8.747953125" y2="59.128153125" width="0.4064" layer="1"/>
<wire x1="8.747953125" y1="59.674953125" x2="16.51" y2="51.91290625" width="0.4064" layer="16"/>
<wire x1="16.51" y1="51.91290625" x2="16.51" y2="43.942" width="0.4064" layer="16"/>
<via x="16.51" y="43.942" extent="1-16" drill="0.8" diameter="1.3"/>
<wire x1="16.51" y1="43.942" x2="16.637" y2="43.815" width="0.3048" layer="1"/>
<wire x1="16.637" y1="43.815" x2="16.637" y2="42.799" width="0.3048" layer="1"/>
<wire x1="16.637" y1="42.799" x2="18.288" y2="42.799" width="0.3048" layer="1"/>
<wire x1="18.288" y1="42.799" x2="18.32" y2="42.767" width="0.3048" layer="1"/>
<wire x1="18.32" y1="42.767" x2="18.32" y2="41.01" width="0.3048" layer="1"/>
</signal>
<signal name="RESET">
<contactref element="X1" pad="10"/>
<contactref element="R1" pad="1"/>
<contactref element="S1" pad="4"/>
<contactref element="U1" pad="26"/>
<wire x1="14.478" y1="59.309" x2="14.458665625" y2="59.318665625" width="0.4064" layer="1"/>
<wire x1="12.7" y1="57.56" x2="14.458665625" y2="59.318665625" width="0.4064" layer="1"/>
<wire x1="12.7" y1="57.56" x2="17.682" y2="52.578" width="0.4064" layer="1"/>
<wire x1="17.682" y1="52.578" x2="19.304" y2="52.578" width="0.4064" layer="1"/>
<contactref element="S1" pad="3"/>
<wire x1="22.32" y1="41.01" x2="22.32" y2="42.132" width="0.3048" layer="1"/>
<wire x1="24.003" y1="47.879" x2="19.304" y2="52.578" width="0.4064" layer="1"/>
<wire x1="22.32" y1="42.132" x2="24.003" y2="43.815" width="0.4064" layer="1"/>
<wire x1="24.003" y1="43.815" x2="24.003" y2="47.879" width="0.4064" layer="1"/>
<wire x1="14.478" y1="59.309" x2="19.304" y2="59.182" width="0" layer="19" extent="1-1"/>
</signal>
<signal name="A1">
<contactref element="U$2" pad="2"/>
<contactref element="U1" pad="4"/>
<wire x1="14.626" y1="23.505" x2="12.055" y2="23.505" width="0.4064" layer="1"/>
<wire x1="12.055" y1="23.505" x2="11.43" y2="24.13" width="0.4064" layer="1"/>
<wire x1="11.43" y1="24.13" x2="11.43" y2="35.941" width="0.4064" layer="1"/>
<wire x1="12.719" y1="37.23" x2="16.14" y2="37.23" width="0.3048" layer="1"/>
<wire x1="11.43" y1="35.941" x2="12.719" y2="37.23" width="0.4064" layer="1"/>
</signal>
<signal name="A2">
<contactref element="U$2" pad="3"/>
<contactref element="U1" pad="3"/>
<wire x1="14.626" y1="22.235" x2="12.055" y2="22.235" width="0.3048" layer="1"/>
<wire x1="12.055" y1="22.235" x2="10.16" y2="24.13" width="0.4064" layer="1"/>
<wire x1="10.16" y1="36.83" x2="10.16" y2="24.13" width="0.4064" layer="1"/>
<wire x1="16.14" y1="38.03" x2="11.36" y2="38.03" width="0.3048" layer="1"/>
<wire x1="11.36" y1="38.03" x2="10.16" y2="36.83" width="0.4064" layer="1"/>
</signal>
<signal name="B1">
<contactref element="U$3" pad="2"/>
<contactref element="U1" pad="2"/>
<wire x1="14.626" y1="13.345" x2="9.515" y2="13.345" width="0.4064" layer="1"/>
<wire x1="9.515" y1="13.345" x2="8.89" y2="13.97" width="0.4064" layer="1"/>
<wire x1="8.89" y1="13.97" x2="8.89" y2="37.592" width="0.4064" layer="1"/>
<wire x1="8.89" y1="37.592" x2="10.16" y2="38.862" width="0.4064" layer="1"/>
<wire x1="10.16" y1="38.862" x2="16.108" y2="38.862" width="0.3048" layer="1"/>
<wire x1="16.108" y1="38.862" x2="16.14" y2="38.83" width="0.3048" layer="1"/>
</signal>
<signal name="B2">
<contactref element="U$3" pad="3"/>
<contactref element="U1" pad="1"/>
<wire x1="14.626" y1="12.075" x2="8.245" y2="12.075" width="0.4064" layer="1"/>
<wire x1="8.245" y1="12.075" x2="7.62" y2="12.7" width="0.4064" layer="1"/>
<wire x1="7.62" y1="12.7" x2="7.62" y2="38.227" width="0.4064" layer="1"/>
<wire x1="7.62" y1="38.227" x2="9.023" y2="39.63" width="0.4064" layer="1"/>
<wire x1="9.023" y1="39.63" x2="16.14" y2="39.63" width="0.3048" layer="1"/>
</signal>
<signal name="COILA1">
<contactref element="U$2" pad="8"/>
<contactref element="JP1" pad="4"/>
<wire x1="35.306" y1="26.924" x2="38.1" y2="24.13" width="0.6096" layer="1"/>
<wire x1="38.1" y1="24.13" x2="38.1" y2="19.05" width="0.6096" layer="1"/>
<wire x1="38.1" y1="19.05" x2="35.94" y2="19.05" width="0.6096" layer="1"/>
<wire x1="35.306" y1="26.924" x2="23.093" y2="26.924" width="0.6096" layer="1"/>
<wire x1="20.934" y1="24.765" x2="23.093" y2="26.924" width="0.6096" layer="1"/>
</signal>
<signal name="N$10">
<contactref element="U$2" pad="7"/>
<contactref element="R2" pad="1"/>
<wire x1="20.934" y1="23.495" x2="23.536028125" y2="23.495" width="0.3048" layer="1"/>
<wire x1="23.536028125" y1="23.495" x2="24.765" y2="24.724" width="0.3048" layer="1"/>
</signal>
<signal name="COILA2">
<contactref element="U$2" pad="6"/>
<wire x1="20.934" y1="22.225" x2="22.225" y2="22.225" width="0.6096" layer="1"/>
<wire x1="22.225" y1="22.225" x2="22.479" y2="21.971" width="0.6096" layer="1"/>
<contactref element="JP1" pad="2"/>
<wire x1="22.479" y1="21.971" x2="25.654" y2="21.971" width="0.6096" layer="1"/>
<wire x1="28.448" y1="24.765" x2="34.925" y2="24.765" width="0.6096" layer="1"/>
<wire x1="25.654" y1="21.971" x2="28.448" y2="24.765" width="0.6096" layer="1"/>
<wire x1="34.925" y1="24.765" x2="35.94" y2="23.75" width="0.6096" layer="1"/>
<wire x1="35.94" y1="23.75" x2="35.94" y2="21.59" width="0.6096" layer="1"/>
</signal>
<signal name="VBB">
<contactref element="U$2" pad="5"/>
<contactref element="U$3" pad="5"/>
<contactref element="JP1" pad="5"/>
<contactref element="IC1" pad="2"/>
<contactref element="D1" pad="CATHODE"/>
<wire x1="40.64" y1="27.686" x2="40.64" y2="13.97" width="0.4064" layer="1"/>
<wire x1="40.64" y1="13.97" x2="33.02" y2="13.97" width="0.4064" layer="1"/>
<wire x1="33.02" y1="13.97" x2="30.48" y2="13.97" width="1.016" layer="1"/>
<wire x1="30.48" y1="13.97" x2="30.48" y2="16.51" width="0.3048" layer="1"/>
<wire x1="30.48" y1="16.51" x2="30.48" y2="11.43" width="1.016" layer="1"/>
<wire x1="30.48" y1="11.43" x2="29.21" y2="10.16" width="1.016" layer="1"/>
<wire x1="29.21" y1="10.16" x2="21.569" y2="10.16" width="1.016" layer="1"/>
<wire x1="21.569" y1="10.16" x2="20.934" y2="10.795" width="1.016" layer="1"/>
<contactref element="C2" pad="1"/>
<contactref element="C3" pad="1"/>
<wire x1="20.069" y1="18.288" x2="20.069" y2="20.09" width="1.016" layer="1"/>
<wire x1="20.069" y1="20.09" x2="20.934" y2="20.955" width="1.016" layer="1"/>
<wire x1="20.45" y1="6.35" x2="20.45" y2="9.041" width="1.016" layer="1"/>
<wire x1="20.45" y1="9.041" x2="21.569" y2="10.16" width="1.016" layer="1"/>
<wire x1="33.02" y1="13.97" x2="33.02" y2="23.368" width="1.016" layer="1"/>
<wire x1="33.02" y1="23.368" x2="28.96758125" y2="23.368" width="1.016" layer="1"/>
<wire x1="28.96758125" y1="23.368" x2="26.35138125" y2="20.7518" width="1.016" layer="1"/>
<wire x1="26.35138125" y1="20.7518" x2="21.1372" y2="20.7518" width="1.016" layer="1"/>
<wire x1="20.934" y1="20.955" x2="21.1372" y2="20.7518" width="0.3048" layer="1"/>
<wire x1="7.79" y1="42.23" x2="4.953" y2="39.393" width="0.4064" layer="1"/>
<wire x1="4.953" y1="9.017" x2="10.16" y2="3.81" width="0.4064" layer="1"/>
<wire x1="10.16" y1="3.81" x2="20.32" y2="3.81" width="0.4064" layer="1"/>
<wire x1="20.32" y1="3.81" x2="20.45" y2="3.94" width="0.3048" layer="1"/>
<wire x1="20.45" y1="3.94" x2="20.45" y2="6.35" width="0.4064" layer="1"/>
<wire x1="4.953" y1="39.393" x2="4.953" y2="9.017" width="0.4064" layer="1"/>
<wire x1="34.798" y1="37.416" x2="34.798" y2="33.528" width="0.4064" layer="1"/>
<wire x1="34.798" y1="33.528" x2="40.64" y2="27.686" width="0.4064" layer="1"/>
</signal>
<signal name="COILB1">
<contactref element="U$3" pad="8"/>
<wire x1="20.934" y1="14.605" x2="21.442" y2="15.113" width="0.6096" layer="1"/>
<wire x1="26.543" y1="15.113" x2="21.442" y2="15.113" width="0.6096" layer="1"/>
<wire x1="26.543" y1="15.113" x2="27.305" y2="15.875" width="0.6096" layer="1"/>
<contactref element="JP1" pad="1"/>
<wire x1="27.305" y1="19.685" x2="29.21" y2="21.59" width="0.6096" layer="1"/>
<wire x1="29.21" y1="21.59" x2="30.48" y2="21.59" width="0.4064" layer="1"/>
<wire x1="27.305" y1="15.875" x2="27.305" y2="19.685" width="0.6096" layer="1"/>
</signal>
<signal name="N$14">
<contactref element="U$3" pad="7"/>
<contactref element="R3" pad="1"/>
<wire x1="20.934" y1="13.335" x2="24.851" y2="13.335" width="0.4064" layer="1"/>
<wire x1="24.851" y1="13.335" x2="24.892" y2="13.294" width="0.3048" layer="1"/>
</signal>
<signal name="COILB2">
<contactref element="U$3" pad="6"/>
<wire x1="20.934" y1="12.065" x2="22.225" y2="12.065" width="0.6096" layer="1"/>
<wire x1="22.225" y1="12.065" x2="22.86" y2="11.43" width="0.6096" layer="1"/>
<wire x1="22.86" y1="11.43" x2="27.94" y2="11.43" width="0.6096" layer="1"/>
<contactref element="JP1" pad="3"/>
<wire x1="27.94" y1="11.43" x2="28.448" y2="11.938" width="0.6096" layer="1"/>
<wire x1="28.448" y1="18.034" x2="29.464" y2="19.05" width="0.6096" layer="1"/>
<wire x1="29.464" y1="19.05" x2="30.48" y2="19.05" width="0.3048" layer="1"/>
<wire x1="28.448" y1="11.938" x2="28.448" y2="18.034" width="0.6096" layer="1"/>
</signal>
<signal name="VREFA">
<contactref element="U1" pad="5"/>
<contactref element="U$2" pad="4"/>
<wire x1="14.626" y1="20.965" x2="13.472" y2="20.965" width="0.3048" layer="1"/>
<wire x1="13.472" y1="20.965" x2="12.446" y2="19.939" width="0.4064" layer="1"/>
<via x="12.446" y="19.939" extent="1-16" drill="0.8" diameter="1.3"/>
<wire x1="16.14" y1="36.43" x2="13.951" y2="36.43" width="0.3048" layer="1"/>
<wire x1="13.951" y1="36.43" x2="12.7" y2="35.179" width="0.4064" layer="1"/>
<via x="12.7" y="35.179" extent="1-16" drill="0.8" diameter="1.3"/>
<wire x1="12.7" y1="35.179" x2="12.446" y2="34.925" width="0.3048" layer="16"/>
<wire x1="12.446" y1="34.925" x2="12.446" y2="19.939" width="0.3048" layer="16"/>
</signal>
<signal name="VREFB">
<contactref element="U1" pad="6"/>
<contactref element="U$3" pad="4"/>
<wire x1="14.626" y1="10.805" x2="13.716" y2="9.895" width="0.4064" layer="1"/>
<wire x1="13.716" y1="9.895" x2="13.716" y2="9.525" width="0.3048" layer="1"/>
<via x="13.716" y="9.525" extent="1-16" drill="0.8" diameter="1.3"/>
<wire x1="13.716" y1="9.525" x2="13.716" y2="32.004" width="0.4064" layer="16"/>
<wire x1="13.716" y1="32.004" x2="13.97" y2="32.258" width="0.3048" layer="16"/>
<via x="13.97" y="32.258" extent="1-16" drill="0.8" diameter="1.3"/>
<wire x1="13.97" y1="32.258" x2="13.97" y2="35.179" width="0.4064" layer="1"/>
<wire x1="14.421" y1="35.63" x2="16.14" y2="35.63" width="0.3048" layer="1"/>
<wire x1="13.97" y1="35.179" x2="14.421" y2="35.63" width="0.4064" layer="1"/>
</signal>
<signal name="D-">
<contactref element="U1" pad="23"/>
<contactref element="U$1" pad="D-"/>
<wire x1="24.5" y1="38.83" x2="27.273" y2="38.83" width="0.3048" layer="1"/>
<wire x1="33.439" y1="44.996" x2="33.439" y2="56.936" width="0.3048" layer="1"/>
<wire x1="27.273" y1="38.83" x2="33.439" y2="44.996" width="0.4064" layer="1"/>
</signal>
<signal name="D+">
<contactref element="U1" pad="24"/>
<contactref element="U$1" pad="D+"/>
<wire x1="26.67" y1="39.63" x2="24.5" y2="39.63" width="0.3048" layer="1"/>
<wire x1="26.67" y1="39.63" x2="32.639" y2="45.599" width="0.4064" layer="1"/>
<wire x1="32.639" y1="45.599" x2="32.639" y2="56.936" width="0.3048" layer="1"/>
</signal>
</signals>
<mfgpreviewcolors>
<mfgpreviewcolor name="soldermaskcolor" color="0xC8008000"/>
<mfgpreviewcolor name="silkscreencolor" color="0xFFFEFEFE"/>
<mfgpreviewcolor name="backgroundcolor" color="0xFF282828"/>
<mfgpreviewcolor name="coppercolor" color="0xFFFFBF00"/>
<mfgpreviewcolor name="substratecolor" color="0xFF786E46"/>
</mfgpreviewcolors>
</board>
</drawing>
<compatibility>
<note version="8.2" severity="warning">
Since Version 8.2, EAGLE supports online libraries. The ids
of those online libraries will not be understood (or retained)
with this version.
</note>
<note version="8.3" severity="warning">
Since Version 8.3, EAGLE supports URNs for individual library
assets (packages, symbols, and devices). The URNs of those assets
will not be understood (or retained) with this version.
</note>
<note version="8.3" severity="warning">
Since Version 8.3, EAGLE supports the association of 3D packages
with devices in libraries, schematics, and board files. Those 3D
packages will not be understood (or retained) with this version.
</note>
</compatibility>
</eagle>
